0 Slope Brick Curved  2 x  1 with Black Headlamp on Yellow Background Right Sticker
0 Name: 11477dy2.dat
0 Author: Massimo Maso [Sirio]
0 !LDRAW_ORG Shortcut UPDATE 2022-04
0 !LICENSE Licensed under CC BY 4.0 : see CAreadme.txt

0 BFC CERTIFY CCW

0 !KEYWORDS Chevrolet, Corvette, Set 75870, Speed Champions

0 !HISTORY 2022-07-18 [PTadmin] Official Update 2022-04


1 16 0 0 0 1 0 0 0 1 0 0 0 1 11477.dat
1 16 0 0 0 1 0 0 0 1 0 0 0 1 6142622mc01.dat
