0 Constraction Limb  5 with Split Leg
0 Name: 20474.dat
0 Author: Magnus Forsberg [MagFors]
0 !LDRAW_ORG Part UPDATE 2018-02
0 !LICENSE Licensed under CC BY 4.0 : see CAreadme.txt

0 BFC CERTIFY CCW

0 !HISTORY 2016-03-18 {LEGO Digital Designer} Original part shape
0 !HISTORY 2016-04-07 [MagFors] File preparation for LDraw Parts Tracker
0 !HISTORY 2018-12-08 [PTadmin] Official Update 2018-02


1 16 0 0 0 1 0 0 0 1 0 0 0 1 s\20474s01.dat
1 16 0 0 0 1 0 0 0 -1 0 0 0 1 s\20474s01.dat
1 16 0 0 0 -1 0 0 0 1 0 0 0 1 s\20474s01.dat
1 16 0 0 0 -1 0 0 0 -1 0 0 0 1 s\20474s01.dat
