0 ~Duplo Door Frame  2 x  4 x  3 with Raised Door Outline (Obsolete)
0 Name: 2332.dat
0 Author: Michael Heidemann [mikeheide]
0 !LDRAW_ORG Part UPDATE 2022-06
0 !LICENSE Licensed under CC BY 4.0 : see CAreadme.txt

0 BFC CERTIFY CW

0 !CATEGORY Container

0 !HISTORY 2010-12-31 [PTadmin] Official Update 2010-03
0 !HISTORY 2020-11-20 [cwdee] Obsoleted due to bad geometry
0 !HISTORY 2022-12-20 [PTadmin] Official Update 2022-06


0 BFC INVERTNEXT
1 16 0 144 0 -76 0 0 0 -16 0 0 0 -36 box5.dat
4 16 -80 0 -40 -80 144 -40 -80 144 40 -80 0 40
4 16 -76 4 40 -76 124 40 -76 124 -36 -76 4 -36
4 16 -76 126 36 -76 124 36 -76 124 40 -76 126 40
4 16 76 126 40 76 124 40 76 124 36 76 126 36
4 16 76 4 -36 76 124 -36 76 124 40 76 4 40
4 16 80 0 40 80 144 40 80 144 -40 80 0 -40
2 24 80 0 40 80 0 -40
2 24 -80 0 40 -80 0 -40
2 24 -76 4 40 -76 4 -40
2 24 76 4 40 76 4 -40
2 24 -80 144 40 -80 144 -40
2 24 80 144 40 80 144 -40
2 24 80 144 40 -80 144 40
2 24 80 144 -40 -80 144 -40
2 24 80 0 40 -80 0 40
2 24 80 0 -40 -80 0 -40
2 24 80 0 -40 80 144 -40
2 24 80 0 40 80 144 40
2 24 76 4 40 76 126 40
2 24 -76 4 40 -76 126 40
2 24 -76 4 40 76 4 40
2 24 -76 126 40 76 126 40
2 24 -76 124 -36 -76 124 36
2 24 76 124 -36 76 124 36
2 24 76 126 40 76 126 36
2 24 76 124 36 76 126 36
2 24 -76 124 36 -76 126 36
2 24 -76 126 40 -76 126 36
2 24 -76 126 36 76 126 36
4 16 80 0 40 -80 0 40 -76 4 40 76 4 40
4 16 76 126 40 -76 126 40 -80 144 40 80 144 40
4 16 76 126 36 -76 126 36 -76 126 40 76 126 40
4 16 -80 0 40 -80 144 40 -76 126 40 -76 4 40
4 16 76 4 40 76 126 40 80 144 40 80 0 40
2 24 -80 0 -40 -80 144 -40
2 24 -80 0 40 -80 144 40
4 16 80 0 -40 -80 0 -40 -80 0 40 80 0 40
4 16 76 124 -36 -76 124 -36 -76 124 31 76 124 31
4 16 76 124 31 60 124 31 60 124 36 76 124 36
4 16 -60 124 31 -76 124 31 -76 124 36 -60 124 36
0 BFC INVERTNEXT
1 16 -57.5 124 31 -2.5 0 0 0 0 2.5 0 5 0 2-4cyli.dat
1 16 -57.5 124 31 2.5 0 0 0 0 2.5 0 -5 0 2-4disc.dat
1 16 -57.5 124 31 -2.5 0 0 0 0 2.5 0 5 0 2-4edge.dat
1 16 -57.5 124 36 -2.5 0 0 0 0 2.5 0 5 0 2-4edge.dat
1 16 -57.5 124 36 2.5 0 0 0 0 2.5 0 -5 0 2-4ndis.dat
0 BFC INVERTNEXT
1 16 57.5 124 31 -2.5 0 0 0 0 2.5 0 5 0 2-4cyli.dat
1 16 57.5 124 31 -2.5 0 0 0 0 2.5 0 5 0 2-4edge.dat
1 16 57.5 124 36 -2.5 0 0 0 0 2.5 0 5 0 2-4edge.dat
1 16 57.5 124 36 2.5 0 0 0 0 2.5 0 -5 0 2-4ndis.dat
2 24 -55 124 36 55 124 36
2 24 -76 124 36 -60 124 36
2 24 60 124 36 76 124 36
1 16 57.5 124 31 2.5 0 0 0 0 2.5 0 -5 0 2-4disc.dat
4 16 55 124 31 -55 124 31 -55 124 36 55 124 36
2 24 60 124 31 55 124 31
2 24 60 124 31 60 124 36
2 24 55 124 31 55 124 36
2 24 -55 124 31 -55 124 36
2 24 -60 124 31 -60 124 36
2 24 -60 124 31 -55 124 31
4 16 76 124 36 60 124 36 60 126 36 76 126 36
4 16 55 124 36 -55 124 36 -55 126 36 55 126 36
4 16 -60 124 36 -76 124 36 -76 126 36 -60 126 36
4 16 -76 4 -36 76 4 -36 76 4 40 -76 4 40
4 16 76 144 -36 -76 144 -36 -80 144 -40 80 144 -40
4 16 76 144 36 76 144 -36 80 144 -40 80 144 40
4 16 -76 144 36 76 144 36 80 144 40 -80 144 40
4 16 -76 144 -36 -76 144 36 -80 144 40 -80 144 -40
1 16 -60 0 -20 -1 0 0 0 2.75 0 0 0 -1 stud7.dat
1 16 -20 0 -20 -1 0 0 0 2.75 0 0 0 -1 stud7.dat
1 16 20 0 -20 -1 0 0 0 2.75 0 0 0 -1 stud7.dat
1 16 60 0 -20 -1 0 0 0 2.75 0 0 0 -1 stud7.dat
1 16 -60 0 20 -1 0 0 0 2.75 0 0 0 -1 stud7.dat
1 16 -20 0 20 -1 0 0 0 2.75 0 0 0 -1 stud7.dat
1 16 20 0 20 -1 0 0 0 2.75 0 0 0 -1 stud7.dat
1 16 60 0 20 -1 0 0 0 2.75 0 0 0 -1 stud7.dat
1 16 -40 128 0 -1 0 0 0 -3 0 0 0 -1 stud8.dat
1 16 0 128 0 -1 0 0 0 -3 0 0 0 -1 stud8.dat
1 16 40 128 0 -1 0 0 0 -3 0 0 0 -1 stud8.dat
1 16 -60 128 34 -1.5 0 0 0 16 0 0 0 -2 box4-1.dat
1 16 -20 128 34 -1.5 0 0 0 16 0 0 0 -2 box4-1.dat
1 16 20 128 34 -1.5 0 0 0 16 0 0 0 -2 box4-1.dat
1 16 60 128 34 -1.5 0 0 0 16 0 0 0 -2 box4-1.dat
1 16 -60 128 -34 -1.5 0 0 0 16 0 0 0 2 box4-1.dat
1 16 -20 128 -34 -1.5 0 0 0 16 0 0 0 2 box4-1.dat
1 16 20 128 -34 -1.5 0 0 0 16 0 0 0 2 box4-1.dat
1 16 60 128 -34 -1.5 0 0 0 16 0 0 0 2 box4-1.dat
1 16 74 128 20 0 0 -2 0 16 0 1.5 0 0 box4-1.dat
1 16 -74 128 20 0 0 2 0 16 0 -1.5 0 0 box4-1.dat
1 16 74 128 -20 0 0 -2 0 16 0 1.5 0 0 box4-1.dat
1 16 -74 128 -20 0 0 2 0 16 0 -1.5 0 0 box4-1.dat
2 24 -58 130 -40 58 130 -40
2 24 -65 124 -40 -51 124 -40
2 24 -65 124 -40 -65 124 -36
2 24 -76 124 -36 -65 124 -36
2 24 -76 124 -36 -76 4 -36
2 24 -65 124 -36 -65 29 -36
2 24 -65 124 -40 -65 29 -40
2 24 76 4 -36 -76 4 -36
2 24 76 4 -36 76 124 -36
2 24 65 124 -36 76 124 -36
2 24 65 124 -36 65 124 -40
2 24 51 124 -40 65 124 -40
4 16 -58 130 -45 58 130 -45 58 130 -40 -58 130 -40
4 16 -65 124 -36 65 124 -36 65 124 -40 -65 124 -40
4 16 -51 124 -40 51 124 -40 51 124 -45 -51 124 -45
1 16 58 118 -40 0 0 12 12 0 0 0 1 0 1-4edge.dat
1 16 58 118 -40 0 0 12 12 0 0 0 -5 0 1-4cyli.dat
1 16 -58 118 -40 0 0 -12 12 0 0 0 1 0 1-4edge.dat
1 16 -58 118 -45 0 0 -12 12 0 0 0 1 0 1-4disc.dat
1 16 -58 118 -40 0 0 -12 12 0 0 0 1 0 1-4ndis.dat
1 16 -58 118 -40 -12 0 0 0 0 12 0 -1 0 1-4disc.dat
1 16 58 118 -45 12 0 0 0 0 12 0 1 0 1-4disc.dat
1 16 58 118 -40 12 0 0 0 0 12 0 1 0 1-4ndis.dat
1 16 58 118 -40 0 0 12 12 0 0 0 -1 0 1-4disc.dat
1 16 -58 118 -40 0 0 -12 12 0 0 0 -5 0 1-4cyli.dat
2 24 70 50 -40 70 94 -40
4 16 70 50 -40 70 94 -40 70 94 -45 70 50 -45
2 24 70 25 -40 70 32 -40
2 24 65 29 -40 65 31 -40
2 24 65 29 -36 65 31 -36
2 24 76 37 -36 65 31 -36
2 24 76 37 -40 65 31 -40
2 24 76 37 -40 76 45 -40
2 24 65 51 -40 76 45 -40
2 24 65 51 -36 76 45 -36
2 24 65 51 -36 65 93 -36
2 24 65 51 -40 65 93 -40
2 24 76 99 -40 65 93 -40
2 24 76 99 -36 65 93 -36
2 24 76 99 -36 76 107 -36
2 24 76 99 -40 76 107 -40
2 24 65 113 -40 76 107 -40
2 24 65 113 -36 76 107 -36
2 24 65 113 -36 65 124 -36
4 16 65 113 -40 65 124 -40 65 124 -36 65 113 -36
4 16 76 107 -40 65 113 -40 65 113 -36 76 107 -36
4 16 76 99 -40 76 107 -40 76 107 -36 76 99 -36
4 16 65 93 -40 76 99 -40 76 99 -36 65 93 -36
4 16 76 45 -40 65 51 -40 65 51 -36 76 45 -36
4 16 76 37 -40 76 45 -40 76 45 -36 76 37 -36
4 16 65 29 -40 65 31 -40 65 31 -36 65 29 -36
4 16 65 31 -40 76 37 -40 76 37 -36 65 31 -36
4 16 70 32 -40 71 32 -40 71 32 -45 70 32 -45
4 16 70 50 -45 71 50 -45 71 50 -40 70 50 -40
4 16 70 94 -40 71 94 -40 71 94 -45 70 94 -45
4 16 70 112 -45 71 112 -45 71 112 -40 70 112 -40
4 16 65 51 -40 65 93 -40 65 93 -36 65 51 -36
2 24 65 113 -40 65 124 -40
2 24 65 113 -36 65 113 -40
2 24 76 107 -36 76 107 -40
2 24 76 99 -36 76 99 -40
2 24 65 93 -36 65 93 -40
2 24 65 51 -36 65 51 -40
2 24 76 45 -36 76 45 -40
2 24 76 37 -36 76 37 -40
2 24 65 31 -36 65 31 -40
4 16 70 25 -40 70 32 -40 70 32 -45 70 25 -45
2 24 65 35 -40 65 47 -40
2 24 65 35 -40 65 35 -45
2 24 70 35 -40 70 35 -45
2 24 65 47 -40 65 47 -45
2 24 70 47 -40 70 47 -45
2 24 65 97 -40 65 97 -45
2 24 70 97 -40 70 97 -45
2 24 70 94 -40 70 94 -45
2 24 70 112 -40 70 112 -45
2 24 70 32 -40 70 32 -45
2 24 70 50 -40 70 50 -45
2 24 65 109 -40 65 109 -45
2 24 70 109 -40 70 109 -45
2 24 70 35 -40 70 47 -40
2 24 65 35 -40 70 35 -40
2 24 65 47 -40 70 47 -40
2 24 70 112 -40 70 118 -40
4 16 70 112 -40 70 118 -40 70 118 -45 70 112 -45
2 24 65 97 -40 65 109 -40
4 16 65 97 -40 65 109 -40 65 109 -45 65 97 -45
4 16 70 97 -45 70 109 -45 70 109 -40 70 97 -40
4 16 65 35 -40 65 47 -40 65 47 -45 65 35 -45
4 16 57 14 -40 57 35 -40 70 35 -40 70 25 -40
4 16 70 25 -45 70 35 -45 57 35 -45 57 14 -45
4 16 80 0 -40 80 32 -40 70 32 -40 70 9 -40
4 16 80 0 -40 70 9 -40 54 9 -40 16 6 -40
4 16 80 0 -40 16 6 -40 -15 6 -40 -80 0 -40
4 16 71 32 -45 71 50 -45 70 50 -45 70 32 -45
4 16 71 50 -40 71 32 -40 70 32 -40 70 50 -40
4 16 57 35 -40 57 47 -40 65 47 -40 65 35 -40
4 16 65 35 -45 65 47 -45 57 47 -45 57 35 -45
4 16 57 47 -40 57 97 -40 70 97 -40 70 47 -40
4 16 70 47 -45 70 97 -45 57 97 -45 57 47 -45
4 16 80 50 -40 80 94 -40 70 94 -40 70 50 -40
4 16 57 97 -40 57 109 -40 65 109 -40 65 97 -40
4 16 65 97 -45 65 109 -45 57 109 -45 57 97 -45
4 16 57 109 -40 57 118 -40 70 118 -40 70 109 -40
4 16 70 109 -45 70 118 -45 57 118 -45 57 109 -45
4 16 80 112 -40 80 130 -40 70 130 -40 70 112 -40
4 16 71 94 -45 71 112 -45 70 112 -45 70 94 -45
4 16 71 112 -40 71 94 -40 70 94 -40 70 112 -40
4 16 57 118 -40 57 130 -40 58 130 -40 58 118 -40
4 16 58 118 -45 58 130 -45 57 130 -45 57 118 -45
4 16 -58 124 -40 -58 130 -40 57 130 -40 57 124 -40
4 16 57 124 -45 57 130 -45 -58 130 -45 -58 124 -45
4 16 80 130 -40 80 144 -40 -80 144 -40 -80 130 -40
4 16 -58 118 -40 -58 124 -40 -57 124 -40 -57 118 -40
4 16 -57 118 -45 -57 124 -45 -58 124 -45 -58 118 -45
4 16 -70 25 -40 -70 118 -40 -57 118 -40 -57 14 -40
4 16 -76 4 -36 -76 124 -36 -65 124 -36 -65 13 -36
4 16 -65 29 -36 -65 124 -36 -65 124 -40 -65 29 -40
4 16 -57 14 -45 -57 118 -45 -70 118 -45 -70 25 -45
4 16 -70 9 -40 -70 130 -40 -80 130 -40 -80 0 -40
4 16 -15 6 -40 -54 9 -40 -70 9 -40 -80 0 -40
4 16 -76 4 -36 -65 13 -36 -49 13 -36 -11 10 -36
4 16 -76 4 -36 -11 10 -36 12 10 -36 76 4 -36
4 16 76 4 -36 12 10 -36 49 13 -36 76 13 -36
4 16 65 13 -36 65 31 -36 76 37 -36 76 13 -36
4 16 76 99 -36 76 45 -36 65 51 -36 65 93 -36
4 16 65 113 -36 65 124 -36 76 124 -36 76 107 -36
4 16 70 35 -45 70 47 -45 70 47 -40 70 35 -40
2 24 70 97 -40 70 109 -40
2 24 65 97 -40 70 97 -40
4 16 65 109 -40 70 109 -40 70 109 -45 65 109 -45
4 16 70 97 -40 65 97 -40 65 97 -45 70 97 -45
4 16 65 47 -40 70 47 -40 70 47 -45 65 47 -45
4 16 70 35 -40 65 35 -40 65 35 -45 70 35 -45
2 24 65 109 -40 70 109 -40
2 24 57 22 -40 57 118 -40
4 16 57 22 -45 57 118 -45 57 118 -40 57 22 -40
2 24 -57 22 -40 -57 118 -40
4 16 -57 22 -40 -57 118 -40 -57 118 -45 -57 22 -45
2 24 -70 25 -40 -70 118 -40
1 16 54 25 -40 0 0 16 -16 0 0 0 1 0 1-4edge.dat
1 16 54 25 -40 0 0 16 -16 0 0 0 -5 0 1-4cyli.dat
1 16 54 25 -40 0 0 16 -16 0 0 0 -5 0 1-4chrd.dat
1 16 54 25 -45 0 0 16 -16 0 0 0 5 0 1-4chrd.dat
1 16 71 41 -40 0 0 9 -9 0 0 0 1 0 2-4edge.dat
1 16 71 41 -40 0 0 9 9 0 0 0 -1 0 2-4disc.dat
1 16 71 41 -45 0 0 9 -9 0 0 0 1 0 2-4disc.dat
1 16 71 41 -40 0 0 9 -9 0 0 0 1 0 2-4ndis.dat
1 16 71 103 -40 0 0 9 -9 0 0 0 1 0 2-4ndis.dat
1 16 71 103 -40 0 0 9 9 0 0 0 -1 0 2-4disc.dat
1 16 71 103 -45 0 0 9 -9 0 0 0 1 0 2-4disc.dat
1 16 71 41 -40 0 0 9 -9 0 0 0 -5 0 2-4cyli.dat
1 16 71 103 -40 0 0 9 -9 0 0 0 1 0 2-4edge.dat
1 16 71 103 -40 0 0 9 -9 0 0 0 -5 0 2-4cyli.dat
1 16 -54 25 -40 0 0 -16 -16 0 0 0 1 0 1-4edge.dat
1 16 -49 29 -36 0 0 -16 -16 0 0 0 1 0 1-4edge.dat
1 16 -49 29 -36 0 0 -16 -16 0 0 0 -1 0 1-4ndis.dat
1 16 -49 29 -40 0 0 -16 -16 0 0 0 1 0 1-4edge.dat
0 BFC INVERTNEXT
1 16 -49 29 -36 0 0 -16 -16 0 0 0 -4 0 1-4cyli.dat
1 16 -54 25 -40 0 0 -16 -16 0 0 0 -5 0 1-4cyli.dat
2 24 -15 6 -40 15 6 -40
2 24 -10 10 -36 10 10 -36
4 16 -10 10 -40 10 10 -40 10 10 -36 -10 10 -36
2 24 -10 10 -40 10 10 -40
4 16 15 6 -40 -15 6 -40 -15 14 -40 15 14 -40
4 16 15 14 -45 -15 14 -45 -15 6 -45 15 6 -45
4 16 -15 6 -40 -54 9 -40 -57 14 -40 -15 14 -40
4 16 -15 14 -45 -57 14 -45 -54 9 -45 -15 6 -45
4 16 54 9 -40 15 6 -40 15 14 -40 57 14 -40
4 16 57 14 -45 15 14 -45 15 6 -45 54 9 -45
4 16 -15 6 -40 15 6 -40 15 6 -45 -15 6 -45
2 24 -54 9 -40 -15 6 -40
2 24 -49 13 -36 -10 10 -36
4 16 -49 13 -36 -49 13 -40 -10 10 -40 -10 10 -36
2 24 -49 13 -40 -10 10 -40
4 16 -54 9 -40 -15 6 -40 -15 6 -45 -54 9 -45
2 24 54 9 -40 15 6 -40
2 24 49 13 -36 10 10 -36
4 16 49 13 -36 10 10 -36 10 10 -40 49 13 -40
2 24 49 13 -40 10 10 -40
4 16 54 9 -40 54 9 -45 15 6 -45 15 6 -40
2 24 49 14 -40 -49 14 -40
4 16 49 14 -40 -49 14 -40 -49 14 -45 49 14 -45
1 16 -49 22 -40 0 0 -8 -8 0 0 0 1 0 1-4edge.dat
0 BFC INVERTNEXT
1 16 -49 22 -40 0 0 -8 -8 0 0 0 -5 0 1-4cyli.dat
1 16 49 22 -40 0 0 8 -8 0 0 0 1 0 1-4edge.dat
1 16 49 22 -45 0 0 8 -8 0 0 0 1 0 1-4ndis.dat
1 16 49 22 -40 8 0 0 0 0 -8 0 -1 0 1-4ndis.dat
1 16 -49 22 -45 -8 0 0 0 0 -8 0 1 0 1-4ndis.dat
1 16 -49 22 -40 0 0 -8 -8 0 0 0 -1 0 1-4ndis.dat
0 BFC INVERTNEXT
1 16 49 22 -40 0 0 8 -8 0 0 0 -5 0 1-4cyli.dat
1 16 -51 118 -40 0 0 -6 6 0 0 0 -1 0 1-4edge.dat
1 16 -51 118 -40 0 0 -6 6 0 0 0 -1 0 1-4ndis.dat
1 16 -51 118 -45 -6 0 0 0 0 6 0 1 0 1-4ndis.dat
1 16 51 118 -40 6 0 0 0 0 6 0 -1 0 1-4ndis.dat
1 16 51 118 -45 0 0 6 6 0 0 0 1 0 1-4ndis.dat
0 BFC INVERTNEXT
1 16 -51 118 -40 0 0 -6 6 0 0 0 -5 0 1-4cyli.dat
1 16 51 118 -40 0 0 6 6 0 0 0 -1 0 1-4edge.dat
0 BFC INVERTNEXT
1 16 51 118 -40 0 0 6 6 0 0 0 -5 0 1-4cyli.dat
2 24 -58 130 -45 58 130 -45
2 24 -51 124 -45 51 124 -45
1 16 58 118 -45 0 0 12 12 0 0 0 1 0 1-4edge.dat
1 16 -58 118 -45 0 0 -12 12 0 0 0 1 0 1-4edge.dat
2 24 70 50 -45 70 94 -45
2 24 70 25 -45 70 32 -45
2 24 65 35 -45 65 47 -45
2 24 70 35 -45 70 47 -45
2 24 65 35 -45 70 35 -45
2 24 70 32 -45 71 32 -45
2 24 70 32 -40 71 32 -40
2 24 65 47 -45 70 47 -45
2 24 70 112 -45 70 118 -45
2 24 65 97 -45 65 109 -45
2 24 70 97 -45 70 109 -45
2 24 65 97 -45 70 97 -45
2 24 70 94 -45 71 94 -45
2 24 70 50 -45 71 50 -45
2 24 70 94 -40 71 94 -40
2 24 70 112 -45 71 112 -45
2 24 70 112 -40 71 112 -40
2 24 65 109 -45 70 109 -45
2 24 57 22 -45 57 118 -45
2 24 -57 22 -45 -57 118 -45
2 24 -70 25 -45 -70 118 -45
4 16 -70 25 -45 -70 118 -45 -70 118 -40 -70 25 -40
1 16 54 25 -45 0 0 16 -16 0 0 0 1 0 1-4edge.dat
1 16 49 29 -36 0 0 16 -16 0 0 0 1 0 1-4edge.dat
1 16 49 29 -36 0 0 16 -16 0 0 0 -1 0 1-4ndis.dat
1 16 49 29 -40 0 0 16 -16 0 0 0 1 0 1-4edge.dat
0 BFC INVERTNEXT
1 16 49 29 -36 0 0 16 -16 0 0 0 -4 0 1-4cyli.dat
1 16 54 25 -40 0 0 16 -16 0 0 0 1 0 1-4ndis.dat
1 16 71 41 -45 0 0 9 -9 0 0 0 1 0 2-4edge.dat
1 16 71 103 -45 0 0 9 -9 0 0 0 1 0 2-4edge.dat
1 16 -54 25 -45 0 0 -16 -16 0 0 0 1 0 1-4edge.dat
1 16 -54 25 -40 0 0 -16 -16 0 0 0 1 0 1-4ndis.dat
1 16 -54 25 -45 0 0 -16 -16 0 0 0 1 0 1-4chrd.dat
1 16 -54 25 -40 0 0 -16 -16 0 0 0 -1 0 1-4chrd.dat
2 24 -15 6 -45 15 6 -45
2 24 -54 9 -45 -15 6 -45
2 24 54 9 -45 15 6 -45
3 16 54 9 -40 57 14 -40 70 25 -40
3 16 70 25 -45 57 14 -45 54 9 -45
3 16 -54 9 -40 -70 25 -40 -57 14 -40
3 16 -57 14 -45 -70 25 -45 -54 9 -45
2 24 49 14 -45 -50 14 -45
1 16 -49 22 -45 0 0 -8 -8 0 0 0 1 0 1-4edge.dat
1 16 49 22 -45 0 0 8 -8 0 0 0 1 0 1-4edge.dat
1 16 -51 118 -45 0 0 -6 6 0 0 0 -1 0 1-4edge.dat
1 16 51 118 -45 0 0 6 6 0 0 0 -1 0 1-4edge.dat
1 16 -42.5 14 -42.5 0 0 2.5 0 6 0 2.5 0 0 4-4cyli.dat
1 16 -42.5 14 -42.5 0 0 2.5 0 5 0 2.5 0 0 4-4edge.dat
1 16 -42.5 20 -42.5 0 0 2.5 0 5 0 2.5 0 0 4-4edge.dat
1 16 -42.5 20 -42.5 0 0 2.5 0 -5 0 -2.5 0 0 4-4disc.dat
0 // Aussen?sen
2 24 65.08 47 -44.872 65.08 35 -44.872
2 24 65.08 47 -45.872 59.08 47 -45.872
2 24 65.08 47 -45 59.08 47 -45
4 16 59.08 47 -45.872 65.08 47 -45.872 65.08 47 -44.872 59.08 47 -44.872
4 16 65.08 35 -45.872 59.08 35 -45.872 59.08 35 -44.872 65.08 35 -44.872
4 16 70.08 47 -45.872 76.08 47 -45.872 76.08 47 -44.872 70.08 47 -44.872
4 16 70.08 35 -44.872 76.08 35 -44.872 76.08 35 -45.872 70.08 35 -45.872
4 16 59.08 47 -44.872 59.08 35 -44.872 59.08 35 -45.872 59.08 47 -45.872
4 16 70.08 47 -44.872 70.08 35 -44.872 70.08 35 -45.872 70.08 47 -45.872
4 16 70.08 47 -45.872 70.08 35 -45.872 70.08 38 -50.872 70.08 44 -50.872
4 16 65.08 35 -45.872 65.08 47 -45.872 65.08 44 -50.872 65.08 38 -50.872
4 16 65.08 35 -44.872 65.08 47 -44.872 65.08 47 -45.872 65.08 35 -45.872
4 16 76.08 35 -44.872 76.08 47 -44.872 76.08 47 -45.872 76.08 35 -45.872
2 24 65.08 47 -44.872 59.08 47 -44.872
2 24 76.08 47 -44.872 70.08 47 -44.872
2 24 76.08 35 -44.872 70.08 35 -44.872
2 24 65.08 35 -44.872 59.08 35 -44.872
2 24 59.08 47 -44.872 59.08 35 -44.872
2 24 76.08 47 -45.872 76.08 35 -45.872
2 24 76.08 47 -45 76.08 35 -45
2 24 65.08 35 -45.872 59.08 35 -45.872
2 24 65.08 35 -45 59.08 35 -45
2 24 76.08 35 -45.872 70.08 35 -45.872
2 24 76.08 35 -45 70.08 35 -45
2 24 76.08 47 -44.872 76.08 35 -44.872
2 24 59.08 47 -45.872 59.08 35 -45.872
2 24 59.08 47 -45 59.08 35 -45
2 24 65.08 44 -50.872 65.08 38 -50.872
2 24 65.08 44 -50.872 65.08 47 -45.872
2 24 65.08 38 -50.872 65.08 35 -45.872
2 24 61.08 44 -50.872 61.08 38 -50.872
2 24 61.08 44 -50.872 65.08 44 -50.872
4 16 61.08 38 -50.872 65.08 38 -50.872 65.08 44 -50.872 61.08 44 -50.872
4 16 61.08 44 -50.872 65.08 44 -50.872 65.08 47 -45.872 59.08 47 -45.872
4 16 70.08 44 -50.872 74.08 44 -50.872 76.08 47 -45.872 70.08 47 -45.872
4 16 70.08 38 -50.872 74.08 38 -50.872 74.08 44 -50.872 70.08 44 -50.872
4 16 70.08 35 -45.872 76.08 35 -45.872 74.08 38 -50.872 70.08 38 -50.872
4 16 59.08 35 -45.872 65.08 35 -45.872 65.08 38 -50.872 61.08 38 -50.872
4 16 74.08 38 -50.872 76.08 35 -45.872 76.08 47 -45.872 74.08 44 -50.872
4 16 61.08 44 -50.872 59.08 47 -45.872 59.08 35 -45.872 61.08 38 -50.872
2 24 61.08 38 -50.872 65.08 38 -50.872
2 24 61.08 44 -50.872 59.08 47 -45.872
2 24 59.08 47 -45.872 59.08 47 -44.872
2 24 65.08 47 -45.872 65.08 47 -44.872
2 24 70.08 47 -45.872 70.08 47 -44.872
2 24 76.08 47 -45.872 76.08 47 -44.872
2 24 76.08 35 -45.872 76.08 35 -44.872
2 24 70.08 35 -45.872 70.08 35 -44.872
2 24 65.08 35 -45.872 65.08 35 -44.872
2 24 59.08 35 -45.872 59.08 35 -44.872
2 24 61.08 38 -50.872 59.08 35 -45.872
2 24 70.08 44 -50.872 70.08 38 -50.872
2 24 70.08 44 -50.872 70.08 47 -45.872
2 24 70.08 38 -50.872 70.08 35 -45.872
2 24 74.08 44 -50.872 74.08 38 -50.872
2 24 74.08 44 -50.872 70.08 44 -50.872
2 24 74.08 38 -50.872 70.08 38 -50.872
2 24 74.08 44 -50.872 76.08 47 -45.872
2 24 74.08 38 -50.872 76.08 35 -45.872
2 24 76.08 47 -45.872 70.08 47 -45.872
2 24 76.08 47 -45 70.08 47 -45
2 24 70.08 47 -44.872 70.08 35 -44.872
0 // Aussen?sen
2 24 65.08 109 -44.872 65.08 97 -44.872
2 24 65.08 109 -45.872 59.08 109 -45.872
2 24 65.08 109 -45 59.08 109 -45
4 16 59.08 109 -45.872 65.08 109 -45.872 65.08 109 -44.872 59.08 109 -44.872
4 16 65.08 97 -45.872 59.08 97 -45.872 59.08 97 -44.872 65.08 97 -44.872
4 16 70.08 109 -45.872 76.08 109 -45.872 76.08 109 -44.872 70.08 109 -44.872
4 16 70.08 97 -44.872 76.08 97 -44.872 76.08 97 -45.872 70.08 97 -45.872
4 16 59.08 109 -44.872 59.08 97 -44.872 59.08 97 -45.872 59.08 109 -45.872
4 16 70.08 109 -44.872 70.08 97 -44.872 70.08 97 -45.872 70.08 109 -45.872
4 16 70.08 109 -45.872 70.08 97 -45.872 70.08 100 -50.872 70.08 106 -50.872
4 16 65.08 97 -45.872 65.08 109 -45.872 65.08 106 -50.872 65.08 100 -50.872
4 16 65.08 97 -44.872 65.08 109 -44.872 65.08 109 -45.872 65.08 97 -45.872
4 16 76.08 97 -44.872 76.08 109 -44.872 76.08 109 -45.872 76.08 97 -45.872
2 24 65.08 109 -44.872 59.08 109 -44.872
2 24 76.08 109 -44.872 70.08 109 -44.872
2 24 76.08 97 -44.872 70.08 97 -44.872
2 24 65.08 97 -44.872 59.08 97 -44.872
2 24 59.08 109 -44.872 59.08 97 -44.872
2 24 76.08 109 -45.872 76.08 97 -45.872
2 24 76.08 109 -45 76.08 97 -45
2 24 65.08 97 -45.872 59.08 97 -45.872
2 24 65.08 97 -45 59.08 97 -45
2 24 76.08 97 -45.872 70.08 97 -45.872
2 24 76.08 97 -45 70.08 97 -45
2 24 76.08 109 -44.872 76.08 97 -44.872
2 24 59.08 109 -45.872 59.08 97 -45.872
2 24 59.08 109 -45 59.08 97 -45
2 24 65.08 106 -50.872 65.08 100 -50.872
2 24 65.08 106 -50.872 65.08 109 -45.872
2 24 65.08 100 -50.872 65.08 97 -45.872
2 24 61.08 106 -50.872 61.08 100 -50.872
2 24 61.08 106 -50.872 65.08 106 -50.872
4 16 61.08 100 -50.872 65.08 100 -50.872 65.08 106 -50.872 61.08 106 -50.872
4 16 61.08 106 -50.872 65.08 106 -50.872 65.08 109 -45.872 59.08 109 -45.872
4 16 70.08 106 -50.872 74.08 106 -50.872 76.08 109 -45.872 70.08 109 -45.872
4 16 70.08 100 -50.872 74.08 100 -50.872 74.08 106 -50.872 70.08 106 -50.872
4 16 70.08 97 -45.872 76.08 97 -45.872 74.08 100 -50.872 70.08 100 -50.872
4 16 59.08 97 -45.872 65.08 97 -45.872 65.08 100 -50.872 61.08 100 -50.872
4 16 74.08 100 -50.872 76.08 97 -45.872 76.08 109 -45.872 74.08 106 -50.872
4 16 61.08 106 -50.872 59.08 109 -45.872 59.08 97 -45.872 61.08 100 -50.872
2 24 61.08 100 -50.872 65.08 100 -50.872
2 24 61.08 106 -50.872 59.08 109 -45.872
2 24 59.08 109 -45.872 59.08 109 -44.872
2 24 65.08 109 -45.872 65.08 109 -44.872
2 24 70.08 109 -45.872 70.08 109 -44.872
2 24 76.08 109 -45.872 76.08 109 -44.872
2 24 76.08 97 -45.872 76.08 97 -44.872
2 24 70.08 97 -45.872 70.08 97 -44.872
2 24 65.08 97 -45.872 65.08 97 -44.872
2 24 59.08 97 -45.872 59.08 97 -44.872
2 24 61.08 100 -50.872 59.08 97 -45.872
2 24 70.08 106 -50.872 70.08 100 -50.872
2 24 70.08 106 -50.872 70.08 109 -45.872
2 24 70.08 100 -50.872 70.08 97 -45.872
2 24 74.08 106 -50.872 74.08 100 -50.872
2 24 74.08 106 -50.872 70.08 106 -50.872
2 24 74.08 100 -50.872 70.08 100 -50.872
2 24 74.08 106 -50.872 76.08 109 -45.872
2 24 74.08 100 -50.872 76.08 97 -45.872
2 24 76.08 109 -45.872 70.08 109 -45.872
2 24 76.08 109 -45 70.08 109 -45
2 24 70.08 109 -44.872 70.08 97 -44.872
1 16 0 0 0 1 0 0 0 1 0 0 0 -1 s\2332s01.dat
