0 Tile  1 x  4 with German Front License Plate "K AM58IH" Sticker
0 Name: 2431dt2.dat
0 Author: Ulrich Röder [UR]
0 !LDRAW_ORG Shortcut UPDATE 2019-01
0 !LICENSE Licensed under CC BY 4.0 : see CAreadme.txt

0 BFC CERTIFY CCW

0 !KEYWORDS Ford, Mustang, Set 10265

0 !HISTORY 2019-06-28 [PTadmin] Official Update 2019-01


1 16 0 0 0 1 0 0 0 1 0 0 0 1 2431.dat
1 16 0 0 0 1 0 0 0 1 0 0 0 1 6258203h.dat
