0 ~Animal Body Legs (Needs Work)
0 Name: 30462.dat
0 Author: Stan Isachenko [angmarec]
0 !LDRAW_ORG Part UPDATE 2013-01
0 !LICENSE Licensed under CC BY 2.0 and CC BY 4.0 : see CAreadme.txt

0 BFC CERTIFY CCW

0 !KEYWORDS Adventurers, Dinosaur, Dog, Fluffy, Harry Potter, Three headed

0 !HISTORY 2011-11-06 {LEGO Digital Designer} Original part shape
0 !HISTORY 2011-11-07 [angmarec] File preparation for LDraw Parts Tracker
0 !HISTORY 2012-08-09 [PTadmin] Official Update 2012-02
0 !HISTORY 2013-01-31 [MagFors] Added ~ to description
0 !HISTORY 2013-07-21 [PTadmin] Official Update 2013-01


0 // Needs Work: There is no interior

4 16 19.3 28.036 11.75 23.95 28.036 11.75 23.95 56.183 11.75 18.486 56.183 11.75
4 16 23.95 41.485 8.75 23.95 56.183 8.75 23.95 56.183 11.75 23.95 37.18 11.437
4 16 23.95 56.183 8.75 18.486 56.183 8.75 18.486 56.183 11.75 23.95 56.183 11.75
4 16 23.95 41.485 8.75 18.83 41.485 8.75 18.486 56.183 8.75 23.95 56.183 8.75
3 16 23.95 56.183 11.75 23.95 28.036 11.75 23.95 37.18 11.437
4 16 28.5 56.183 21.95 31.5 56.183 21.95 31.5 56.183 16.55 28.5 56.183 16.55
3 16 28.5 33.741 16.55 28.5 56.183 16.55 28.912 37.366 16.55
4 16 28.5 56.183 21.95 28.5 56.183 16.55 28.5 33.741 16.55 28.5 33.741 21.35
4 16 28.912 37.366 16.55 28.5 56.183 16.55 31.5 56.183 16.55 31.5 41.507 16.55
4 16 31.5 56.183 16.55 31.5 56.183 21.95 31.5 41.507 21.621 31.5 41.507 16.55
4 16 36.288 56.183 21.95 36.288 56.183 3.95 36.292 49.175 3.95 36.3 49.187 21.889
4 16 28.912 37.366 11.321 31.5 41.507 21.621 36.3 49.187 21.889 36.292 49.175 3.95
3 16 28.912 37.366 11.321 23.95 37.18 11.437 27.613 25.933 11.822
4 16 28.5 33.741 21.35 28.912 37.366 21.486 28.912 37.366 11.321 27.613 25.933 11.822
3 16 27.613 25.933 11.822 27.613 25.933 21.077 28.5 33.741 21.35
3 16 18.494 56.183 21.95 18.83 41.485 8.75 18.494 56.183 3.95
3 16 18.561 49.174 3.95 18.494 56.183 3.95 18.83 41.485 8.75
3 16 18.494 56.183 21.95 19.373 25.933 21.077 18.83 41.485 8.75
3 16 19.373 25.933 21.077 19.083 37.18 11.437 18.83 41.485 8.75
3 16 19.336 25.933 11.786 19.083 37.18 11.437 19.373 25.933 21.077
4 16 19.336 25.933 11.786 19.373 25.933 21.077 27.613 25.933 21.077 27.613 25.933 11.822
4 16 19.336 25.933 11.786 27.613 25.933 11.822 23.95 37.18 11.437 19.083 37.18 11.437
3 16 19.373 25.933 21.077 28.5 33.741 21.35 27.613 25.933 21.077
3 16 28.912 37.366 21.486 28.5 33.741 21.35 19.373 25.933 21.077
4 16 31.5 41.507 21.621 28.912 37.366 21.486 19.373 25.933 21.077 18.494 56.183 21.95
3 16 31.5 41.507 21.621 18.494 56.183 21.95 36.288 56.183 21.95
3 16 31.5 41.507 21.621 28.912 37.366 11.321 28.912 37.366 21.486
4 16 23.95 41.485 8.75 23.95 37.18 11.437 28.912 37.366 11.321 36.292 49.175 3.95
4 16 18.561 49.174 3.95 18.83 41.485 8.75 23.95 41.485 8.75 36.292 49.175 3.95
3 16 31.5 41.507 21.621 36.288 56.183 21.95 36.3 49.187 21.889
4 16 33.344 56.183 24.97 39.8 56.183 24.801 36.288 56.183 21.95 31.407 56.183 24.16
4 16 18.494 56.183 21.95 15 56.183 25.45 26.385 56.183 25.152 28.276 56.183 24.242
4 16 36.288 56.183 21.95 18.494 56.183 21.95 28.276 56.183 24.242 29.837 56.183 24.026
3 16 31.407 56.183 24.16 36.288 56.183 21.95 29.837 56.183 24.026
4 16 36.288 56.183 3.95 36.288 56.183 21.95 39.8 56.183 24.801 39.8 56.183 1.1
4 16 18.494 56.183 3.95 36.288 56.183 3.95 39.8 56.183 1.1 15 56.183 0.45
4 16 18.494 56.183 3.95 15 56.183 0.45 15 56.183 6.5 16.015 56.183 8.548
4 16 15 56.183 14 15 56.183 25.45 18.494 56.183 21.95 16.015 56.183 11.953
4 16 16.222 56.183 10.25 18.494 56.183 21.95 18.494 56.183 3.95 16.015 56.183 8.548
3 16 18.494 56.183 21.95 16.222 56.183 10.25 16.015 56.183 11.953
4 16 23.95 37.18 11.437 23.95 41.485 8.75 18.83 41.485 8.75 19.083 37.18 11.437
4 16 18.561 49.174 3.95 36.292 49.175 3.95 36.288 56.183 3.95 18.494 56.183 3.95
4 16 26.385 56.183 25.152 15 56.183 25.45 15 48.183 25.45 26.384 50.933 25.152
4 16 39.8 56.183 24.801 33.344 56.183 24.97 33.344 50.933 24.97 39.8 48.183 24.801
4 16 39.8 48.183 24.801 39.8 48.188 1.1 39.8 56.183 1.1 39.8 56.183 24.801
4 16 15 56.183 0.45 15 48.183 0.45 15 50.933 6.5 15 56.183 6.5
4 16 15 56.183 25.45 15 56.183 14 15 50.933 14 15 48.183 25.45
4 16 15 48.183 0.45 15 48.183 25.45 15 50.933 14 15 50.933 6.5
4 16 39.8 48.188 1.1 15 48.183 0.45 15 56.183 0.45 39.8 56.183 1.1
4 16 15 56.183 14 16.015 56.183 11.953 16.017 50.933 11.941 15 50.933 14
4 16 16.015 56.183 11.953 16.222 56.183 10.25 16.223 50.933 10.251 16.017 50.933 11.941
4 16 16.015 56.183 8.548 15 56.183 6.5 15 50.933 6.5 16.017 50.933 8.56
4 16 16.222 56.183 10.25 16.015 56.183 8.548 16.017 50.933 8.56 16.223 50.933 10.251
4 16 15 50.933 6.5 15 50.933 14 16.017 50.933 11.941 16.017 50.933 8.56
3 16 16.017 50.933 11.941 16.223 50.933 10.251 16.017 50.933 8.56
4 16 33.344 50.933 24.97 31.394 50.933 24.157 29.837 50.933 24.025 28.289 50.933 24.238
3 16 33.344 50.933 24.97 28.289 50.933 24.238 26.384 50.933 25.152
4 16 33.344 56.183 24.97 31.407 56.183 24.16 31.394 50.933 24.157 33.344 50.933 24.97
4 16 31.407 56.183 24.16 29.837 56.183 24.026 29.837 50.933 24.025 31.394 50.933 24.157
4 16 28.276 56.183 24.242 26.385 56.183 25.152 26.384 50.933 25.152 28.289 50.933 24.238
4 16 29.837 56.183 24.026 28.276 56.183 24.242 28.289 50.933 24.238 29.837 50.933 24.025
4 16 33.344 50.933 24.97 26.384 50.933 25.152 15 48.183 25.45 39.8 48.183 24.801
4 16 28.658 4.133 37.593 16.8 4.177 37.91 16.8 -6.317 37.91 27.471 -6.317 37.624
4 16 16.55 14.683 34.925 16.8 4.177 37.91 28.658 4.133 37.593 32.3 36.183 28.388
4 16 16.55 14.683 34.925 32.3 36.183 28.388 15 29.683 30.706 7.5 19.683 33.751
4 16 32.3 36.183 28.388 39.8 48.183 24.801 15 48.183 25.45 15 29.683 30.706
4 16 27.471 -6.317 37.624 27.47 -6.317 8.277 32.3 36.183 8.403 28.658 4.133 37.593
4 16 32.3 36.183 8.403 39.8 48.188 1.1 39.8 48.183 24.801 32.3 36.183 28.388
3 16 28.658 4.133 37.593 32.3 36.183 8.403 32.3 36.183 28.388
4 16 15 18.871 7.95 7.5 6.036 7.754 7.5 19.683 25.25 15 29.683 21.811
4 16 15 29.683 30.706 15 29.683 21.811 7.5 19.683 25.25 7.5 19.683 33.751
4 16 16.8 6.22 7.991 7.5 6.036 7.754 15 18.871 7.95 32.3 36.183 8.403
3 16 32.3 36.183 8.403 15 18.871 7.95 15 36.183 7.95
4 16 32.3 36.183 8.403 27.47 -6.317 8.277 16.8 -6.317 7.991 16.8 6.22 7.991
4 16 32.3 36.183 8.403 15 36.183 7.95 15 48.183 0.45 39.8 48.188 1.1
4 16 15 48.183 0.45 15 36.183 7.95 15 29.683 30.706 15 48.183 25.45
3 16 15 29.683 30.706 15 36.183 7.95 15 29.683 21.811
3 16 15 36.183 7.95 15 18.871 7.95 15 29.683 21.811
4 16 -16.8 3.708 75.491 -16.8 -5.817 120.25 -16.8 8.183 120.25 -16.8 8.183 77.75
4 16 16.8 -11.317 0.25 -16.8 -11.317 0.25 -16.8 0 0 16.8 0 0
4 16 16.8 8.183 101.524 16.8 8.183 120.25 16.8 -5.817 120.25 16.8 3.183 80.491
4 16 -16.8 8.183 120.25 16.8 8.183 120.25 16.8 8.183 101.524 -16.8 8.183 77.75
4 16 16.8 -5.817 120.25 16.8 -6.317 7.991 16.8 3.183 76.747 16.8 3.183 80.491
4 16 16.8 -6.317 7.991 16.55 14.683 18.84 16.55 14.683 49.247 16.8 3.183 76.747
4 16 16.55 14.683 18.84 7.5 19.683 25.25 7.5 19.683 50.25 16.55 14.683 49.247
4 16 7.5 8.183 77.75 16.8 3.183 76.747 16.55 14.683 49.247 7.5 19.683 50.25
4 16 16.8 3.183 80.491 16.8 3.183 76.747 7.5 8.183 77.75 7.5 8.183 82.256
4 16 -16.8 14.683 49.247 -16.8 14.683 18.84 -16.8 -6.317 12.991 -16.8 3.708 75.491
3 16 -16.8 -5.817 120.25 -16.8 3.708 75.491 -16.8 -6.317 12.991
4 16 -7.5 19.683 25.25 -16.8 14.683 18.84 -16.8 14.683 49.247 -7.5 19.683 50.25
4 16 -7.5 19.683 50.25 -16.8 14.683 49.247 -16.8 3.708 75.491 -7.5 9.787 73.914
3 16 7.5 8.183 82.256 7.5 8.183 77.75 -16.8 8.183 77.75
3 16 -16.8 8.183 77.75 16.8 8.183 101.524 7.5 8.183 82.256
4 16 -7.5 9.787 73.914 7.5 8.183 77.75 7.5 19.683 50.25 -7.5 19.683 50.25
3 16 -16.8 8.183 77.75 7.5 8.183 77.75 -7.5 9.787 73.914
4 16 16.8 0 0 -7.5 19.683 25.25 7.5 19.683 25.25 16.55 14.683 18.84
4 16 -7.5 19.683 25.25 16.8 0 0 -16.8 0 0 -16.8 14.683 18.84
4 16 7.5 19.683 25.25 -7.5 19.683 25.25 -7.5 19.683 50.25 7.5 19.683 50.25
4 16 -16.8 -6.317 12.991 -16.8 14.683 18.84 -16.8 0 0 -16.8 -11.317 0.25
3 16 16.8 0 0 16.8 -6.317 7.991 16.8 -11.317 0.25
3 16 16.8 -6.317 7.991 16.8 0 0 16.55 14.683 18.84
4 16 -16.8 -5.817 120.25 16.8 -5.817 120.25 16.8 8.183 120.25 -16.8 8.183 120.25
4 16 -31.5 56.183 36.301 -31.49 41.49 36.3 -31.5 41.506 41.621 -31.5 42.093 41.641
4 16 -31.5 56.183 36.301 -31.5 42.093 41.641 -31.499 50.006 41.908 -31.499 56.183 41.95
4 16 -28.5 33.741 41.342 -28.5 33.741 36.3 -28.5 56.183 36.3 -28.497 45.557 41.764
4 16 -28.497 49.907 41.916 -28.497 45.557 41.764 -28.5 56.183 36.3 -28.496 56.183 41.949
3 16 -28.5 56.183 36.3 -28.5 33.741 36.3 -28.912 37.365 36.3
4 16 -31.5 56.183 36.301 -28.5 56.183 36.3 -28.912 37.365 36.3 -31.49 41.49 36.3
4 16 -31.499 56.183 41.95 -28.496 56.183 41.949 -28.5 56.183 36.3 -31.5 56.183 36.301
4 16 -36.288 56.183 23.95 -36.288 56.183 41.95 -36.3 49.187 41.889 -36.3 49.187 23.95
4 16 -18.494 56.183 23.95 -36.288 56.183 23.95 -36.3 49.187 23.95 -18.448 48.771 23.95
3 16 -18.494 56.183 41.95 -18.494 56.183 23.95 -18.448 48.771 23.95
3 16 -18.448 48.771 23.95 -18.356 50.843 41.95 -18.494 56.183 41.95
4 16 -19.373 25.933 41.077 -18.356 50.843 41.95 -18.836 41.325 26.604 -19.373 25.933 27.131
3 16 -18.836 41.325 26.604 -18.356 50.843 41.95 -18.448 48.771 23.95
3 16 -28.912 37.366 26.74 -18.836 41.325 26.604 -31.386 41.325 26.604
3 16 -31.386 41.325 26.604 -18.836 41.325 26.604 -18.448 48.771 23.95
3 16 -18.448 48.771 23.95 -36.3 49.187 23.95 -31.386 41.325 26.604
4 16 -31.5 41.506 41.621 -31.386 41.325 26.604 -36.3 49.187 23.95 -36.3 49.187 41.889
4 16 -31.386 41.325 26.604 -31.5 41.506 41.621 -28.912 37.366 41.486 -28.912 37.366 26.74
4 16 -28.912 37.366 26.74 -28.912 37.366 41.486 -28.5 33.741 41.35 -27.613 25.933 27.131
3 16 -27.613 25.933 27.131 -28.5 33.741 41.35 -27.613 25.933 41.077
4 16 -19.373 25.933 41.077 -19.373 25.933 27.131 -27.613 25.933 27.131 -27.613 25.933 41.077
4 16 -28.912 37.366 41.486 -18.356 50.843 41.95 -19.373 25.933 41.077 -28.5 33.741 41.35
3 16 -19.373 25.933 41.077 -27.613 25.933 41.077 -28.5 33.741 41.35
4 16 -18.836 41.325 26.604 -28.912 37.366 26.74 -27.613 25.933 27.131 -19.373 25.933 27.131
4 16 -29.837 56.183 44.026 -28.276 56.183 44.241 -18.494 56.183 41.95 -36.288 56.183 41.95
4 16 -36.288 56.183 41.95 -39.8 56.183 44.801 -33.344 56.183 44.97 -31.407 56.183 44.16
3 16 -36.288 56.183 41.95 -31.407 56.183 44.16 -29.837 56.183 44.026
4 16 -15 56.183 45.45 -18.494 56.183 41.95 -28.276 56.183 44.241 -26.385 56.183 45.152
4 16 -15 56.183 26.5 -15 56.183 20.45 -18.494 56.183 23.95 -16.015 56.183 28.548
4 16 -18.494 56.183 41.95 -15 56.183 45.45 -15 56.183 34 -16.015 56.183 31.953
4 16 -16.222 56.183 30.25 -16.015 56.183 28.548 -18.494 56.183 23.95 -18.494 56.183 41.95
3 16 -16.015 56.183 31.953 -16.222 56.183 30.25 -18.494 56.183 41.95
4 16 -15 56.183 20.45 -39.8 56.183 21.1 -36.288 56.183 23.95 -18.494 56.183 23.95
4 16 -36.288 56.183 41.95 -36.288 56.183 23.95 -39.8 56.183 21.1 -39.8 56.183 44.801
4 16 -18.356 50.843 41.95 -36.3 49.187 41.889 -36.288 56.183 41.95 -18.494 56.183 41.95
3 16 -28.912 37.366 41.486 -31.5 41.506 41.621 -18.356 50.843 41.95
3 16 -31.5 41.506 41.621 -36.3 49.187 41.889 -18.356 50.843 41.95
4 16 -16.8 4.184 42.91 -28.665 4.193 42.592 -27.47 -6.317 42.624 -16.8 -6.317 42.91
4 16 -16.8 4.184 42.91 -16.8 14.683 43.506 -32.3 36.183 44.315 -28.665 4.193 42.592
4 16 -16.8 14.683 43.506 -7.5 19.683 44.028 -15 29.683 44.399 -32.3 36.183 44.315
4 16 -32.3 36.183 44.315 -15 29.683 44.399 -15 48.183 45.425 -39.8 48.183 44.775
4 16 -27.47 -6.317 42.624 -28.665 4.193 42.592 -28.658 4.135 13.308 -27.47 -6.317 13.277
4 16 -28.658 4.135 13.308 -28.665 4.193 42.592 -32.3 36.183 44.315 -32.3 36.183 22.068
3 16 -32.3 36.183 22.068 -32.3 36.183 44.315 -35.439 41.205 23.511
4 16 -39.8 48.183 21.14 -35.439 41.205 23.511 -32.3 36.183 44.315 -39.8 48.183 44.775
4 16 -28.658 4.135 13.308 -16.8 4.177 12.991 -16.8 -6.317 12.991 -27.47 -6.317 13.277
4 16 -7.5 11.465 14.715 -16.8 11.708 15.026 -32.3 36.183 22.068 -15 27.736 19.316
4 16 -28.658 4.135 13.308 -32.3 36.183 22.068 -16.8 11.708 15.026 -16.8 4.177 12.991
4 16 -15 41.183 22.95 -15 27.736 19.316 -32.3 36.183 22.068 -35.439 41.205 23.511
4 16 -15 48.183 20.45 -15 41.183 22.95 -35.439 41.205 23.511 -39.8 48.183 21.14
4 16 -15 27.736 19.316 -15 29.683 21.811 -7.5 19.683 25.25 -7.5 11.465 14.715
4 16 -15 29.683 44.399 -7.5 19.683 44.028 -7.5 19.683 25.25 -15 29.683 21.811
3 16 -15 29.683 21.811 -15 27.736 19.316 -15 41.183 22.95
4 16 -15 29.683 44.399 -15 29.683 21.811 -15 41.183 22.95 -15 48.183 45.425
4 16 -15 48.183 45.425 -15 41.183 22.95 -15 48.183 20.45 -15 50.933 26.5
4 16 -33.344 56.183 44.97 -39.8 56.183 44.801 -39.8 48.183 44.775 -33.324 50.933 44.957
4 16 -39.8 48.183 44.775 -15 48.183 45.425 -26.404 50.933 45.139 -33.324 50.933 44.957
4 16 -15 48.183 45.425 -15 56.183 45.45 -26.385 56.183 45.152 -26.404 50.933 45.139
4 16 -39.8 56.183 44.801 -39.8 56.183 21.1 -39.8 48.183 21.14 -39.8 48.183 44.775
4 16 -39.8 56.183 21.1 -15 56.183 20.45 -15 48.183 20.45 -39.8 48.183 21.14
4 16 -15 50.933 26.5 -15 48.183 20.45 -15 56.183 20.45 -15 56.183 26.5
4 16 -15 56.183 45.45 -15 48.183 45.425 -15 50.933 34 -15 56.183 34
3 16 -15 48.183 45.425 -15 50.933 26.5 -15 50.933 34
4 16 -26.404 50.933 45.139 -28.298 50.933 44.235 -29.837 50.933 44.025 -31.384 50.933 44.155
3 16 -26.404 50.933 45.139 -31.384 50.933 44.155 -33.324 50.933 44.957
4 16 -26.385 56.183 45.152 -28.276 56.183 44.241 -28.298 50.933 44.235 -26.404 50.933 45.139
4 16 -28.276 56.183 44.241 -29.837 56.183 44.026 -29.837 50.933 44.025 -28.298 50.933 44.235
4 16 -31.407 56.183 44.16 -33.344 56.183 44.97 -33.324 50.933 44.957 -31.384 50.933 44.155
4 16 -29.837 56.183 44.026 -31.407 56.183 44.16 -31.384 50.933 44.155 -29.837 50.933 44.025
4 16 -15 56.183 26.5 -16.015 56.183 28.548 -16.017 50.933 28.56 -15 50.933 26.5
4 16 -16.015 56.183 28.548 -16.222 56.183 30.25 -16.223 50.933 30.25 -16.017 50.933 28.56
4 16 -16.015 56.183 31.953 -15 56.183 34 -15 50.933 34 -16.017 50.933 31.94
4 16 -16.222 56.183 30.25 -16.015 56.183 31.953 -16.017 50.933 31.94 -16.223 50.933 30.25
4 16 -15 50.933 34 -15 50.933 26.5 -16.017 50.933 28.56 -16.017 50.933 31.94
3 16 -16.223 50.933 30.25 -16.017 50.933 31.94 -16.017 50.933 28.56
4 16 28.5 56.183 121.95 31.5 56.183 121.95 31.5 56.183 116.3 28.5 56.183 116.3
3 16 28.5 56.183 116.3 28.912 37.366 116.3 28.5 33.741 116.3
4 16 31.5 41.507 119.882 31.5 41.507 116.3 31.5 56.183 116.3 31.5 49.186 121.95
3 16 31.5 56.183 116.3 31.5 56.183 121.95 31.5 49.186 121.95
4 16 28.5 56.183 116.3 31.5 56.183 116.3 31.5 41.507 116.3 28.912 37.366 116.3
4 16 28.5 49.187 121.95 28.5 56.183 121.95 28.5 56.183 116.3 28.5 33.741 116.3
3 16 28.5 33.741 117.637 28.5 49.187 121.95 28.5 33.741 116.3
4 16 39.8 56.183 101.1 15 56.183 100.45 18.494 56.183 103.95 36.287 56.183 103.95
4 16 36.288 56.183 121.95 39.8 56.183 124.801 39.8 56.183 101.1 36.287 56.183 103.95
4 16 33.344 56.183 124.97 39.8 56.183 124.801 36.288 56.183 121.95 31.407 56.183 124.16
4 16 18.494 56.183 121.95 15 56.183 125.45 26.385 56.183 125.152 28.277 56.183 124.242
4 16 36.288 56.183 121.95 18.494 56.183 121.95 29.837 56.183 124.026 31.407 56.183 124.16
3 16 29.837 56.183 124.026 18.494 56.183 121.95 28.277 56.183 124.242
4 16 18.494 56.183 103.95 15 56.183 100.45 15 56.183 106.5 16.015 56.183 108.548
4 16 15 56.183 114 15 56.183 125.45 18.494 56.183 121.95 16.015 56.183 111.953
4 16 16.223 56.183 110.25 18.494 56.183 121.95 18.494 56.183 103.95 16.015 56.183 108.548
3 16 16.015 56.183 111.953 18.494 56.183 121.95 16.223 56.183 110.25
4 16 19.556 20.683 105.007 19.556 20.683 113.861 27.016 20.683 113.861 27.016 20.683 105.007
4 16 28.5 33.741 117.637 27.016 20.683 113.861 19.556 20.683 113.861 18.579 48.659 121.95
4 16 36.287 56.183 103.95 18.494 56.183 103.95 18.5 50.933 103.95 36.3 49.187 103.95
3 16 28.912 37.366 104.424 36.3 49.187 103.95 18.5 50.933 103.95
4 16 19.556 20.683 105.007 27.016 20.683 105.007 28.912 37.366 104.424 18.5 50.933 103.95
4 16 36.3 49.187 121.95 18.579 48.659 121.95 18.494 56.183 121.95 36.288 56.183 121.95
4 16 19.556 20.683 113.861 19.556 20.683 105.007 18.5 50.933 103.95 18.579 48.659 121.95
4 16 18.494 56.183 103.95 18.494 56.183 121.95 18.579 48.659 121.95 18.5 50.933 103.95
4 16 28.912 37.366 104.424 27.016 20.683 105.007 28.5 33.741 116.3 28.912 37.366 116.3
4 16 28.5 33.741 116.3 27.016 20.683 105.007 27.016 20.683 113.861 28.5 33.741 117.637
4 16 36.288 56.183 121.95 36.287 56.183 103.95 36.3 49.187 103.95 36.3 49.187 121.95
4 16 28.912 37.366 104.424 28.912 37.366 116.3 31.5 41.507 116.3 36.3 49.187 103.95
4 16 36.3 49.187 121.95 36.3 49.187 103.95 31.5 41.507 116.3 31.5 41.507 119.882
3 16 36.3 49.187 121.95 31.5 41.507 119.882 18.579 48.659 121.95
3 16 18.579 48.659 121.95 31.5 41.507 119.882 28.5 33.741 117.637
4 16 16.223 56.183 110.25 16.015 56.183 108.548 16.017 50.933 108.56 16.222 50.933 110.25
4 16 16.015 56.183 108.548 15 56.183 106.5 15 50.933 106.5 16.017 50.933 108.56
4 16 16.222 50.933 110.25 16.017 50.933 111.94 16.015 56.183 111.953 16.223 56.183 110.25
4 16 16.017 50.933 111.94 15 50.933 114 15 56.183 114 16.015 56.183 111.953
4 16 16.017 50.933 111.94 16.017 50.933 108.56 15 50.933 106.5 15 50.933 114
3 16 16.222 50.933 110.25 16.017 50.933 108.56 16.017 50.933 111.94
4 16 28.289 50.933 124.238 29.837 50.933 124.025 29.837 56.183 124.026 28.277 56.183 124.242
4 16 28.277 56.183 124.242 26.385 56.183 125.152 26.385 50.933 125.152 28.289 50.933 124.238
4 16 31.407 56.183 124.16 29.837 56.183 124.026 29.837 50.933 124.025 31.394 50.933 124.157
4 16 33.344 56.183 124.97 31.407 56.183 124.16 31.394 50.933 124.157 33.344 50.933 124.97
4 16 31.394 50.933 124.157 29.837 50.933 124.025 28.289 50.933 124.238 26.385 50.933 125.152
3 16 31.394 50.933 124.157 26.385 50.933 125.152 33.344 50.933 124.97
4 16 15 50.933 106.5 15 56.183 106.5 15 56.183 100.45 15 48.183 100.45
4 16 15 50.933 114 15 48.183 125.45 15 56.183 125.45 15 56.183 114
4 16 39.8 48.183 101.1 39.8 56.183 101.1 39.8 56.183 124.801 39.8 48.275 124.801
4 16 39.8 48.275 124.801 33.344 50.933 124.97 26.385 50.933 125.152 15 48.183 125.45
4 16 15 56.183 125.45 15 48.183 125.45 26.385 50.933 125.152 26.385 56.183 125.152
4 16 33.344 50.933 124.97 39.8 48.275 124.801 39.8 56.183 124.801 33.344 56.183 124.97
4 16 15 56.183 100.45 39.8 56.183 101.1 39.8 48.183 101.1 15 48.183 100.45
4 16 39.8 48.183 101.1 36.902 43.546 101.024 15 43.683 100.45 15 48.183 100.45
4 16 28.654 4.097 80.808 27.471 -6.317 80.777 16.8 -6.317 80.491 16.8 3.183 80.491
3 16 15 18.183 87.539 16.8 3.183 80.491 7.5 8.183 82.256
3 16 16.8 3.183 80.491 15 18.183 87.539 28.654 4.097 80.808
4 16 32.3 36.183 97.161 28.654 4.097 80.808 15 18.183 87.539 15 43.683 100.45
3 16 36.902 43.546 101.024 32.3 36.183 97.161 15 43.683 100.45
4 16 32.3 36.183 121.5 39.8 48.275 124.801 15 48.183 125.45 15 18.183 116.755
3 16 15 18.183 116.755 29.749 13.738 115.064 32.3 36.183 121.5
3 16 16.8 8.183 115.41 29.749 13.738 115.064 15 18.183 116.755
3 16 16.8 8.183 115.41 15 18.183 116.755 7.5 8.183 115.647
4 16 27.527 -5.817 115.122 29.749 13.738 115.064 16.8 8.183 115.41 16.8 -5.817 115.41
3 16 32.3 36.183 121.5 32.3 36.183 97.161 36.902 43.546 101.024
4 16 39.8 48.183 101.1 39.8 48.275 124.801 32.3 36.183 121.5 36.902 43.546 101.024
4 16 29.749 13.738 115.064 28.654 4.097 80.808 32.3 36.183 97.161 32.3 36.183 121.5
4 16 28.654 4.097 80.808 29.749 13.738 115.064 27.527 -5.817 115.122 27.471 -6.317 80.777
4 16 15 18.183 116.755 15 48.183 125.45 15 43.683 100.45 15 18.183 87.539
4 16 15 48.183 100.45 15 43.683 100.45 15 48.183 125.45 15 50.933 106.5
4 16 7.5 8.183 82.256 7.5 8.183 115.647 15 18.183 116.755 15 18.183 87.539
3 16 15 48.183 125.45 15 50.933 114 15 50.933 106.5
4 16 -28.276 56.183 84.242 -18.494 56.183 81.95 -36.288 56.183 81.95 -29.837 56.183 84.026
4 16 -28.276 56.183 84.242 -26.384 56.183 85.152 -15 56.183 85.45 -18.494 56.183 81.95
4 16 -36.288 56.183 81.95 -39.8 56.183 84.801 -33.344 56.183 84.97 -31.407 56.183 84.16
3 16 -31.407 56.183 84.16 -29.837 56.183 84.026 -36.288 56.183 81.95
4 16 -15 56.183 66.5 -15 56.183 60.45 -18.494 56.183 63.95 -16.015 56.183 68.548
4 16 -18.494 56.183 81.95 -15 56.183 85.45 -15 56.183 74 -16.015 56.183 71.953
4 16 -16.222 56.183 70.25 -16.015 56.183 68.548 -18.494 56.183 63.95 -18.494 56.183 81.95
3 16 -18.494 56.183 81.95 -16.015 56.183 71.953 -16.222 56.183 70.25
4 16 -15 56.183 60.45 -39.8 56.183 61.1 -36.288 56.183 63.95 -18.494 56.183 63.95
4 16 -36.288 56.183 81.95 -36.288 56.183 63.95 -39.8 56.183 61.1 -39.8 56.183 84.801
4 16 -18.5 50.933 63.95 -18.563 49.14 63.95 -18.843 41.129 68.75 -18.494 50.933 81.95
4 16 -18.494 56.183 63.95 -36.288 56.183 63.95 -36.3 49.187 63.95 -18.5 50.933 63.95
3 16 -18.563 49.14 63.95 -18.5 50.933 63.95 -36.3 49.187 63.95
4 16 -23.95 41.129 68.75 -18.563 49.14 63.95 -36.3 49.187 63.95 -28.912 37.366 71.005
4 16 -18.843 41.129 68.75 -18.563 49.14 63.95 -23.95 41.129 68.75 -23.95 37.011 71.218
4 16 -18.5 50.933 63.95 -18.494 50.933 81.95 -18.494 56.183 81.95 -18.494 56.183 63.95
4 16 -28.912 37.366 81.35 -28.912 37.366 71.005 -36.3 49.187 63.95 -31.5 41.507 81.621
3 16 -36.3 49.187 63.95 -36.3 49.187 81.889 -31.5 41.507 81.621
4 16 -36.288 56.183 63.95 -36.288 56.183 81.95 -36.3 49.187 81.889 -36.3 49.187 63.95
4 16 -36.288 56.183 81.95 -18.494 56.183 81.95 -18.494 50.933 81.95 -36.3 49.187 81.889
3 16 -19.556 20.683 80.894 -28.912 37.366 81.35 -18.494 50.933 81.95
3 16 -27.016 20.683 80.894 -28.912 37.366 81.35 -19.556 20.683 80.894
3 16 -36.3 49.187 81.889 -18.494 50.933 81.95 -31.5 41.507 81.621
4 16 -18.953 37.012 71.301 -19.556 20.683 75.094 -19.556 20.683 80.894 -18.494 50.933 81.95
4 16 -19.556 20.683 80.894 -19.556 20.683 75.094 -27.016 20.683 75.094 -27.016 20.683 80.894
4 16 -27.016 20.683 80.894 -27.016 20.683 75.094 -28.912 37.366 71.005 -27.964 29.024 81.122
3 16 -28.912 37.366 81.35 -27.964 29.024 81.122 -28.912 37.366 71.005
3 16 -27.016 20.683 75.094 -23.95 37.011 71.218 -28.912 37.366 71.005
3 16 -18.953 37.012 71.301 -23.95 37.011 71.218 -19.556 20.683 75.094
3 16 -27.016 20.683 75.094 -19.556 20.683 75.094 -23.95 37.011 71.218
3 16 -18.843 41.129 68.75 -18.953 37.012 71.301 -18.494 50.933 81.95
3 16 -23.95 37.011 71.218 -23.95 41.129 68.75 -28.912 37.366 71.005
3 16 -31.5 41.507 81.621 -18.494 50.933 81.95 -28.912 37.366 81.35
3 16 -18.843 41.129 68.75 -23.95 37.011 71.218 -18.953 37.012 71.301
4 16 -31.5 41.507 76.55 -31.5 41.507 81.621 -31.5 50.933 81.95 -31.499 56.183 81.95
3 16 -31.5 41.507 76.55 -31.499 56.183 81.95 -31.5 56.183 76.55
4 16 -28.5 56.183 76.55 -31.5 56.183 76.55 -31.499 56.183 81.95 -28.495 56.183 81.95
4 16 -31.5 56.183 76.55 -28.5 56.183 76.55 -28.912 37.366 76.55 -31.5 41.507 76.55
3 16 -28.5 56.183 76.55 -28.5 33.741 76.55 -28.912 37.366 76.55
4 16 -28.5 50.933 81.95 -28.5 38.254 81.392 -28.5 33.741 76.55 -28.5 56.183 76.55
3 16 -28.5 38.254 81.392 -28.5 33.741 81.247 -28.5 33.741 76.55
3 16 -28.5 50.933 81.95 -28.5 56.183 76.55 -28.495 56.183 81.95
4 16 -18.497 50.933 71.75 -18.494 56.183 71.75 -23.95 56.183 71.75 -23.95 34.768 71.75
3 16 -18.497 50.933 71.75 -23.95 34.768 71.75 -18.763 43.357 71.75
4 16 -18.934 37.6 71.75 -18.763 43.357 71.75 -23.95 34.768 71.75 -23.346 34.768 71.75
3 16 -18.934 37.6 71.75 -23.346 34.768 71.75 -19.028 34.933 71.75
4 16 -18.843 41.129 68.75 -23.95 41.129 68.75 -23.95 56.183 68.75 -18.498 50.933 68.75
3 16 -18.498 50.933 68.75 -23.95 56.183 68.75 -18.495 56.183 68.75
3 16 -23.95 34.768 71.75 -23.95 56.183 71.75 -23.95 37.011 71.218
4 16 -23.95 41.129 68.75 -23.95 37.011 71.218 -23.95 56.183 71.75 -23.95 56.183 68.75
4 16 -18.495 56.183 68.75 -23.95 56.183 68.75 -23.95 56.183 71.75 -18.494 56.183 71.75
4 16 -33.344 50.933 84.97 -26.384 50.933 85.152 -28.285 50.933 84.24 -31.397 50.933 84.158
3 16 -28.285 50.933 84.24 -29.837 50.933 84.026 -31.397 50.933 84.158
4 16 -33.344 50.933 84.97 -31.397 50.933 84.158 -31.407 56.183 84.16 -33.344 56.183 84.97
4 16 -31.397 50.933 84.158 -29.837 50.933 84.026 -29.837 56.183 84.026 -31.407 56.183 84.16
4 16 -28.285 50.933 84.24 -26.384 50.933 85.152 -26.384 56.183 85.152 -28.276 56.183 84.242
4 16 -29.837 50.933 84.026 -28.285 50.933 84.24 -28.276 56.183 84.242 -29.837 56.183 84.026
4 16 -39.8 56.183 84.801 -39.8 56.183 61.1 -39.8 48.363 61.1 -39.8 48.183 84.801
4 16 -39.8 56.183 61.1 -15 56.183 60.45 -15 48.183 60.45 -39.8 48.363 61.1
4 16 -33.344 56.183 84.97 -39.8 56.183 84.801 -39.8 48.183 84.801 -33.344 50.933 84.97
4 16 -33.344 50.933 84.97 -39.8 48.183 84.801 -15 48.183 85.45 -26.384 50.933 85.152
4 16 -26.384 50.933 85.152 -15 48.183 85.45 -15 56.183 85.45 -26.384 56.183 85.152
4 16 -15 48.183 85.45 -15 50.933 74 -15 56.183 74 -15 56.183 85.45
4 16 -15 50.933 74 -15 48.183 85.45 -15 48.183 60.45 -15 50.933 66.5
4 16 -15 50.933 66.5 -15 48.183 60.45 -15 56.183 60.45 -15 56.183 66.5
4 16 -16.017 50.933 71.94 -16.223 50.933 70.25 -16.222 56.183 70.25 -16.015 56.183 71.953
4 16 -16.017 50.933 68.56 -15 50.933 66.5 -15 56.183 66.5 -16.015 56.183 68.548
4 16 -16.223 50.933 70.25 -16.017 50.933 68.56 -16.015 56.183 68.548 -16.222 56.183 70.25
4 16 -15 50.933 74 -16.017 50.933 71.94 -16.015 56.183 71.953 -15 56.183 74
4 16 -15 50.933 74 -15 50.933 66.5 -16.017 50.933 68.56 -16.017 50.933 71.94
3 16 -16.223 50.933 70.25 -16.017 50.933 71.94 -16.017 50.933 68.56
4 16 -7.5 9.787 73.914 -15 21.731 71.272 -15 18.183 79.757 -7.5 8.183 77.75
4 16 -7.5 8.183 107.753 -7.5 8.183 77.75 -15 18.183 79.757 -15 18.183 100.156
4 16 -32.3 36.183 90.507 -32.263 35.855 68.374 -28.668 4.225 75.808 -30.572 20.974 97.598
4 16 -28.668 4.225 75.808 -27.47 -6.317 75.777 -27.527 -5.817 110.122 -28.65 4.066 110.093
3 16 -28.668 4.225 75.808 -28.65 4.066 110.093 -30.572 20.974 97.598
3 16 -32.3 36.183 90.507 -39.8 48.363 61.1 -32.263 35.855 68.374
3 16 -39.8 48.363 61.1 -32.3 36.183 90.507 -39.8 48.183 84.801
4 16 -15 35.683 67.95 -15 21.731 71.272 -28.668 4.225 75.808 -32.263 35.855 68.374
3 16 -15 21.731 71.272 -16.8 3.708 75.491 -28.668 4.225 75.808
3 16 -16.8 3.708 75.491 -15 21.731 71.272 -7.5 9.787 73.914
4 16 -15 48.183 60.45 -15 35.683 67.95 -32.263 35.855 68.374 -39.8 48.363 61.1
4 16 -27.47 -6.317 75.777 -28.668 4.225 75.808 -16.8 3.708 75.491 -16.8 -6.317 75.491
4 16 -15 48.183 85.45 -39.8 48.183 84.801 -32.3 36.183 90.507 -15 21.183 97.95
3 16 -30.572 20.974 97.598 -15 21.183 97.95 -32.3 36.183 90.507
3 16 -15 18.183 100.156 -15 21.183 97.95 -30.572 20.974 97.598
4 16 -30.572 20.974 97.598 -16.8 8.183 107.459 -7.5 8.183 107.753 -15 18.183 100.156
4 16 -28.65 4.066 110.093 -16.8 4.169 110.41 -16.8 8.183 107.459 -30.572 20.974 97.598
4 16 -27.527 -5.817 110.122 -16.8 -5.817 110.41 -16.8 4.169 110.41 -28.65 4.066 110.093
4 16 -15 18.183 79.757 -15 21.731 71.272 -15 21.183 97.95 -15 18.183 100.156
4 16 -15 35.683 67.95 -15 48.183 60.45 -15 48.183 85.45 -15 21.183 97.95
3 16 -15 35.683 67.95 -15 21.183 97.95 -15 21.731 71.272
4 16 18.486 56.183 111.75 23.7 56.183 111.75 23.7 56.183 108.75 18.486 56.183 108.75
4 16 23.7 56.183 111.75 18.486 56.183 111.75 18.502 50.843 111.75 23.7 20.683 111.75
3 16 23.7 20.683 111.75 18.502 50.843 111.75 19.556 20.683 111.75
4 16 23.7 56.183 108.75 23.7 56.183 111.75 23.7 20.683 111.75 23.7 20.683 108.75
4 16 23.7 20.683 108.75 19.556 20.683 108.75 18.499 50.843 108.75 23.7 56.183 108.75
3 16 18.499 50.843 108.75 18.486 56.183 108.75 23.7 56.183 108.75
2 24 19.3 28.036 11.75 23.95 28.036 11.75
2 24 23.95 28.036 11.75 23.95 56.183 11.75
2 24 18.486 56.183 11.75 19.3 28.036 11.75
2 24 23.95 56.183 11.75 18.486 56.183 11.75
2 24 23.95 56.183 8.75 23.95 56.183 11.75
2 24 23.95 41.485 8.75 23.95 56.183 8.75
2 24 23.95 56.183 8.75 18.486 56.183 8.75
2 24 23.95 41.485 8.75 18.83 41.485 8.75
2 24 18.83 41.485 8.75 18.486 56.183 8.75
5 24 23.95 56.183 11.75 23.95 37.18 11.437 23.95 41.485 8.75 23.95 28.036 11.75
2 24 23.95 37.18 11.437 23.95 41.485 8.75
2 24 23.95 28.036 11.75 23.95 37.18 11.437
2 24 31.5 56.183 21.95 31.5 56.183 16.55
2 24 31.5 56.183 16.55 28.5 56.183 16.55
2 24 28.5 56.183 16.55 28.5 56.183 21.95
2 24 28.5 33.741 16.55 28.5 56.183 16.55
5 24 28.5 56.183 16.55 28.912 37.366 16.55 28.5 33.741 16.55 31.5 56.183 16.55
2 24 28.912 37.366 16.55 28.5 33.741 16.55
2 24 28.5 33.741 16.55 28.5 33.741 21.35
2 24 28.5 33.741 21.35 28.5 56.183 21.95
2 24 31.5 56.183 21.95 31.5 41.507 21.621
2 24 31.5 41.507 21.621 31.5 41.507 16.55
2 24 31.5 41.507 16.55 31.5 56.183 16.55
2 24 31.5 41.507 16.55 28.912 37.366 16.55
2 24 36.288 56.183 21.95 36.288 56.183 3.95
2 24 36.288 56.183 3.95 36.292 49.175 3.95
5 24 36.292 49.175 3.95 36.3 49.187 21.889 36.288 56.183 21.95 28.912 37.366 11.321
2 24 36.3 49.187 21.889 36.288 56.183 21.95
2 24 31.5 41.507 21.621 36.3 49.187 21.889
5 24 28.912 37.366 11.321 31.5 41.507 21.621 36.3 49.187 21.889 28.912 37.366 21.486
2 24 27.613 25.933 11.822 28.912 37.366 11.321
5 24 28.912 37.366 11.321 23.95 37.18 11.437 27.613 25.933 11.822 23.95 41.485 8.75
5 24 23.95 37.18 11.437 27.613 25.933 11.822 28.912 37.366 11.321 19.336 25.933 11.786
5 24 28.912 37.366 21.486 28.912 37.366 11.321 28.5 33.741 21.35 31.5 41.507 21.621
2 24 28.5 33.741 21.35 28.912 37.366 21.486
5 24 27.613 25.933 11.822 28.5 33.741 21.35 28.912 37.366 11.321 27.613 25.933 21.077
2 24 27.613 25.933 11.822 27.613 25.933 21.077
2 24 27.613 25.933 21.077 28.5 33.741 21.35
5 24 18.494 56.183 21.95 18.83 41.485 8.75 18.494 56.183 3.95 19.373 25.933 21.077
5 24 18.83 41.485 8.75 18.494 56.183 3.95 18.494 56.183 21.95 18.561 49.174 3.95
2 24 18.83 41.485 8.75 18.561 49.174 3.95
2 24 18.561 49.174 3.95 18.494 56.183 3.95
2 24 18.494 56.183 21.95 19.373 25.933 21.077
5 24 19.373 25.933 21.077 18.83 41.485 8.75 18.494 56.183 21.95 19.083 37.18 11.437
5 24 19.373 25.933 21.077 19.083 37.18 11.437 18.83 41.485 8.75 19.336 25.933 11.786
2 24 19.083 37.18 11.437 18.83 41.485 8.75
2 24 19.373 25.933 21.077 19.336 25.933 11.786
2 24 19.336 25.933 11.786 19.083 37.18 11.437
2 24 19.373 25.933 21.077 27.613 25.933 21.077
2 24 27.613 25.933 11.822 19.336 25.933 11.786
5 24 19.373 25.933 21.077 28.5 33.741 21.35 27.613 25.933 21.077 28.912 37.366 21.486
5 24 19.373 25.933 21.077 28.912 37.366 21.486 28.5 33.741 21.35 31.5 41.507 21.621
2 24 31.5 41.507 21.621 28.912 37.366 21.486
5 24 18.494 56.183 21.95 31.5 41.507 21.621 19.373 25.933 21.077 36.288 56.183 21.95
5 24 36.288 56.183 21.95 31.5 41.507 21.621 18.494 56.183 21.95 36.3 49.187 21.889
2 24 36.292 49.175 3.95 28.912 37.366 11.321
5 24 36.292 49.175 3.95 23.95 41.485 8.75 28.912 37.366 11.321 18.561 49.174 3.95
5 24 36.292 49.175 3.95 18.561 49.174 3.95 23.95 41.485 8.75 36.288 56.183 3.95
5 24 39.8 56.183 24.801 36.288 56.183 21.95 33.344 56.183 24.97 36.288 56.183 3.95
2 24 33.344 56.183 24.97 39.8 56.183 24.801
2 24 15 56.183 25.45 26.385 56.183 25.152
5 24 18.494 56.183 21.95 15 56.183 25.45 26.385 56.183 25.152 15 56.183 14
5 24 18.494 56.183 21.95 28.276 56.183 24.242 36.288 56.183 21.95 26.385 56.183 25.152
2 24 26.385 56.183 25.152 28.276 56.183 24.242
5 24 36.288 56.183 21.95 31.407 56.183 24.16 33.344 56.183 24.97 29.837 56.183 24.026
2 24 31.407 56.183 24.16 33.344 56.183 24.97
2 24 28.276 56.183 24.242 29.837 56.183 24.026
5 24 29.837 56.183 24.026 36.288 56.183 21.95 28.276 56.183 24.242 31.407 56.183 24.16
2 24 29.837 56.183 24.026 31.407 56.183 24.16
2 24 39.8 56.183 24.801 39.8 56.183 1.1
5 24 39.8 56.183 1.1 36.288 56.183 3.95 39.8 56.183 24.801 18.494 56.183 3.95
2 24 18.494 56.183 3.95 36.288 56.183 3.95
2 24 39.8 56.183 1.1 15 56.183 0.45
5 24 15 56.183 0.45 18.494 56.183 3.95 39.8 56.183 1.1 15 56.183 6.5
2 24 15 56.183 0.45 15 56.183 6.5
2 24 15 56.183 14 15 56.183 25.45
2 24 15 56.183 6.5 16.015 56.183 8.548
5 24 16.015 56.183 8.548 18.494 56.183 3.95 15 56.183 6.5 16.222 56.183 10.25
5 24 16.222 56.183 10.25 18.494 56.183 21.95 18.494 56.183 3.95 16.015 56.183 11.953
2 24 16.015 56.183 8.548 16.222 56.183 10.25
2 24 16.222 56.183 10.25 16.015 56.183 11.953
5 24 16.015 56.183 11.953 18.494 56.183 21.95 16.222 56.183 10.25 15 56.183 14
2 24 16.015 56.183 11.953 15 56.183 14
5 24 23.95 37.18 11.437 19.083 37.18 11.437 19.336 25.933 11.786 18.83 41.485 8.75
2 24 15 56.183 25.45 15 48.183 25.45
5 24 15 48.183 25.45 26.384 50.933 25.152 26.385 56.183 25.152 33.344 50.933 24.97
2 24 26.384 50.933 25.152 26.385 56.183 25.152
2 24 33.344 56.183 24.97 33.344 50.933 24.97
5 24 33.344 50.933 24.97 39.8 48.183 24.801 39.8 56.183 24.801 15 48.183 25.45
2 24 39.8 48.183 24.801 39.8 56.183 24.801
5 24 39.8 48.183 24.801 39.8 48.188 1.1 39.8 56.183 1.1 32.3 36.183 8.403
2 24 39.8 48.188 1.1 39.8 56.183 1.1
2 24 15 56.183 0.45 15 48.183 0.45
5 24 15 48.183 0.45 15 50.933 6.5 15 56.183 0.45 15 50.933 14
2 24 15 50.933 6.5 15 56.183 6.5
2 24 15 56.183 14 15 50.933 14
5 24 15 50.933 14 15 48.183 25.45 15 56.183 25.45 15 48.183 0.45
5 24 15 48.183 0.45 15 48.183 25.45 15 50.933 14 15 29.683 30.706
2 24 15 50.933 14 15 50.933 6.5
5 24 39.8 48.188 1.1 15 48.183 0.45 15 56.183 0.45 32.3 36.183 8.403
5 24 16.015 56.183 11.953 16.017 50.933 11.941 15 56.183 14 16.223 50.933 10.251
5 24 16.222 56.183 10.25 16.223 50.933 10.251 16.015 56.183 11.953 16.017 50.933 8.56
5 24 16.015 56.183 8.548 16.017 50.933 8.56 16.222 56.183 10.25 15 50.933 6.5
2 24 16.017 50.933 11.941 15 50.933 14
2 24 16.223 50.933 10.251 16.017 50.933 11.941
2 24 15 50.933 6.5 16.017 50.933 8.56
2 24 16.017 50.933 8.56 16.223 50.933 10.251
5 24 16.017 50.933 11.941 16.017 50.933 8.56 15 50.933 6.5 16.223 50.933 10.251
2 24 33.344 50.933 24.97 31.394 50.933 24.157
2 24 31.394 50.933 24.157 29.837 50.933 24.025
2 24 26.384 50.933 25.152 33.344 50.933 24.97
5 24 33.344 50.933 24.97 28.289 50.933 24.238 26.384 50.933 25.152 29.837 50.933 24.025
2 24 28.289 50.933 24.238 26.384 50.933 25.152
2 24 29.837 50.933 24.025 28.289 50.933 24.238
5 24 31.407 56.183 24.16 31.394 50.933 24.157 33.344 56.183 24.97 29.837 50.933 24.025
5 24 29.837 56.183 24.026 29.837 50.933 24.025 31.407 56.183 24.16 28.289 50.933 24.238
5 24 28.276 56.183 24.242 28.289 50.933 24.238 29.837 56.183 24.026 26.384 50.933 25.152
5 24 15 48.183 25.45 39.8 48.183 24.801 33.344 50.933 24.97 32.3 36.183 28.388
5 24 28.658 4.133 37.593 16.8 4.177 37.91 16.8 -6.317 37.91 16.55 14.683 34.925
2 24 16.8 4.177 37.91 16.8 -6.317 37.91
2 24 16.8 -6.317 37.91 27.471 -6.317 37.624
2 24 27.471 -6.317 37.624 28.658 4.133 37.593
2 24 16.55 14.683 34.925 16.8 4.177 37.91
2 24 28.658 4.133 37.593 32.3 36.183 28.388
5 24 32.3 36.183 28.388 16.55 14.683 34.925 28.658 4.133 37.593 15 29.683 30.706
5 24 32.3 36.183 28.388 15 29.683 30.706 16.55 14.683 34.925 15 48.183 25.45
2 24 15 29.683 30.706 7.5 19.683 33.751
2 24 7.5 19.683 33.751 16.55 14.683 34.925
2 24 32.3 36.183 28.388 39.8 48.183 24.801
2 24 15 48.183 25.45 15 29.683 30.706
2 24 27.471 -6.317 37.624 27.47 -6.317 8.277
2 24 27.47 -6.317 8.277 32.3 36.183 8.403
5 24 32.3 36.183 8.403 28.658 4.133 37.593 27.471 -6.317 37.624 32.3 36.183 28.388
2 24 32.3 36.183 8.403 39.8 48.188 1.1
5 24 32.3 36.183 28.388 32.3 36.183 8.403 39.8 48.183 24.801 28.658 4.133 37.593
2 24 15 18.871 7.95 7.5 6.036 7.754
2 24 7.5 6.036 7.754 7.5 19.683 25.25
5 24 7.5 19.683 25.25 15 29.683 21.811 15 18.871 7.95 15 29.683 30.706
5 24 15 29.683 21.811 15 18.871 7.95 7.5 19.683 25.25 15 36.183 7.95
5 24 15 29.683 30.706 15 29.683 21.811 7.5 19.683 25.25 15 36.183 7.95
2 24 7.5 19.683 25.25 7.5 19.683 33.751
2 24 16.8 6.22 7.991 7.5 6.036 7.754
5 24 15 18.871 7.95 32.3 36.183 8.403 16.8 6.22 7.991 15 36.183 7.95
5 24 32.3 36.183 8.403 16.8 6.22 7.991 15 18.871 7.95 16.8 -6.317 7.991
2 24 15 18.871 7.95 15 36.183 7.95
5 24 15 36.183 7.95 32.3 36.183 8.403 15 18.871 7.95 15 48.183 0.45
2 24 27.47 -6.317 8.277 16.8 -6.317 7.991
2 24 16.8 -6.317 7.991 16.8 6.22 7.991
2 24 15 36.183 7.95 15 48.183 0.45
5 24 15 36.183 7.95 15 29.683 30.706 15 48.183 0.45 15 29.683 21.811
5 24 15 36.183 7.95 15 29.683 21.811 15 29.683 30.706 15 18.871 7.95
2 24 -16.8 -5.817 120.25 -16.8 8.183 120.25
5 24 -16.8 3.708 75.491 -16.8 -5.817 120.25 -16.8 8.183 120.25 -16.8 -6.317 12.991
2 24 -16.8 8.183 120.25 -16.8 8.183 77.75
2 24 -16.8 8.183 77.75 -16.8 3.708 75.491
2 24 -16.8 -11.317 0.25 -16.8 0 0
2 24 16.8 -11.317 0.25 -16.8 -11.317 0.25
2 24 -16.8 0 0 16.8 0 0
2 24 16.8 0 0 16.8 -11.317 0.25
2 24 16.8 8.183 101.524 16.8 8.183 120.25
2 24 16.8 8.183 120.25 16.8 -5.817 120.25
2 24 -16.8 8.183 120.25 16.8 8.183 120.25
2 24 16.8 -5.817 120.25 16.8 -6.317 7.991
5 24 16.8 -6.317 7.991 16.8 3.183 76.747 16.8 -5.817 120.25 16.55 14.683 49.247
2 24 16.55 14.683 18.84 16.55 14.683 49.247
2 24 16.55 14.683 49.247 16.8 3.183 76.747
2 24 16.55 14.683 18.84 7.5 19.683 25.25
5 24 7.5 19.683 25.25 7.5 19.683 50.25 16.55 14.683 18.84 -7.5 19.683 50.25
5 24 7.5 19.683 50.25 16.55 14.683 49.247 16.55 14.683 18.84 7.5 8.183 77.75
5 24 7.5 8.183 77.75 16.8 3.183 76.747 16.55 14.683 49.247 16.8 3.183 80.491
5 24 7.5 19.683 50.25 7.5 8.183 77.75 16.55 14.683 49.247 -7.5 9.787 73.914
2 24 16.8 3.183 80.491 16.8 3.183 76.747
5 24 7.5 8.183 77.75 7.5 8.183 82.256 16.8 3.183 80.491 -16.8 8.183 77.75
2 24 7.5 8.183 82.256 16.8 3.183 80.491
2 24 -16.8 14.683 49.247 -16.8 14.683 18.84
5 24 -16.8 14.683 18.84 -16.8 -6.317 12.991 -16.8 14.683 49.247 -16.8 0 0
2 24 -16.8 -6.317 12.991 -16.8 -5.817 120.25
5 24 -16.8 3.708 75.491 -16.8 -6.317 12.991 -16.8 -5.817 120.25 -16.8 14.683 49.247
2 24 -16.8 3.708 75.491 -16.8 14.683 49.247
2 24 -7.5 19.683 25.25 -16.8 14.683 18.84
5 24 -16.8 14.683 49.247 -7.5 19.683 50.25 -7.5 19.683 25.25 -16.8 3.708 75.491
5 24 -7.5 19.683 50.25 -7.5 19.683 25.25 -16.8 14.683 49.247 7.5 19.683 25.25
2 24 -16.8 3.708 75.491 -7.5 9.787 73.914
5 24 -7.5 9.787 73.914 -7.5 19.683 50.25 -16.8 3.708 75.491 7.5 19.683 50.25
5 24 16.8 8.183 101.524 -16.8 8.183 77.75 -16.8 8.183 120.25 7.5 8.183 82.256
5 24 7.5 8.183 77.75 -16.8 8.183 77.75 7.5 8.183 82.256 -7.5 9.787 73.914
5 24 -16.8 8.183 77.75 7.5 8.183 82.256 7.5 8.183 77.75 16.8 8.183 101.524
2 24 16.8 8.183 101.524 7.5 8.183 82.256
5 24 -7.5 9.787 73.914 7.5 8.183 77.75 7.5 19.683 50.25 -16.8 8.183 77.75
2 24 -7.5 9.787 73.914 -16.8 8.183 77.75
5 24 7.5 19.683 50.25 -7.5 19.683 50.25 -7.5 9.787 73.914 7.5 19.683 25.25
5 24 16.8 0 0 -7.5 19.683 25.25 7.5 19.683 25.25 -16.8 0 0
5 24 -7.5 19.683 25.25 7.5 19.683 25.25 16.8 0 0 -7.5 19.683 50.25
2 24 16.55 14.683 18.84 16.8 0 0
2 24 -16.8 0 0 -16.8 14.683 18.84
2 24 -16.8 -11.317 0.25 -16.8 -6.317 12.991
2 24 16.8 -6.317 7.991 16.8 -11.317 0.25
2 24 -16.8 -5.817 120.25 16.8 -5.817 120.25
5 24 16.8 3.183 80.491 16.8 -5.817 120.25 16.8 3.183 76.747 16.8 8.183 101.524
2 24 16.8 3.183 80.491 16.8 8.183 101.524
2 24 -31.49 41.49 36.3 -31.5 41.506 41.621
2 24 -31.5 56.183 36.301 -31.49 41.49 36.3
2 24 -31.5 42.093 41.641 -31.499 50.006 41.908
5 24 -31.5 56.183 36.301 -31.5 42.093 41.641 -31.499 50.006 41.908 -31.5 41.506 41.621
2 24 -31.499 50.006 41.908 -31.499 56.183 41.95
2 24 -31.499 56.183 41.95 -31.5 56.183 36.301
2 24 -28.5 33.741 36.3 -28.5 56.183 36.3
2 24 -28.5 33.741 41.342 -28.5 33.741 36.3
5 24 -28.5 56.183 36.3 -28.497 45.557 41.764 -28.5 33.741 41.342 -28.497 49.907 41.916
2 24 -28.497 45.557 41.764 -28.5 33.741 41.342
2 24 -28.497 49.907 41.916 -28.497 45.557 41.764
2 24 -28.5 56.183 36.3 -28.496 56.183 41.949
2 24 -28.496 56.183 41.949 -28.497 49.907 41.916
5 24 -28.912 37.365 36.3 -28.5 56.183 36.3 -28.5 33.741 36.3 -31.5 56.183 36.301
2 24 -28.5 33.741 36.3 -28.912 37.365 36.3
2 24 -31.5 56.183 36.301 -28.5 56.183 36.3
2 24 -28.912 37.365 36.3 -31.49 41.49 36.3
2 24 -31.5 41.506 41.621 -31.5 42.093 41.641
2 24 -36.288 56.183 41.95 -36.3 49.187 41.889
2 24 -36.288 56.183 23.95 -36.288 56.183 41.95
5 24 -36.3 49.187 41.889 -36.3 49.187 23.95 -36.288 56.183 23.95 -31.5 41.506 41.621
2 24 -36.3 49.187 23.95 -36.288 56.183 23.95
2 24 -18.494 56.183 23.95 -36.288 56.183 23.95
5 24 -36.3 49.187 23.95 -18.448 48.771 23.95 -18.494 56.183 23.95 -31.386 41.325 26.604
2 24 -18.448 48.771 23.95 -18.494 56.183 23.95
2 24 -18.494 56.183 41.95 -18.494 56.183 23.95
5 24 -18.448 48.771 23.95 -18.494 56.183 41.95 -18.494 56.183 23.95 -18.356 50.843 41.95
5 24 -18.448 48.771 23.95 -18.356 50.843 41.95 -18.494 56.183 41.95 -18.836 41.325 26.604
2 24 -18.356 50.843 41.95 -18.494 56.183 41.95
5 24 -18.356 50.843 41.95 -18.836 41.325 26.604 -19.373 25.933 41.077 -18.448 48.771 23.95
2 24 -19.373 25.933 41.077 -18.356 50.843 41.95
2 24 -18.448 48.771 23.95 -18.836 41.325 26.604
2 24 -19.373 25.933 27.131 -19.373 25.933 41.077
2 24 -18.836 41.325 26.604 -19.373 25.933 27.131
5 24 -28.912 37.366 26.74 -18.836 41.325 26.604 -31.386 41.325 26.604 -27.613 25.933 27.131
5 24 -18.836 41.325 26.604 -31.386 41.325 26.604 -28.912 37.366 26.74 -18.448 48.771 23.95
2 24 -31.386 41.325 26.604 -28.912 37.366 26.74
5 24 -18.448 48.771 23.95 -31.386 41.325 26.604 -18.836 41.325 26.604 -36.3 49.187 23.95
2 24 -36.3 49.187 23.95 -31.386 41.325 26.604
5 24 -31.5 41.506 41.621 -31.386 41.325 26.604 -36.3 49.187 23.95 -28.912 37.366 41.486
2 24 -36.3 49.187 41.889 -31.5 41.506 41.621
2 24 -31.5 41.506 41.621 -28.912 37.366 41.486
5 24 -28.912 37.366 41.486 -28.912 37.366 26.74 -31.386 41.325 26.604 -28.5 33.741 41.35
2 24 -28.912 37.366 41.486 -28.5 33.741 41.35
2 24 -27.613 25.933 41.077 -27.613 25.933 27.131
5 24 -27.613 25.933 27.131 -28.5 33.741 41.35 -27.613 25.933 41.077 -28.912 37.366 26.74
2 24 -28.5 33.741 41.35 -27.613 25.933 41.077
2 24 -27.613 25.933 27.131 -28.912 37.366 26.74
2 24 -19.373 25.933 27.131 -27.613 25.933 27.131
2 24 -27.613 25.933 41.077 -19.373 25.933 41.077
5 24 -28.912 37.366 41.486 -18.356 50.843 41.95 -19.373 25.933 41.077 -31.5 41.506 41.621
5 24 -19.373 25.933 41.077 -28.5 33.741 41.35 -28.912 37.366 41.486 -27.613 25.933 41.077
2 24 -29.837 56.183 44.026 -28.276 56.183 44.241
5 24 -28.276 56.183 44.241 -18.494 56.183 41.95 -29.837 56.183 44.026 -15 56.183 45.45
2 24 -39.8 56.183 44.801 -33.344 56.183 44.97
5 24 -36.288 56.183 41.95 -39.8 56.183 44.801 -33.344 56.183 44.97 -39.8 56.183 21.1
2 24 -33.344 56.183 44.97 -31.407 56.183 44.16
5 24 -31.407 56.183 44.16 -36.288 56.183 41.95 -33.344 56.183 44.97 -29.837 56.183 44.026
5 24 -36.288 56.183 41.95 -29.837 56.183 44.026 -18.494 56.183 41.95 -31.407 56.183 44.16
2 24 -31.407 56.183 44.16 -29.837 56.183 44.026
5 24 -15 56.183 45.45 -18.494 56.183 41.95 -28.276 56.183 44.241 -15 56.183 34
5 24 -15 56.183 20.45 -18.494 56.183 23.95 -15 56.183 26.5 -36.288 56.183 23.95
2 24 -15 56.183 26.5 -15 56.183 20.45
2 24 -15 56.183 45.45 -15 56.183 34
5 24 -18.494 56.183 23.95 -16.015 56.183 28.548 -15 56.183 26.5 -16.222 56.183 30.25
2 24 -16.015 56.183 28.548 -15 56.183 26.5
2 24 -16.222 56.183 30.25 -16.015 56.183 28.548
5 24 -18.494 56.183 41.95 -16.222 56.183 30.25 -18.494 56.183 23.95 -16.015 56.183 31.953
5 24 -18.494 56.183 41.95 -16.015 56.183 31.953 -16.222 56.183 30.25 -15 56.183 34
2 24 -16.015 56.183 31.953 -16.222 56.183 30.25
2 24 -15 56.183 34 -16.015 56.183 31.953
2 24 -15 56.183 20.45 -39.8 56.183 21.1
5 24 -39.8 56.183 21.1 -36.288 56.183 23.95 -15 56.183 20.45 -36.288 56.183 41.95
2 24 -39.8 56.183 21.1 -39.8 56.183 44.801
5 24 -18.356 50.843 41.95 -36.3 49.187 41.889 -36.288 56.183 41.95 -31.5 41.506 41.621
5 24 -31.5 41.506 41.621 -18.356 50.843 41.95 -28.912 37.366 41.486 -36.3 49.187 41.889
2 24 -28.276 56.183 44.241 -26.385 56.183 45.152
2 24 -26.385 56.183 45.152 -15 56.183 45.45
5 24 -16.8 4.184 42.91 -28.665 4.193 42.592 -27.47 -6.317 42.624 -32.3 36.183 44.315
2 24 -28.665 4.193 42.592 -27.47 -6.317 42.624
2 24 -27.47 -6.317 42.624 -16.8 -6.317 42.91
2 24 -16.8 -6.317 42.91 -16.8 4.184 42.91
2 24 -16.8 4.184 42.91 -16.8 14.683 43.506
5 24 -16.8 14.683 43.506 -32.3 36.183 44.315 -16.8 4.184 42.91 -15 29.683 44.399
2 24 -32.3 36.183 44.315 -28.665 4.193 42.592
2 24 -16.8 14.683 43.506 -7.5 19.683 44.028
2 24 -7.5 19.683 44.028 -15 29.683 44.399
5 24 -15 29.683 44.399 -32.3 36.183 44.315 -16.8 14.683 43.506 -15 48.183 45.425
2 24 -15 29.683 44.399 -15 48.183 45.425
5 24 -15 48.183 45.425 -39.8 48.183 44.775 -32.3 36.183 44.315 -26.404 50.933 45.139
2 24 -39.8 48.183 44.775 -32.3 36.183 44.315
5 24 -28.665 4.193 42.592 -28.658 4.135 13.308 -27.47 -6.317 42.624 -32.3 36.183 44.315
2 24 -28.658 4.135 13.308 -27.47 -6.317 13.277
2 24 -27.47 -6.317 13.277 -27.47 -6.317 42.624
5 24 -32.3 36.183 44.315 -32.3 36.183 22.068 -28.658 4.135 13.308 -35.439 41.205 23.511
2 24 -32.3 36.183 22.068 -28.658 4.135 13.308
5 24 -32.3 36.183 44.315 -35.439 41.205 23.511 -32.3 36.183 22.068 -39.8 48.183 21.14
2 24 -35.439 41.205 23.511 -32.3 36.183 22.068
2 24 -39.8 48.183 21.14 -35.439 41.205 23.511
5 24 -39.8 48.183 44.775 -39.8 48.183 21.14 -32.3 36.183 44.315 -39.8 56.183 44.801
5 24 -28.658 4.135 13.308 -16.8 4.177 12.991 -16.8 -6.317 12.991 -16.8 11.708 15.026
2 24 -16.8 4.177 12.991 -16.8 -6.317 12.991
2 24 -16.8 -6.317 12.991 -27.47 -6.317 13.277
2 24 -7.5 11.465 14.715 -16.8 11.708 15.026
5 24 -16.8 11.708 15.026 -32.3 36.183 22.068 -7.5 11.465 14.715 -28.658 4.135 13.308
5 24 -32.3 36.183 22.068 -15 27.736 19.316 -7.5 11.465 14.715 -15 41.183 22.95
2 24 -15 27.736 19.316 -7.5 11.465 14.715
2 24 -16.8 11.708 15.026 -16.8 4.177 12.991
2 24 -15 41.183 22.95 -15 27.736 19.316
5 24 -35.439 41.205 23.511 -15 41.183 22.95 -32.3 36.183 22.068 -15 48.183 20.45
2 24 -15 48.183 20.45 -15 41.183 22.95
5 24 -39.8 48.183 21.14 -15 48.183 20.45 -35.439 41.205 23.511 -39.8 56.183 21.1
5 24 -15 27.736 19.316 -15 29.683 21.811 -7.5 19.683 25.25 -15 41.183 22.95
5 24 -15 29.683 21.811 -7.5 19.683 25.25 -15 27.736 19.316 -15 29.683 44.399
2 24 -7.5 19.683 25.25 -7.5 11.465 14.715
2 24 -7.5 19.683 44.028 -7.5 19.683 25.25
5 24 -15 29.683 21.811 -15 29.683 44.399 -7.5 19.683 25.25 -15 41.183 22.95
5 24 -15 41.183 22.95 -15 29.683 21.811 -15 27.736 19.316 -15 29.683 44.399
5 24 -15 41.183 22.95 -15 48.183 45.425 -15 29.683 44.399 -15 48.183 20.45
2 24 -39.8 56.183 44.801 -39.8 48.183 44.775
5 24 -39.8 48.183 44.775 -33.324 50.933 44.957 -33.344 56.183 44.97 -26.404 50.933 45.139
2 24 -33.324 50.933 44.957 -33.344 56.183 44.97
5 24 -15 48.183 45.425 -26.404 50.933 45.139 -39.8 48.183 44.775 -26.385 56.183 45.152
2 24 -26.404 50.933 45.139 -33.324 50.933 44.957
2 24 -15 48.183 45.425 -15 56.183 45.45
2 24 -26.385 56.183 45.152 -26.404 50.933 45.139
2 24 -39.8 56.183 21.1 -39.8 48.183 21.14
2 24 -15 56.183 20.45 -15 48.183 20.45
5 24 -15 50.933 26.5 -15 48.183 20.45 -15 56.183 20.45 -15 48.183 45.425
2 24 -15 56.183 26.5 -15 50.933 26.5
5 24 -15 48.183 45.425 -15 50.933 34 -15 56.183 45.45 -15 50.933 26.5
2 24 -15 50.933 34 -15 56.183 34
5 24 -15 48.183 45.425 -15 50.933 26.5 -15 50.933 34 -15 48.183 20.45
2 24 -15 50.933 26.5 -15 50.933 34
2 24 -26.404 50.933 45.139 -28.298 50.933 44.235
2 24 -28.298 50.933 44.235 -29.837 50.933 44.025
5 24 -26.404 50.933 45.139 -31.384 50.933 44.155 -33.324 50.933 44.957 -29.837 50.933 44.025
2 24 -31.384 50.933 44.155 -33.324 50.933 44.957
2 24 -29.837 50.933 44.025 -31.384 50.933 44.155
5 24 -28.276 56.183 44.241 -28.298 50.933 44.235 -26.385 56.183 45.152 -29.837 50.933 44.025
5 24 -29.837 56.183 44.026 -29.837 50.933 44.025 -28.276 56.183 44.241 -31.384 50.933 44.155
5 24 -31.407 56.183 44.16 -31.384 50.933 44.155 -29.837 56.183 44.026 -33.324 50.933 44.957
5 24 -16.015 56.183 28.548 -16.017 50.933 28.56 -15 56.183 26.5 -16.223 50.933 30.25
5 24 -16.222 56.183 30.25 -16.223 50.933 30.25 -16.015 56.183 28.548 -16.017 50.933 31.94
5 24 -16.015 56.183 31.953 -16.017 50.933 31.94 -16.222 56.183 30.25 -15 50.933 34
2 24 -16.017 50.933 28.56 -15 50.933 26.5
2 24 -16.223 50.933 30.25 -16.017 50.933 28.56
2 24 -15 50.933 34 -16.017 50.933 31.94
2 24 -16.017 50.933 31.94 -16.223 50.933 30.25
5 24 -16.017 50.933 28.56 -16.017 50.933 31.94 -15 50.933 34 -16.223 50.933 30.25
2 24 31.5 56.183 121.95 31.5 56.183 116.3
2 24 31.5 56.183 116.3 28.5 56.183 116.3
2 24 28.5 56.183 116.3 28.5 56.183 121.95
5 24 28.5 56.183 116.3 28.912 37.366 116.3 28.5 33.741 116.3 31.5 41.507 116.3
2 24 28.912 37.366 116.3 28.5 33.741 116.3
2 24 28.5 33.741 116.3 28.5 56.183 116.3
2 24 31.5 41.507 119.882 31.5 41.507 116.3
2 24 31.5 41.507 116.3 31.5 56.183 116.3
5 24 31.5 56.183 116.3 31.5 49.186 121.95 31.5 41.507 119.882 31.5 56.183 121.95
2 24 31.5 49.186 121.95 31.5 41.507 119.882
2 24 31.5 56.183 121.95 31.5 49.186 121.95
2 24 31.5 41.507 116.3 28.912 37.366 116.3
2 24 28.5 49.187 121.95 28.5 56.183 121.95
2 24 28.5 33.741 116.3 28.5 33.741 117.637
2 24 28.5 33.741 117.637 28.5 49.187 121.95
5 24 28.5 49.187 121.95 28.5 33.741 116.3 28.5 33.741 117.637 28.5 56.183 116.3
2 24 39.8 56.183 101.1 15 56.183 100.45
5 24 15 56.183 100.45 18.494 56.183 103.95 39.8 56.183 101.1 15 56.183 106.5
2 24 18.494 56.183 103.95 36.287 56.183 103.95
5 24 36.287 56.183 103.95 39.8 56.183 101.1 18.494 56.183 103.95 36.288 56.183 121.95
5 24 36.288 56.183 121.95 39.8 56.183 124.801 39.8 56.183 101.1 33.344 56.183 124.97
2 24 39.8 56.183 124.801 39.8 56.183 101.1
2 24 36.287 56.183 103.95 36.288 56.183 121.95
2 24 33.344 56.183 124.97 39.8 56.183 124.801
2 24 15 56.183 125.45 26.385 56.183 125.152
5 24 18.494 56.183 121.95 15 56.183 125.45 26.385 56.183 125.152 15 56.183 114
2 24 26.385 56.183 125.152 28.277 56.183 124.242
5 24 28.277 56.183 124.242 18.494 56.183 121.95 26.385 56.183 125.152 29.837 56.183 124.026
5 24 18.494 56.183 121.95 29.837 56.183 124.026 36.288 56.183 121.95 28.277 56.183 124.242
2 24 29.837 56.183 124.026 31.407 56.183 124.16
5 24 31.407 56.183 124.16 36.288 56.183 121.95 29.837 56.183 124.026 33.344 56.183 124.97
2 24 31.407 56.183 124.16 33.344 56.183 124.97
2 24 28.277 56.183 124.242 29.837 56.183 124.026
2 24 15 56.183 100.45 15 56.183 106.5
2 24 15 56.183 114 15 56.183 125.45
2 24 15 56.183 106.5 16.015 56.183 108.548
5 24 16.015 56.183 108.548 18.494 56.183 103.95 15 56.183 106.5 16.223 56.183 110.25
5 24 16.223 56.183 110.25 18.494 56.183 121.95 18.494 56.183 103.95 16.015 56.183 111.953
2 24 16.015 56.183 108.548 16.223 56.183 110.25
2 24 16.223 56.183 110.25 16.015 56.183 111.953
5 24 16.015 56.183 111.953 18.494 56.183 121.95 16.223 56.183 110.25 15 56.183 114
2 24 16.015 56.183 111.953 15 56.183 114
2 24 19.556 20.683 113.861 27.016 20.683 113.861
2 24 19.556 20.683 105.007 19.556 20.683 113.861
2 24 27.016 20.683 105.007 19.556 20.683 105.007
2 24 27.016 20.683 113.861 27.016 20.683 105.007
2 24 28.5 33.741 117.637 27.016 20.683 113.861
2 24 18.494 56.183 103.95 18.5 50.933 103.95
5 24 18.5 50.933 103.95 36.3 49.187 103.95 36.287 56.183 103.95 28.912 37.366 104.424
2 24 36.3 49.187 103.95 36.287 56.183 103.95
5 24 18.5 50.933 103.95 28.912 37.366 104.424 36.3 49.187 103.95 19.556 20.683 105.007
2 24 28.912 37.366 104.424 36.3 49.187 103.95
2 24 27.016 20.683 105.007 28.912 37.366 104.424
2 24 18.5 50.933 103.95 19.556 20.683 105.007
2 24 19.556 20.683 113.861 18.579 48.659 121.95
5 24 18.579 48.659 121.95 28.5 33.741 117.637 19.556 20.683 113.861 31.5 41.507 119.882
5 24 36.3 49.187 121.95 18.579 48.659 121.95 18.494 56.183 121.95 31.5 41.507 119.882
2 24 18.579 48.659 121.95 18.494 56.183 121.95
5 24 18.5 50.933 103.95 18.579 48.659 121.95 19.556 20.683 113.861 18.494 56.183 103.95
5 24 27.016 20.683 105.007 28.5 33.741 116.3 28.912 37.366 104.424 27.016 20.683 113.861
5 24 28.912 37.366 116.3 28.912 37.366 104.424 28.5 33.741 116.3 31.5 41.507 116.3
5 24 31.5 41.507 116.3 36.3 49.187 103.95 28.912 37.366 104.424 36.3 49.187 121.95
5 24 36.3 49.187 121.95 36.3 49.187 103.95 31.5 41.507 116.3 36.288 56.183 121.95
2 24 31.5 41.507 119.882 36.3 49.187 121.95
5 24 31.5 41.507 119.882 18.579 48.659 121.95 36.3 49.187 121.95 28.5 33.741 117.637
2 24 36.288 56.183 121.95 36.3 49.187 121.95
2 24 31.5 41.507 119.882 28.5 33.741 117.637
5 24 16.015 56.183 108.548 16.017 50.933 108.56 16.223 56.183 110.25 15 50.933 106.5
2 24 16.017 50.933 108.56 16.222 50.933 110.25
5 24 16.222 50.933 110.25 16.223 56.183 110.25 16.017 50.933 108.56 16.015 56.183 111.953
2 24 15 56.183 106.5 15 50.933 106.5
2 24 15 50.933 106.5 16.017 50.933 108.56
5 24 16.017 50.933 111.94 16.015 56.183 111.953 16.222 50.933 110.25 15 56.183 114
2 24 16.222 50.933 110.25 16.017 50.933 111.94
2 24 15 50.933 114 15 56.183 114
2 24 16.017 50.933 111.94 15 50.933 114
5 24 16.017 50.933 111.94 16.017 50.933 108.56 15 50.933 106.5 16.222 50.933 110.25
2 24 15 50.933 106.5 15 50.933 114
5 24 29.837 50.933 124.025 29.837 56.183 124.026 28.289 50.933 124.238 31.407 56.183 124.16
2 24 28.289 50.933 124.238 29.837 50.933 124.025
5 24 28.277 56.183 124.242 28.289 50.933 124.238 29.837 56.183 124.026 26.385 50.933 125.152
2 24 26.385 56.183 125.152 26.385 50.933 125.152
2 24 26.385 50.933 125.152 28.289 50.933 124.238
2 24 29.837 50.933 124.025 31.394 50.933 124.157
5 24 31.394 50.933 124.157 31.407 56.183 124.16 29.837 50.933 124.025 33.344 56.183 124.97
2 24 31.394 50.933 124.157 33.344 50.933 124.97
2 24 33.344 50.933 124.97 33.344 56.183 124.97
5 24 26.385 50.933 125.152 31.394 50.933 124.157 28.289 50.933 124.238 33.344 50.933 124.97
2 24 26.385 50.933 125.152 33.344 50.933 124.97
2 24 15 48.183 125.45 15 56.183 125.45
5 24 15 50.933 114 15 48.183 125.45 15 56.183 125.45 15 50.933 106.5
2 24 39.8 48.183 101.1 39.8 56.183 101.1
2 24 39.8 56.183 124.801 39.8 48.275 124.801
5 24 39.8 48.275 124.801 39.8 48.183 101.1 39.8 56.183 124.801 32.3 36.183 121.5
5 24 39.8 48.275 124.801 33.344 50.933 124.97 26.385 50.933 125.152 39.8 56.183 124.801
5 24 15 48.183 125.45 26.385 50.933 125.152 15 56.183 125.45 39.8 48.275 124.801
2 24 15 56.183 100.45 15 48.183 100.45
5 24 15 48.183 100.45 15 50.933 106.5 15 56.183 100.45 15 48.183 125.45
5 24 39.8 48.183 101.1 15 48.183 100.45 15 56.183 100.45 15 43.683 100.45
2 24 39.8 48.183 101.1 36.902 43.546 101.024
5 24 36.902 43.546 101.024 15 43.683 100.45 39.8 48.183 101.1 32.3 36.183 97.161
2 24 28.654 4.097 80.808 27.471 -6.317 80.777
2 24 27.471 -6.317 80.777 16.8 -6.317 80.491
2 24 16.8 -6.317 80.491 16.8 3.183 80.491
5 24 16.8 3.183 80.491 28.654 4.097 80.808 16.8 -6.317 80.491 15 18.183 87.539
2 24 7.5 8.183 82.256 15 18.183 87.539
5 24 15 18.183 87.539 16.8 3.183 80.491 7.5 8.183 82.256 28.654 4.097 80.808
5 24 15 18.183 87.539 28.654 4.097 80.808 16.8 3.183 80.491 32.3 36.183 97.161
2 24 32.3 36.183 97.161 28.654 4.097 80.808
2 24 36.902 43.546 101.024 32.3 36.183 97.161
5 24 32.3 36.183 97.161 15 43.683 100.45 36.902 43.546 101.024 15 18.183 87.539
2 24 15 18.183 87.539 15 43.683 100.45
2 24 32.3 36.183 121.5 39.8 48.275 124.801
5 24 39.8 48.275 124.801 15 48.183 125.45 32.3 36.183 121.5 26.385 50.933 125.152
2 24 15 48.183 125.45 15 18.183 116.755
5 24 15 18.183 116.755 32.3 36.183 121.5 15 48.183 125.45 29.749 13.738 115.064
2 24 29.749 13.738 115.064 32.3 36.183 121.5
5 24 15 18.183 116.755 29.749 13.738 115.064 32.3 36.183 121.5 16.8 8.183 115.41
5 24 15 18.183 116.755 16.8 8.183 115.41 29.749 13.738 115.064 7.5 8.183 115.647
5 24 16.8 8.183 115.41 29.749 13.738 115.064 15 18.183 116.755 27.527 -5.817 115.122
2 24 15 18.183 116.755 7.5 8.183 115.647
2 24 7.5 8.183 115.647 16.8 8.183 115.41
2 24 27.527 -5.817 115.122 29.749 13.738 115.064
2 24 16.8 8.183 115.41 16.8 -5.817 115.41
2 24 16.8 -5.817 115.41 27.527 -5.817 115.122
5 24 36.902 43.546 101.024 32.3 36.183 121.5 32.3 36.183 97.161 39.8 48.183 101.1
5 24 32.3 36.183 121.5 32.3 36.183 97.161 36.902 43.546 101.024 29.749 13.738 115.064
5 24 29.749 13.738 115.064 28.654 4.097 80.808 32.3 36.183 97.161 27.527 -5.817 115.122
2 24 27.527 -5.817 115.122 27.471 -6.317 80.777
5 24 15 48.183 125.45 15 43.683 100.45 15 18.183 116.755 15 48.183 100.45
5 24 15 18.183 87.539 15 18.183 116.755 15 43.683 100.45 7.5 8.183 82.256
2 24 15 48.183 100.45 15 43.683 100.45
2 24 7.5 8.183 82.256 7.5 8.183 115.647
5 24 15 48.183 125.45 15 50.933 106.5 15 48.183 100.45 15 50.933 114
5 24 -28.276 56.183 84.242 -18.494 56.183 81.95 -36.288 56.183 81.95 -15 56.183 85.45
2 24 -26.384 56.183 85.152 -15 56.183 85.45
2 24 -28.276 56.183 84.242 -26.384 56.183 85.152
2 24 -39.8 56.183 84.801 -33.344 56.183 84.97
5 24 -36.288 56.183 81.95 -39.8 56.183 84.801 -33.344 56.183 84.97 -39.8 56.183 61.1
2 24 -33.344 56.183 84.97 -31.407 56.183 84.16
5 24 -31.407 56.183 84.16 -36.288 56.183 81.95 -33.344 56.183 84.97 -29.837 56.183 84.026
5 24 -36.288 56.183 81.95 -29.837 56.183 84.026 -28.276 56.183 84.242 -31.407 56.183 84.16
2 24 -29.837 56.183 84.026 -28.276 56.183 84.242
2 24 -31.407 56.183 84.16 -29.837 56.183 84.026
5 24 -15 56.183 85.45 -18.494 56.183 81.95 -28.276 56.183 84.242 -15 56.183 74
5 24 -15 56.183 60.45 -18.494 56.183 63.95 -15 56.183 66.5 -36.288 56.183 63.95
2 24 -15 56.183 66.5 -15 56.183 60.45
2 24 -15 56.183 85.45 -15 56.183 74
5 24 -18.494 56.183 63.95 -16.015 56.183 68.548 -15 56.183 66.5 -16.222 56.183 70.25
2 24 -16.015 56.183 68.548 -15 56.183 66.5
2 24 -16.222 56.183 70.25 -16.015 56.183 68.548
5 24 -18.494 56.183 81.95 -16.222 56.183 70.25 -18.494 56.183 63.95 -16.015 56.183 71.953
5 24 -18.494 56.183 81.95 -16.015 56.183 71.953 -16.222 56.183 70.25 -15 56.183 74
2 24 -16.015 56.183 71.953 -16.222 56.183 70.25
2 24 -15 56.183 74 -16.015 56.183 71.953
2 24 -15 56.183 60.45 -39.8 56.183 61.1
5 24 -39.8 56.183 61.1 -36.288 56.183 63.95 -15 56.183 60.45 -36.288 56.183 81.95
2 24 -36.288 56.183 63.95 -18.494 56.183 63.95
2 24 -36.288 56.183 81.95 -36.288 56.183 63.95
2 24 -39.8 56.183 61.1 -39.8 56.183 84.801
2 24 -18.5 50.933 63.95 -18.563 49.14 63.95
2 24 -18.563 49.14 63.95 -18.843 41.129 68.75
5 24 -18.843 41.129 68.75 -18.494 50.933 81.95 -18.5 50.933 63.95 -18.953 37.012 71.301
5 24 -18.494 50.933 81.95 -18.5 50.933 63.95 -18.843 41.129 68.75 -18.494 56.183 81.95
2 24 -36.288 56.183 63.95 -36.3 49.187 63.95
5 24 -36.3 49.187 63.95 -18.5 50.933 63.95 -18.494 56.183 63.95 -18.563 49.14 63.95
2 24 -18.5 50.933 63.95 -18.494 56.183 63.95
5 24 -36.3 49.187 63.95 -18.563 49.14 63.95 -18.5 50.933 63.95 -23.95 41.129 68.75
5 24 -23.95 41.129 68.75 -18.563 49.14 63.95 -36.3 49.187 63.95 -18.843 41.129 68.75
2 24 -36.3 49.187 63.95 -28.912 37.366 71.005
5 24 -28.912 37.366 71.005 -23.95 41.129 68.75 -36.3 49.187 63.95 -23.95 37.011 71.218
2 24 -23.95 41.129 68.75 -18.843 41.129 68.75
2 24 -18.494 50.933 81.95 -18.494 56.183 81.95
5 24 -28.912 37.366 81.35 -28.912 37.366 71.005 -36.3 49.187 63.95 -27.964 29.024 81.122
5 24 -36.3 49.187 63.95 -31.5 41.507 81.621 -28.912 37.366 81.35 -36.3 49.187 81.889
2 24 -31.5 41.507 81.621 -28.912 37.366 81.35
5 24 -36.3 49.187 63.95 -36.3 49.187 81.889 -31.5 41.507 81.621 -36.288 56.183 63.95
2 24 -36.3 49.187 81.889 -31.5 41.507 81.621
2 24 -36.288 56.183 81.95 -36.3 49.187 81.889
5 24 -18.494 50.933 81.95 -36.3 49.187 81.889 -36.288 56.183 81.95 -31.5 41.507 81.621
2 24 -18.494 50.933 81.95 -19.556 20.683 80.894
5 24 -19.556 20.683 80.894 -28.912 37.366 81.35 -18.494 50.933 81.95 -27.016 20.683 80.894
5 24 -28.912 37.366 81.35 -18.494 50.933 81.95 -19.556 20.683 80.894 -31.5 41.507 81.621
2 24 -19.556 20.683 80.894 -27.016 20.683 80.894
2 24 -27.016 20.683 80.894 -28.912 37.366 81.35
5 24 -18.494 50.933 81.95 -31.5 41.507 81.621 -36.3 49.187 81.889 -28.912 37.366 81.35
2 24 -19.556 20.683 75.094 -19.556 20.683 80.894
2 24 -18.953 37.012 71.301 -19.556 20.683 75.094
5 24 -18.494 50.933 81.95 -18.953 37.012 71.301 -19.556 20.683 80.894 -18.843 41.129 68.75
2 24 -19.556 20.683 75.094 -27.016 20.683 75.094
2 24 -27.016 20.683 75.094 -27.016 20.683 80.894
2 24 -27.016 20.683 75.094 -28.912 37.366 71.005
5 24 -28.912 37.366 71.005 -27.964 29.024 81.122 -27.016 20.683 80.894 -28.912 37.366 81.35
2 24 -27.964 29.024 81.122 -27.016 20.683 80.894
2 24 -28.912 37.366 81.35 -27.964 29.024 81.122
5 24 -27.016 20.683 75.094 -23.95 37.011 71.218 -28.912 37.366 71.005 -19.556 20.683 75.094
5 24 -23.95 37.011 71.218 -28.912 37.366 71.005 -27.016 20.683 75.094 -23.95 41.129 68.75
5 24 -18.953 37.012 71.301 -23.95 37.011 71.218 -19.556 20.683 75.094 -18.843 41.129 68.75
5 24 -23.95 37.011 71.218 -19.556 20.683 75.094 -18.953 37.012 71.301 -27.016 20.683 75.094
2 24 -18.843 41.129 68.75 -18.953 37.012 71.301
2 24 -23.95 37.011 71.218 -23.95 41.129 68.75
5 24 -18.843 41.129 68.75 -23.95 37.011 71.218 -18.953 37.012 71.301 -23.95 41.129 68.75
2 24 -31.5 41.507 76.55 -31.5 41.507 81.621
2 24 -31.5 41.507 81.621 -31.5 50.933 81.95
5 24 -31.499 56.183 81.95 -31.5 41.507 76.55 -31.5 50.933 81.95 -31.5 56.183 76.55
2 24 -31.5 50.933 81.95 -31.499 56.183 81.95
2 24 -31.499 56.183 81.95 -31.5 56.183 76.55
2 24 -31.5 56.183 76.55 -31.5 41.507 76.55
2 24 -28.5 56.183 76.55 -31.5 56.183 76.55
2 24 -28.495 56.183 81.95 -28.5 56.183 76.55
5 24 -28.5 56.183 76.55 -28.912 37.366 76.55 -31.5 56.183 76.55 -28.5 33.741 76.55
2 24 -28.912 37.366 76.55 -31.5 41.507 76.55
2 24 -28.5 56.183 76.55 -28.5 33.741 76.55
2 24 -28.5 33.741 76.55 -28.912 37.366 76.55
2 24 -28.5 50.933 81.95 -28.5 38.254 81.392
5 24 -28.5 38.254 81.392 -28.5 33.741 76.55 -28.5 50.933 81.95 -28.5 33.741 81.247
2 24 -28.5 38.254 81.392 -28.5 33.741 81.247
2 24 -28.5 33.741 81.247 -28.5 33.741 76.55
5 24 -28.5 56.183 76.55 -28.5 50.933 81.95 -28.5 33.741 76.55 -28.495 56.183 81.95
2 24 -28.495 56.183 81.95 -28.5 50.933 81.95
2 24 -18.494 56.183 71.75 -23.95 56.183 71.75
2 24 -18.497 50.933 71.75 -18.494 56.183 71.75
2 24 -23.95 56.183 71.75 -23.95 34.768 71.75
5 24 -23.95 34.768 71.75 -18.497 50.933 71.75 -23.95 56.183 71.75 -18.763 43.357 71.75
5 24 -23.95 34.768 71.75 -18.763 43.357 71.75 -18.497 50.933 71.75 -18.934 37.6 71.75
2 24 -18.763 43.357 71.75 -18.497 50.933 71.75
2 24 -18.934 37.6 71.75 -18.763 43.357 71.75
2 24 -23.95 34.768 71.75 -23.346 34.768 71.75
5 24 -23.346 34.768 71.75 -18.934 37.6 71.75 -23.95 34.768 71.75 -19.028 34.933 71.75
2 24 -23.346 34.768 71.75 -19.028 34.933 71.75
2 24 -19.028 34.933 71.75 -18.934 37.6 71.75
2 24 -23.95 41.129 68.75 -23.95 56.183 68.75
5 24 -23.95 56.183 68.75 -18.498 50.933 68.75 -18.843 41.129 68.75 -18.495 56.183 68.75
2 24 -18.498 50.933 68.75 -18.843 41.129 68.75
2 24 -23.95 56.183 68.75 -18.495 56.183 68.75
2 24 -18.495 56.183 68.75 -18.498 50.933 68.75
5 24 -23.95 56.183 71.75 -23.95 37.011 71.218 -23.95 34.768 71.75 -23.95 41.129 68.75
2 24 -23.95 37.011 71.218 -23.95 34.768 71.75
2 24 -23.95 56.183 71.75 -23.95 56.183 68.75
2 24 -26.384 50.933 85.152 -28.285 50.933 84.24
2 24 -33.344 50.933 84.97 -26.384 50.933 85.152
5 24 -28.285 50.933 84.24 -31.397 50.933 84.158 -33.344 50.933 84.97 -29.837 50.933 84.026
2 24 -31.397 50.933 84.158 -33.344 50.933 84.97
2 24 -28.285 50.933 84.24 -29.837 50.933 84.026
2 24 -29.837 50.933 84.026 -31.397 50.933 84.158
5 24 -31.397 50.933 84.158 -31.407 56.183 84.16 -33.344 50.933 84.97 -29.837 56.183 84.026
5 24 -29.837 50.933 84.026 -29.837 56.183 84.026 -31.397 50.933 84.158 -28.276 56.183 84.242
2 24 -26.384 50.933 85.152 -26.384 56.183 85.152
5 24 -28.285 50.933 84.24 -28.276 56.183 84.242 -29.837 50.933 84.026 -26.384 56.183 85.152
2 24 -33.344 56.183 84.97 -33.344 50.933 84.97
2 24 -39.8 56.183 61.1 -39.8 48.363 61.1
5 24 -39.8 48.363 61.1 -39.8 48.183 84.801 -39.8 56.183 84.801 -32.3 36.183 90.507
2 24 -39.8 48.183 84.801 -39.8 56.183 84.801
2 24 -15 56.183 60.45 -15 48.183 60.45
5 24 -15 48.183 60.45 -39.8 48.363 61.1 -39.8 56.183 61.1 -32.263 35.855 68.374
5 24 -39.8 48.183 84.801 -33.344 50.933 84.97 -33.344 56.183 84.97 -15 48.183 85.45
5 24 -39.8 48.183 84.801 -15 48.183 85.45 -33.344 50.933 84.97 -32.3 36.183 90.507
5 24 -15 48.183 85.45 -26.384 50.933 85.152 -33.344 50.933 84.97 -15 56.183 85.45
2 24 -15 48.183 85.45 -15 56.183 85.45
5 24 -15 48.183 85.45 -15 50.933 74 -15 56.183 74 -15 48.183 60.45
2 24 -15 50.933 74 -15 56.183 74
5 24 -15 48.183 85.45 -15 48.183 60.45 -15 50.933 74 -15 35.683 67.95
5 24 -15 50.933 66.5 -15 48.183 60.45 -15 56.183 60.45 -15 50.933 74
2 24 -15 56.183 66.5 -15 50.933 66.5
2 24 -15 50.933 66.5 -15 50.933 74
2 24 -16.017 50.933 71.94 -16.223 50.933 70.25
5 24 -16.223 50.933 70.25 -16.222 56.183 70.25 -16.017 50.933 71.94 -16.015 56.183 68.548
2 24 -16.017 50.933 68.56 -15 50.933 66.5
5 24 -16.017 50.933 68.56 -16.015 56.183 68.548 -16.223 50.933 70.25 -15 56.183 66.5
2 24 -16.223 50.933 70.25 -16.017 50.933 68.56
2 24 -15 50.933 74 -16.017 50.933 71.94
5 24 -16.017 50.933 71.94 -16.015 56.183 71.953 -15 50.933 74 -16.222 56.183 70.25
5 24 -16.017 50.933 68.56 -16.017 50.933 71.94 -15 50.933 74 -16.223 50.933 70.25
2 24 -7.5 9.787 73.914 -15 21.731 71.272
5 24 -15 21.731 71.272 -15 18.183 79.757 -7.5 9.787 73.914 -15 21.183 97.95
5 24 -15 18.183 79.757 -7.5 8.183 77.75 -7.5 9.787 73.914 -7.5 8.183 107.753
2 24 -7.5 8.183 77.75 -7.5 9.787 73.914
2 24 -7.5 8.183 107.753 -7.5 8.183 77.75
5 24 -15 18.183 79.757 -15 18.183 100.156 -7.5 8.183 107.753 -15 21.183 97.95
2 24 -15 18.183 100.156 -7.5 8.183 107.753
2 24 -32.263 35.855 68.374 -28.668 4.225 75.808
5 24 -32.3 36.183 90.507 -32.263 35.855 68.374 -28.668 4.225 75.808 -39.8 48.363 61.1
5 24 -28.668 4.225 75.808 -30.572 20.974 97.598 -32.3 36.183 90.507 -28.65 4.066 110.093
2 24 -30.572 20.974 97.598 -32.3 36.183 90.507
2 24 -27.47 -6.317 75.777 -27.527 -5.817 110.122
2 24 -28.668 4.225 75.808 -27.47 -6.317 75.777
2 24 -27.527 -5.817 110.122 -28.65 4.066 110.093
5 24 -28.65 4.066 110.093 -28.668 4.225 75.808 -27.527 -5.817 110.122 -30.572 20.974 97.598
2 24 -28.65 4.066 110.093 -30.572 20.974 97.598
5 24 -32.3 36.183 90.507 -39.8 48.363 61.1 -32.263 35.855 68.374 -39.8 48.183 84.801
2 24 -39.8 48.363 61.1 -32.263 35.855 68.374
2 24 -32.3 36.183 90.507 -39.8 48.183 84.801
2 24 -15 35.683 67.95 -15 21.731 71.272
5 24 -15 21.731 71.272 -28.668 4.225 75.808 -15 35.683 67.95 -16.8 3.708 75.491
5 24 -32.263 35.855 68.374 -15 35.683 67.95 -28.668 4.225 75.808 -15 48.183 60.45
5 24 -15 21.731 71.272 -16.8 3.708 75.491 -28.668 4.225 75.808 -7.5 9.787 73.914
5 24 -16.8 3.708 75.491 -28.668 4.225 75.808 -15 21.731 71.272 -27.47 -6.317 75.777
2 24 -15 48.183 60.45 -15 35.683 67.95
2 24 -16.8 3.708 75.491 -16.8 -6.317 75.491
2 24 -16.8 -6.317 75.491 -27.47 -6.317 75.777
5 24 -30.572 20.974 97.598 -15 21.183 97.95 -32.3 36.183 90.507 -15 18.183 100.156
5 24 -15 21.183 97.95 -32.3 36.183 90.507 -30.572 20.974 97.598 -15 48.183 85.45
2 24 -15 21.183 97.95 -15 48.183 85.45
2 24 -15 18.183 100.156 -15 21.183 97.95
5 24 -30.572 20.974 97.598 -15 18.183 100.156 -15 21.183 97.95 -7.5 8.183 107.753
5 24 -30.572 20.974 97.598 -16.8 8.183 107.459 -7.5 8.183 107.753 -28.65 4.066 110.093
2 24 -16.8 8.183 107.459 -7.5 8.183 107.753
5 24 -28.65 4.066 110.093 -16.8 4.169 110.41 -16.8 8.183 107.459 -27.527 -5.817 110.122
2 24 -16.8 4.169 110.41 -16.8 8.183 107.459
2 24 -27.527 -5.817 110.122 -16.8 -5.817 110.41
2 24 -16.8 -5.817 110.41 -16.8 4.169 110.41
5 24 -15 21.731 71.272 -15 21.183 97.95 -15 18.183 79.757 -15 35.683 67.95
5 24 -15 21.183 97.95 -15 35.683 67.95 -15 48.183 85.45 -15 21.731 71.272
2 24 18.486 56.183 111.75 23.7 56.183 111.75
2 24 23.7 56.183 111.75 23.7 56.183 108.75
2 24 23.7 56.183 108.75 18.486 56.183 108.75
2 24 18.486 56.183 111.75 18.502 50.843 111.75
2 24 19.556 20.683 111.75 23.7 20.683 111.75
5 24 23.7 20.683 111.75 18.502 50.843 111.75 19.556 20.683 111.75 23.7 56.183 111.75
2 24 18.502 50.843 111.75 19.556 20.683 111.75
2 24 23.7 20.683 111.75 23.7 56.183 111.75
2 24 23.7 20.683 111.75 23.7 20.683 108.75
2 24 23.7 20.683 108.75 23.7 56.183 108.75
2 24 23.7 20.683 108.75 19.556 20.683 108.75
2 24 19.556 20.683 108.75 18.499 50.843 108.75
5 24 18.499 50.843 108.75 23.7 56.183 108.75 23.7 20.683 108.75 18.486 56.183 108.75
2 24 18.499 50.843 108.75 18.486 56.183 108.75
2 24 18.494 56.183 3.95 18.486 56.183 8.75
2 24 18.494 56.183 21.95 18.486 56.183 11.75
2 24 18.494 56.183 21.95 28.5 56.183 21.95
2 24 36.288 56.183 21.95 31.5 56.183 21.95
2 24 -18.494 56.183 41.95 -28.496 56.183 41.949
2 24 -36.288 56.183 41.95 -31.499 56.183 41.95
2 24 18.494 56.183 121.95 28.5 56.183 121.95
2 24 31.5 56.183 121.95 36.288 56.183 121.95
2 24 18.494 56.183 103.95 18.486 56.183 108.75
2 24 18.486 56.183 111.75 18.494 56.183 121.95
2 24 -18.494 56.183 63.95 -18.495 56.183 68.75
2 24 -18.494 56.183 71.75 -18.494 56.183 81.95
2 24 -18.494 56.183 81.95 -28.495 56.183 81.95
2 24 -31.499 56.183 81.95 -36.288 56.183 81.95
