0 Tile  2 x  2 with Red and Green Pizza Takeaway Box Pattern
0 Name: 3068bp79.dat
0 Author: Philippe Hurbain [Philo]
0 !LDRAW_ORG Part UPDATE 2019-01
0 !LICENSE Licensed under CC BY 4.0 : see CAreadme.txt

0 BFC CERTIFY CCW

0 !KEYWORDS Bricklink 3068bpb0883, pepperoni, Takeout

0 !HISTORY 2019-06-28 [PTadmin] Official Update 2019-01


1 16 0 0 0 1 0 0 0 1 0 0 0 1 s\3068bs01.dat
4 4 -17.65 0 18.45 -17.65 0 17.45 -16.65 0 17.45 -16.65 0 18.45
4 16 -16.65 0 17.45 -17.65 0 17.45 -17.65 0 16.45 -16.65 0 16.45
4 16 -16.65 0 17.45 -15.65 0 17.45 -15.65 0 18.45 -16.65 0 18.45
4 4 -15.65 0 16.45 -15.65 0 17.45 -16.65 0 17.45 -16.65 0 16.45
3 16 -20 0 20 -17.65 0 18.45 -16.65 0 18.45
3 16 -20 0 20 -16.65 0 18.45 -15.65 0 18.45
4 4 -15.65 0 18.45 -15.65 0 17.45 -14.65 0 17.45 -14.65 0 18.45
4 16 -14.65 0 17.45 -15.65 0 17.45 -15.65 0 16.45 -14.65 0 16.45
4 16 -14.65 0 17.45 -13.65 0 17.45 -13.65 0 18.45 -14.65 0 18.45
4 4 -13.65 0 16.45 -13.65 0 17.45 -14.65 0 17.45 -14.65 0 16.45
3 16 -20 0 20 -15.65 0 18.45 -14.65 0 18.45
3 16 -20 0 20 -14.65 0 18.45 -13.65 0 18.45
3 16 -14.65 0 16.45 -15.65 0 16.45 -4.9455 0 12.7462
3 16 -13.65 0 16.45 -14.65 0 16.45 -4.9455 0 12.7462
4 4 -13.65 0 18.45 -13.65 0 17.45 -12.65 0 17.45 -12.65 0 18.45
4 16 -12.65 0 17.45 -13.65 0 17.45 -13.65 0 16.45 -12.65 0 16.45
4 16 -12.65 0 17.45 -11.65 0 17.45 -11.65 0 18.45 -12.65 0 18.45
4 4 -11.65 0 16.45 -11.65 0 17.45 -12.65 0 17.45 -12.65 0 16.45
3 16 -20 0 20 -13.65 0 18.45 -12.65 0 18.45
3 16 -20 0 20 -12.65 0 18.45 -11.65 0 18.45
4 4 -11.65 0 18.45 -11.65 0 17.45 -10.65 0 17.45 -10.65 0 18.45
4 16 -10.65 0 17.45 -11.65 0 17.45 -11.65 0 16.45 -10.65 0 16.45
4 16 -10.65 0 17.45 -9.65 0 17.45 -9.65 0 18.45 -10.65 0 18.45
4 4 -9.65 0 16.45 -9.65 0 17.45 -10.65 0 17.45 -10.65 0 16.45
3 16 -20 0 20 -11.65 0 18.45 -10.65 0 18.45
3 16 -20 0 20 -10.65 0 18.45 -9.65 0 18.45
3 16 -12.65 0 16.45 -13.65 0 16.45 -4.9455 0 12.7462
3 16 -11.65 0 16.45 -12.65 0 16.45 -4.9455 0 12.7462
3 16 -10.65 0 16.45 -11.65 0 16.45 -4.9455 0 12.7462
4 16 -9.65 0 16.45 -10.65 0 16.45 -4.9455 0 12.7462 -4.5673 0 13.5656
4 4 -9.65 0 18.45 -9.65 0 17.45 -8.65 0 17.45 -8.65 0 18.45
4 16 -8.65 0 17.45 -9.65 0 17.45 -9.65 0 16.45 -8.65 0 16.45
4 16 -8.65 0 17.45 -7.65 0 17.45 -7.65 0 18.45 -8.65 0 18.45
4 4 -7.65 0 16.45 -7.65 0 17.45 -8.65 0 17.45 -8.65 0 16.45
3 16 -20 0 20 -9.65 0 18.45 -8.65 0 18.45
3 16 -20 0 20 -8.65 0 18.45 -7.65 0 18.45
4 4 -7.65 0 18.45 -7.65 0 17.45 -6.65 0 17.45 -6.65 0 18.45
4 16 -6.65 0 17.45 -7.65 0 17.45 -7.65 0 16.45 -6.65 0 16.45
4 16 -6.65 0 17.45 -5.65 0 17.45 -5.65 0 18.45 -6.65 0 18.45
4 4 -5.65 0 16.45 -5.65 0 17.45 -6.65 0 17.45 -6.65 0 16.45
3 16 -20 0 20 -7.65 0 18.45 -6.65 0 18.45
3 16 -20 0 20 -6.65 0 18.45 -5.65 0 18.45
3 16 -8.65 0 16.45 -9.65 0 16.45 -4.5673 0 13.5656
4 16 -7.65 0 16.45 -8.65 0 16.45 -4.5673 0 13.5656 -3.8611 0 14.1293
3 16 -6.65 0 16.45 -7.65 0 16.45 -3.8611 0 14.1293
4 16 -5.65 0 16.45 -6.65 0 16.45 -3.8611 0 14.1293 -3 0 14.4
4 4 -5.65 0 18.45 -5.65 0 17.45 -4.65 0 17.45 -4.65 0 18.45
4 16 -4.65 0 17.45 -5.65 0 17.45 -5.65 0 16.45 -4.65 0 16.45
4 16 -4.65 0 17.45 -3.65 0 17.45 -3.65 0 18.45 -4.65 0 18.45
4 4 -3.65 0 16.45 -3.65 0 17.45 -4.65 0 17.45 -4.65 0 16.45
3 16 -20 0 20 -5.65 0 18.45 -4.65 0 18.45
3 16 -20 0 20 -4.65 0 18.45 -3.65 0 18.45
4 4 -3.65 0 18.45 -3.65 0 17.45 -2.65 0 17.45 -2.65 0 18.45
4 16 -2.65 0 17.45 -3.65 0 17.45 -3.65 0 16.45 -2.65 0 16.45
4 16 -2.65 0 17.45 -1.65 0 17.45 -1.65 0 18.45 -2.65 0 18.45
4 4 -1.65 0 16.45 -1.65 0 17.45 -2.65 0 17.45 -2.65 0 16.45
3 16 -20 0 20 -3.65 0 18.45 -2.65 0 18.45
3 16 -20 0 20 -2.65 0 18.45 -1.65 0 18.45
3 16 -4.65 0 16.45 -5.65 0 16.45 -3 0 14.4
3 16 -3.65 0 16.45 -4.65 0 16.45 -3 0 14.4
3 16 -2.65 0 16.45 -3.65 0 16.45 -3 0 14.4
4 16 -1.65 0 16.45 -2.65 0 16.45 -3 0 14.4 -1.9437 0 14.2386
4 4 -1.65 0 18.45 -1.65 0 17.45 -0.65 0 17.45 -0.65 0 18.45
4 16 -0.65 0 17.45 -1.65 0 17.45 -1.65 0 16.45 -0.65 0 16.45
4 16 -0.65 0 17.45 0.35 0 17.45 0.35 0 18.45 -0.65 0 18.45
4 4 0.35 0 16.45 0.35 0 17.45 -0.65 0 17.45 -0.65 0 16.45
3 16 -20 0 20 -1.65 0 18.45 -0.65 0 18.45
4 16 -20 0 20 -0.65 0 18.45 0.35 0 18.45 20 0 20
4 4 0.35 0 18.45 0.35 0 17.45 1.35 0 17.45 1.35 0 18.45
4 16 1.35 0 17.45 0.35 0 17.45 0.35 0 16.45 1.35 0 16.45
4 16 1.35 0 17.45 2.35 0 17.45 2.35 0 18.45 1.35 0 18.45
4 4 2.35 0 16.45 2.35 0 17.45 1.35 0 17.45 1.35 0 16.45
3 16 20 0 20 0.35 0 18.45 1.35 0 18.45
3 16 20 0 20 1.35 0 18.45 2.35 0 18.45
4 16 1.3873 0 15.7524 -0.65 0 16.45 -1.65 0 16.45 0.8401 0 15.0961
3 16 0.35 0 16.45 -0.65 0 16.45 1.3873 0 15.7524
3 16 1.35 0 16.45 0.35 0 16.45 1.3873 0 15.7524
4 16 2.35 0 16.45 1.35 0 16.45 1.3873 0 15.7524 2.1639 0 16.1089
4 4 2.35 0 18.45 2.35 0 17.45 3.35 0 17.45 3.35 0 18.45
4 16 3.35 0 17.45 2.35 0 17.45 2.35 0 16.45 3.35 0 16.45
4 16 3.35 0 17.45 4.35 0 17.45 4.35 0 18.45 3.35 0 18.45
4 4 4.35 0 16.45 4.35 0 17.45 3.35 0 17.45 3.35 0 16.45
3 16 20 0 20 2.35 0 18.45 3.35 0 18.45
3 16 20 0 20 3.35 0 18.45 4.35 0 18.45
4 4 4.35 0 18.45 4.35 0 17.45 5.35 0 17.45 5.35 0 18.45
4 16 5.35 0 17.45 4.35 0 17.45 4.35 0 16.45 5.35 0 16.45
4 16 5.35 0 17.45 6.35 0 17.45 6.35 0 18.45 5.35 0 18.45
4 4 6.35 0 16.45 6.35 0 17.45 5.35 0 17.45 5.35 0 16.45
3 16 20 0 20 4.35 0 18.45 5.35 0 18.45
3 16 20 0 20 5.35 0 18.45 6.35 0 18.45
4 16 3 0 16.25 3.35 0 16.45 2.35 0 16.45 2.1639 0 16.1089
4 16 4.35 0 16.45 3.35 0 16.45 3 0 16.25 4.2637 0 15.9583
3 16 5.35 0 16.45 4.35 0 16.45 4.2637 0 15.9583
4 16 6.35 0 16.45 5.35 0 16.45 4.2637 0 15.9583 5.3119 0 15.2316
4 4 6.35 0 18.45 6.35 0 17.45 7.35 0 17.45 7.35 0 18.45
4 16 7.35 0 17.45 6.35 0 17.45 6.35 0 16.45 7.35 0 16.45
4 16 7.35 0 17.45 8.35 0 17.45 8.35 0 18.45 7.35 0 18.45
4 4 8.35 0 16.45 8.35 0 17.45 7.35 0 17.45 7.35 0 16.45
3 16 20 0 20 6.35 0 18.45 7.35 0 18.45
3 16 20 0 20 7.35 0 18.45 8.35 0 18.45
4 4 8.35 0 18.45 8.35 0 17.45 9.35 0 17.45 9.35 0 18.45
4 16 9.35 0 17.45 8.35 0 17.45 8.35 0 16.45 9.35 0 16.45
4 16 9.35 0 17.45 10.35 0 17.45 10.35 0 18.45 9.35 0 18.45
4 4 10.35 0 16.45 10.35 0 17.45 9.35 0 17.45 9.35 0 16.45
3 16 20 0 20 8.35 0 18.45 9.35 0 18.45
3 16 20 0 20 9.35 0 18.45 10.35 0 18.45
4 16 6.9458 0 15.2011 7.35 0 16.45 6.35 0 16.45 6.45 0 15.2
4 16 8.35 0 16.45 7.35 0 16.45 6.9458 0 15.2011 7.8904 0 14.9436
4 16 9.7949 0 13.9994 9.35 0 16.45 8.35 0 16.45 8.8497 0 14.5566
3 16 10.35 0 16.45 9.35 0 16.45 9.7949 0 13.9994
4 4 10.35 0 18.45 10.35 0 17.45 11.35 0 17.45 11.35 0 18.45
4 16 11.35 0 17.45 10.35 0 17.45 10.35 0 16.45 11.35 0 16.45
4 16 11.35 0 17.45 12.35 0 17.45 12.35 0 18.45 11.35 0 18.45
4 4 12.35 0 16.45 12.35 0 17.45 11.35 0 17.45 11.35 0 16.45
3 16 20 0 20 10.35 0 18.45 11.35 0 18.45
3 16 20 0 20 11.35 0 18.45 12.35 0 18.45
4 4 12.35 0 18.45 12.35 0 17.45 13.35 0 17.45 13.35 0 18.45
4 16 13.35 0 17.45 12.35 0 17.45 12.35 0 16.45 13.35 0 16.45
4 16 13.35 0 17.45 14.35 0 17.45 14.35 0 18.45 13.35 0 18.45
4 4 14.35 0 16.45 14.35 0 17.45 13.35 0 17.45 13.35 0 16.45
3 16 20 0 20 12.35 0 18.45 13.35 0 18.45
3 16 20 0 20 13.35 0 18.45 14.35 0 18.45
3 16 11.35 0 16.45 10.35 0 16.45 9.7949 0 13.9994
3 16 12.35 0 16.45 11.35 0 16.45 9.7949 0 13.9994
3 16 13.35 0 16.45 12.35 0 16.45 9.7949 0 13.9994
4 16 14.35 0 16.45 13.35 0 16.45 9.7949 0 13.9994 10.7 0 13.1
4 16 -18.65 0 17.45 -17.65 0 17.45 -17.65 0 18.45 -20 0 20
4 4 -17.65 0 16.45 -17.65 0 17.45 -18.65 0 17.45 -18.65 0 16.45
4 4 14.35 0 18.45 14.35 0 17.45 15.35 0 17.45 15.35 0 18.45
4 16 15.35 0 17.45 14.35 0 17.45 14.35 0 16.45 15.35 0 16.45
4 16 15.35 0 17.45 16.35 0 17.45 16.35 0 18.45 15.35 0 18.45
4 4 16.35 0 16.45 16.35 0 17.45 15.35 0 17.45 15.35 0 16.45
3 16 20 0 20 14.35 0 18.45 15.35 0 18.45
3 16 20 0 20 15.35 0 18.45 16.35 0 18.45
4 4 16.35 0 18.45 16.35 0 17.45 17.35 0 17.45 17.35 0 18.45
4 16 17.35 0 17.45 16.35 0 17.45 16.35 0 16.45 17.35 0 16.45
4 16 17.35 0 17.45 18.35 0 17.45 20 0 20 17.35 0 18.45
4 4 18.35 0 16.45 18.35 0 17.45 17.35 0 17.45 17.35 0 16.45
3 16 20 0 20 16.35 0 18.45 17.35 0 18.45
3 16 15.35 0 16.45 14.35 0 16.45 10.7 0 13.1
4 16 16.35 0 16.45 15.35 0 16.45 10.7 0 13.1 16.35 0 15.45
3 16 20 0 20 18.35 0 17.45 18.35 0 16.45
4 4 16.35 0 16.45 16.35 0 15.45 17.35 0 15.45 17.35 0 16.45
4 16 17.35 0 15.45 16.35 0 15.45 16.35 0 14.45 17.35 0 14.45
4 16 17.35 0 15.45 18.35 0 15.45 18.35 0 16.45 17.35 0 16.45
4 4 18.35 0 14.45 18.35 0 15.45 17.35 0 15.45 17.35 0 14.45
3 16 20 0 20 18.35 0 16.45 18.35 0 15.45
3 16 20 0 20 18.35 0 15.45 18.35 0 14.45
4 4 16.35 0 14.45 16.35 0 13.45 17.35 0 13.45 17.35 0 14.45
4 16 17.35 0 13.45 16.35 0 13.45 16.35 0 12.45 17.35 0 12.45
4 16 17.35 0 13.45 18.35 0 13.45 18.35 0 14.45 17.35 0 14.45
4 4 18.35 0 12.45 18.35 0 13.45 17.35 0 13.45 17.35 0 12.45
3 16 20 0 20 18.35 0 14.45 18.35 0 13.45
3 16 20 0 20 18.35 0 13.45 18.35 0 12.45
4 4 16.35 0 12.45 16.35 0 11.45 17.35 0 11.45 17.35 0 12.45
4 16 17.35 0 11.45 16.35 0 11.45 16.35 0 10.45 17.35 0 10.45
4 16 17.35 0 11.45 18.35 0 11.45 18.35 0 12.45 17.35 0 12.45
4 4 18.35 0 10.45 18.35 0 11.45 17.35 0 11.45 17.35 0 10.45
3 16 20 0 20 18.35 0 12.45 18.35 0 11.45
3 16 20 0 20 18.35 0 11.45 18.35 0 10.45
4 4 16.35 0 10.45 16.35 0 9.45 17.35 0 9.45 17.35 0 10.45
4 16 17.35 0 9.45 16.35 0 9.45 16.35 0 8.45 17.35 0 8.45
4 16 17.35 0 9.45 18.35 0 9.45 18.35 0 10.45 17.35 0 10.45
4 4 18.35 0 8.45 18.35 0 9.45 17.35 0 9.45 17.35 0 8.45
3 16 20 0 20 18.35 0 10.45 18.35 0 9.45
3 16 20 0 20 18.35 0 9.45 18.35 0 8.45
4 4 16.35 0 8.45 16.35 0 7.45 17.35 0 7.45 17.35 0 8.45
4 16 17.35 0 7.45 16.35 0 7.45 16.35 0 6.45 17.35 0 6.45
4 16 17.35 0 7.45 18.35 0 7.45 18.35 0 8.45 17.35 0 8.45
4 4 18.35 0 6.45 18.35 0 7.45 17.35 0 7.45 17.35 0 6.45
3 16 20 0 20 18.35 0 8.45 18.35 0 7.45
3 16 20 0 20 18.35 0 7.45 18.35 0 6.45
4 4 16.35 0 6.45 16.35 0 5.45 17.35 0 5.45 17.35 0 6.45
4 16 17.35 0 5.45 16.35 0 5.45 16.35 0 4.45 17.35 0 4.45
4 16 17.35 0 5.45 18.35 0 5.45 18.35 0 6.45 17.35 0 6.45
4 4 18.35 0 4.45 18.35 0 5.45 17.35 0 5.45 17.35 0 4.45
3 16 20 0 20 18.35 0 6.45 18.35 0 5.45
3 16 20 0 20 18.35 0 5.45 18.35 0 4.45
4 4 16.35 0 4.45 16.35 0 3.45 17.35 0 3.45 17.35 0 4.45
4 16 17.35 0 3.45 16.35 0 3.45 16.35 0 2.45 17.35 0 2.45
4 16 17.35 0 3.45 18.35 0 3.45 18.35 0 4.45 17.35 0 4.45
4 4 18.35 0 2.45 18.35 0 3.45 17.35 0 3.45 17.35 0 2.45
3 16 20 0 20 18.35 0 4.45 18.35 0 3.45
3 16 20 0 20 18.35 0 3.45 18.35 0 2.45
4 4 16.35 0 2.45 16.35 0 1.45 17.35 0 1.45 17.35 0 2.45
4 16 17.35 0 1.45 16.35 0 1.45 16.35 0 0.45 17.35 0 0.45
4 16 17.35 0 1.45 18.35 0 1.45 18.35 0 2.45 17.35 0 2.45
4 4 18.35 0 0.45 18.35 0 1.45 17.35 0 1.45 17.35 0 0.45
3 16 20 0 20 18.35 0 2.45 18.35 0 1.45
4 16 20 0 20 18.35 0 1.45 18.35 0 0.45 20 0 -20
4 4 16.35 0 0.45 16.35 0 -0.55 17.35 0 -0.55 17.35 0 0.45
4 16 17.35 0 -0.55 16.35 0 -0.55 16.35 0 -1.55 17.35 0 -1.55
4 16 17.35 0 -0.55 18.35 0 -0.55 18.35 0 0.45 17.35 0 0.45
4 4 18.35 0 -1.55 18.35 0 -0.55 17.35 0 -0.55 17.35 0 -1.55
3 16 18.35 0 0.45 18.35 0 -0.55 20 0 -20
3 16 18.35 0 -0.55 18.35 0 -1.55 20 0 -20
4 4 16.35 0 -1.55 16.35 0 -2.55 17.35 0 -2.55 17.35 0 -1.55
4 16 17.35 0 -2.55 16.35 0 -2.55 16.35 0 -3.55 17.35 0 -3.55
4 16 17.35 0 -2.55 18.35 0 -2.55 18.35 0 -1.55 17.35 0 -1.55
4 4 18.35 0 -3.55 18.35 0 -2.55 17.35 0 -2.55 17.35 0 -3.55
3 16 18.35 0 -1.55 18.35 0 -2.55 20 0 -20
3 16 18.35 0 -2.55 18.35 0 -3.55 20 0 -20
4 4 16.35 0 -3.55 16.35 0 -4.55 17.35 0 -4.55 17.35 0 -3.55
4 16 17.35 0 -4.55 16.35 0 -4.55 16.35 0 -5.55 17.35 0 -5.55
4 16 17.35 0 -4.55 18.35 0 -4.55 18.35 0 -3.55 17.35 0 -3.55
4 4 18.35 0 -5.55 18.35 0 -4.55 17.35 0 -4.55 17.35 0 -5.55
3 16 18.35 0 -3.55 18.35 0 -4.55 20 0 -20
3 16 18.35 0 -4.55 18.35 0 -5.55 20 0 -20
4 4 16.35 0 -5.55 16.35 0 -6.55 17.35 0 -6.55 17.35 0 -5.55
4 16 17.35 0 -6.55 16.35 0 -6.55 16.35 0 -7.55 17.35 0 -7.55
4 16 17.35 0 -6.55 18.35 0 -6.55 18.35 0 -5.55 17.35 0 -5.55
4 4 18.35 0 -7.55 18.35 0 -6.55 17.35 0 -6.55 17.35 0 -7.55
3 16 18.35 0 -5.55 18.35 0 -6.55 20 0 -20
3 16 18.35 0 -6.55 18.35 0 -7.55 20 0 -20
4 4 16.35 0 -7.55 16.35 0 -8.55 17.35 0 -8.55 17.35 0 -7.55
4 16 17.35 0 -8.55 16.35 0 -8.55 16.35 0 -9.55 17.35 0 -9.55
4 16 17.35 0 -8.55 18.35 0 -8.55 18.35 0 -7.55 17.35 0 -7.55
4 4 18.35 0 -9.55 18.35 0 -8.55 17.35 0 -8.55 17.35 0 -9.55
3 16 18.35 0 -7.55 18.35 0 -8.55 20 0 -20
3 16 18.35 0 -8.55 18.35 0 -9.55 20 0 -20
4 4 16.35 0 -9.55 16.35 0 -10.55 17.35 0 -10.55 17.35 0 -9.55
4 16 17.35 0 -10.55 16.35 0 -10.55 16.35 0 -11.55 17.35 0 -11.55
4 16 17.35 0 -10.55 18.35 0 -10.55 18.35 0 -9.55 17.35 0 -9.55
4 4 18.35 0 -11.55 18.35 0 -10.55 17.35 0 -10.55 17.35 0 -11.55
3 16 18.35 0 -9.55 18.35 0 -10.55 20 0 -20
3 16 18.35 0 -10.55 18.35 0 -11.55 20 0 -20
4 4 16.35 0 -11.55 16.35 0 -12.55 17.35 0 -12.55 17.35 0 -11.55
4 16 17.35 0 -12.55 16.35 0 -12.55 16.35 0 -13.55 17.35 0 -13.55
4 16 17.35 0 -12.55 18.35 0 -12.55 18.35 0 -11.55 17.35 0 -11.55
4 4 18.35 0 -13.55 18.35 0 -12.55 17.35 0 -12.55 17.35 0 -13.55
3 16 18.35 0 -11.55 18.35 0 -12.55 20 0 -20
3 16 18.35 0 -12.55 18.35 0 -13.55 20 0 -20
4 4 16.35 0 -13.55 16.35 0 -14.55 17.35 0 -14.55 17.35 0 -13.55
4 16 17.35 0 -14.55 16.35 0 -14.55 16.35 0 -15.55 17.35 0 -15.55
4 16 17.35 0 -14.55 18.35 0 -14.55 18.35 0 -13.55 17.35 0 -13.55
4 4 18.35 0 -15.55 18.35 0 -14.55 17.35 0 -14.55 17.35 0 -15.55
3 16 18.35 0 -13.55 18.35 0 -14.55 20 0 -20
3 16 18.35 0 -14.55 18.35 0 -15.55 20 0 -20
4 4 16.35 0 -15.55 16.35 0 -16.55 17.35 0 -16.55 17.35 0 -15.55
4 16 17.35 0 -16.55 16.35 0 -16.55 16.35 0 -17.55 17.35 0 -17.55
4 16 17.35 0 -16.55 18.35 0 -16.55 18.35 0 -15.55 17.35 0 -15.55
4 4 18.35 0 -17.55 18.35 0 -16.55 17.35 0 -16.55 17.35 0 -17.55
3 16 18.35 0 -15.55 18.35 0 -16.55 20 0 -20
3 16 18.35 0 -16.55 18.35 0 -17.55 20 0 -20
4 4 16.35 0 -17.55 16.35 0 -18.55 17.35 0 -18.55 17.35 0 -17.55
4 16 17.35 0 -18.55 18.35 0 -18.55 18.35 0 -17.55 17.35 0 -17.55
3 16 18.35 0 -17.55 18.35 0 -18.55 20 0 -20
4 4 -16.65 0 -17.55 -17.65 0 -17.55 -17.65 0 -18.55 -16.65 0 -18.55
4 16 -17.65 0 -16.55 -17.65 0 -17.55 -16.65 0 -17.55 -16.65 0 -16.55
4 16 -15.65 0 -18.55 -15.65 0 -17.55 -16.65 0 -17.55 -16.65 0 -18.55
4 4 -16.65 0 -17.55 -15.65 0 -17.55 -15.65 0 -16.55 -16.65 0 -16.55
3 16 -16.65 0 -18.55 -17.65 0 -18.55 -20 0 -20
3 16 -15.65 0 -18.55 -16.65 0 -18.55 -20 0 -20
4 4 -14.65 0 -17.55 -15.65 0 -17.55 -15.65 0 -18.55 -14.65 0 -18.55
4 16 -15.65 0 -16.55 -15.65 0 -17.55 -14.65 0 -17.55 -14.65 0 -16.55
4 16 -13.65 0 -18.55 -13.65 0 -17.55 -14.65 0 -17.55 -14.65 0 -18.55
4 4 -14.65 0 -17.55 -13.65 0 -17.55 -13.65 0 -16.55 -14.65 0 -16.55
3 16 -14.65 0 -18.55 -15.65 0 -18.55 -20 0 -20
3 16 -13.65 0 -18.55 -14.65 0 -18.55 -20 0 -20
4 16 -15.65 0 -16.55 -14.65 0 -16.55 -14.9 0 -15.35 -16.65 0 -15.55
4 16 -14.9 0 -15.35 -14.65 0 -16.55 -13.65 0 -16.55 -12.95 0 -15.35
4 4 -12.65 0 -17.55 -13.65 0 -17.55 -13.65 0 -18.55 -12.65 0 -18.55
4 16 -13.65 0 -16.55 -13.65 0 -17.55 -12.65 0 -17.55 -12.65 0 -16.55
4 16 -11.65 0 -18.55 -11.65 0 -17.55 -12.65 0 -17.55 -12.65 0 -18.55
4 4 -12.65 0 -17.55 -11.65 0 -17.55 -11.65 0 -16.55 -12.65 0 -16.55
3 16 -12.65 0 -18.55 -13.65 0 -18.55 -20 0 -20
3 16 -11.65 0 -18.55 -12.65 0 -18.55 -20 0 -20
4 4 -10.65 0 -17.55 -11.65 0 -17.55 -11.65 0 -18.55 -10.65 0 -18.55
4 16 -11.65 0 -16.55 -11.65 0 -17.55 -10.65 0 -17.55 -10.65 0 -16.55
4 16 -9.65 0 -18.55 -9.65 0 -17.55 -10.65 0 -17.55 -10.65 0 -18.55
4 4 -10.65 0 -17.55 -9.65 0 -17.55 -9.65 0 -16.55 -10.65 0 -16.55
3 16 -10.65 0 -18.55 -11.65 0 -18.55 -20 0 -20
3 16 -9.65 0 -18.55 -10.65 0 -18.55 -20 0 -20
3 16 -12.95 0 -15.35 -13.65 0 -16.55 -12.65 0 -16.55
4 16 -12.95 0 -15.35 -12.65 0 -16.55 -11.65 0 -16.55 -8.4 0 -14.9
4 16 -11.65 0 -16.55 -10.65 0 -16.55 -8.05 0 -15.3 -8.4 0 -14.9
3 16 -8.05 0 -15.3 -10.65 0 -16.55 -9.65 0 -16.55
4 4 -8.65 0 -17.55 -9.65 0 -17.55 -9.65 0 -18.55 -8.65 0 -18.55
4 16 -9.65 0 -16.55 -9.65 0 -17.55 -8.65 0 -17.55 -8.65 0 -16.55
4 16 -7.65 0 -18.55 -7.65 0 -17.55 -8.65 0 -17.55 -8.65 0 -18.55
4 4 -8.65 0 -17.55 -7.65 0 -17.55 -7.65 0 -16.55 -8.65 0 -16.55
3 16 -8.65 0 -18.55 -9.65 0 -18.55 -20 0 -20
3 16 -7.65 0 -18.55 -8.65 0 -18.55 -20 0 -20
4 4 -6.65 0 -17.55 -7.65 0 -17.55 -7.65 0 -18.55 -6.65 0 -18.55
4 16 -7.65 0 -16.55 -7.65 0 -17.55 -6.65 0 -17.55 -6.65 0 -16.55
4 16 -5.65 0 -18.55 -5.65 0 -17.55 -6.65 0 -17.55 -6.65 0 -18.55
4 4 -6.65 0 -17.55 -5.65 0 -17.55 -5.65 0 -16.55 -6.65 0 -16.55
3 16 -6.65 0 -18.55 -7.65 0 -18.55 -20 0 -20
3 16 -5.65 0 -18.55 -6.65 0 -18.55 -20 0 -20
3 16 -8.05 0 -15.3 -9.65 0 -16.55 -8.65 0 -16.55
4 16 -8.05 0 -15.3 -8.65 0 -16.55 -7.65 0 -16.55 -6.6 0 -15.3
3 16 -6.6 0 -15.3 -7.65 0 -16.55 -6.65 0 -16.55
4 16 -6.6 0 -15.3 -6.65 0 -16.55 -5.65 0 -16.55 -5.3 0 -15.25
4 4 -4.65 0 -17.55 -5.65 0 -17.55 -5.65 0 -18.55 -4.65 0 -18.55
4 16 -5.65 0 -16.55 -5.65 0 -17.55 -4.65 0 -17.55 -4.65 0 -16.55
4 16 -3.65 0 -18.55 -3.65 0 -17.55 -4.65 0 -17.55 -4.65 0 -18.55
4 4 -4.65 0 -17.55 -3.65 0 -17.55 -3.65 0 -16.55 -4.65 0 -16.55
3 16 -4.65 0 -18.55 -5.65 0 -18.55 -20 0 -20
3 16 -3.65 0 -18.55 -4.65 0 -18.55 -20 0 -20
4 4 -2.65 0 -17.55 -3.65 0 -17.55 -3.65 0 -18.55 -2.65 0 -18.55
4 16 -3.65 0 -16.55 -3.65 0 -17.55 -2.65 0 -17.55 -2.65 0 -16.55
4 16 -1.65 0 -18.55 -1.65 0 -17.55 -2.65 0 -17.55 -2.65 0 -18.55
4 4 -2.65 0 -17.55 -1.65 0 -17.55 -1.65 0 -16.55 -2.65 0 -16.55
3 16 -2.65 0 -18.55 -3.65 0 -18.55 -20 0 -20
3 16 -1.65 0 -18.55 -2.65 0 -18.55 -20 0 -20
3 16 -5.3 0 -15.25 -5.65 0 -16.55 -4.65 0 -16.55
3 16 -5.3 0 -15.25 -4.65 0 -16.55 -3.65 0 -16.55
3 16 -5.3 0 -15.25 -3.65 0 -16.55 -2.65 0 -16.55
4 16 -5.3 0 -15.25 -2.65 0 -16.55 -1.65 0 -16.55 -0.6 0 -15.25
4 4 -0.65 0 -17.55 -1.65 0 -17.55 -1.65 0 -18.55 -0.65 0 -18.55
4 16 -1.65 0 -16.55 -1.65 0 -17.55 -0.65 0 -17.55 -0.65 0 -16.55
4 16 0.35 0 -18.55 0.35 0 -17.55 -0.65 0 -17.55 -0.65 0 -18.55
4 4 -0.65 0 -17.55 0.35 0 -17.55 0.35 0 -16.55 -0.65 0 -16.55
3 16 -0.65 0 -18.55 -1.65 0 -18.55 -20 0 -20
4 16 0.35 0 -18.55 -0.65 0 -18.55 -20 0 -20 20 0 -20
4 4 1.35 0 -17.55 0.35 0 -17.55 0.35 0 -18.55 1.35 0 -18.55
4 16 0.35 0 -16.55 0.35 0 -17.55 1.35 0 -17.55 1.35 0 -16.55
4 16 2.35 0 -18.55 2.35 0 -17.55 1.35 0 -17.55 1.35 0 -18.55
4 4 1.35 0 -17.55 2.35 0 -17.55 2.35 0 -16.55 1.35 0 -16.55
3 16 1.35 0 -18.55 0.35 0 -18.55 20 0 -20
3 16 2.35 0 -18.55 1.35 0 -18.55 20 0 -20
3 16 -0.6 0 -15.25 -1.65 0 -16.55 -0.65 0 -16.55
3 16 -0.6 0 -15.25 -0.65 0 -16.55 0.35 0 -16.55
3 16 -0.6 0 -15.25 0.35 0 -16.55 1.35 0 -16.55
4 16 -0.6 0 -15.25 1.35 0 -16.55 2.35 0 -16.55 0.35 0 -15.15
4 4 3.35 0 -17.55 2.35 0 -17.55 2.35 0 -18.55 3.35 0 -18.55
4 16 2.35 0 -16.55 2.35 0 -17.55 3.35 0 -17.55 3.35 0 -16.55
4 16 4.35 0 -18.55 4.35 0 -17.55 3.35 0 -17.55 3.35 0 -18.55
4 4 3.35 0 -17.55 4.35 0 -17.55 4.35 0 -16.55 3.35 0 -16.55
3 16 3.35 0 -18.55 2.35 0 -18.55 20 0 -20
3 16 4.35 0 -18.55 3.35 0 -18.55 20 0 -20
4 4 5.35 0 -17.55 4.35 0 -17.55 4.35 0 -18.55 5.35 0 -18.55
4 16 4.35 0 -16.55 4.35 0 -17.55 5.35 0 -17.55 5.35 0 -16.55
4 16 6.35 0 -18.55 6.35 0 -17.55 5.35 0 -17.55 5.35 0 -18.55
4 4 5.35 0 -17.55 6.35 0 -17.55 6.35 0 -16.55 5.35 0 -16.55
3 16 5.35 0 -18.55 4.35 0 -18.55 20 0 -20
3 16 6.35 0 -18.55 5.35 0 -18.55 20 0 -20
4 16 2.35 0 -16.55 3.35 0 -16.55 1.55 0 -15.1 0.35 0 -15.15
3 16 1.55 0 -15.1 3.35 0 -16.55 4.35 0 -16.55
3 16 1.55 0 -15.1 4.35 0 -16.55 5.35 0 -16.55
3 16 1.55 0 -15.1 5.35 0 -16.55 6.35 0 -16.55
4 4 7.35 0 -17.55 6.35 0 -17.55 6.35 0 -18.55 7.35 0 -18.55
4 16 6.35 0 -16.55 6.35 0 -17.55 7.35 0 -17.55 7.35 0 -16.55
4 16 8.35 0 -18.55 8.35 0 -17.55 7.35 0 -17.55 7.35 0 -18.55
4 4 7.35 0 -17.55 8.35 0 -17.55 8.35 0 -16.55 7.35 0 -16.55
3 16 7.35 0 -18.55 6.35 0 -18.55 20 0 -20
3 16 8.35 0 -18.55 7.35 0 -18.55 20 0 -20
4 4 9.35 0 -17.55 8.35 0 -17.55 8.35 0 -18.55 9.35 0 -18.55
4 16 8.35 0 -16.55 8.35 0 -17.55 9.35 0 -17.55 9.35 0 -16.55
4 16 10.35 0 -18.55 10.35 0 -17.55 9.35 0 -17.55 9.35 0 -18.55
4 4 9.35 0 -17.55 10.35 0 -17.55 10.35 0 -16.55 9.35 0 -16.55
3 16 9.35 0 -18.55 8.35 0 -18.55 20 0 -20
3 16 10.35 0 -18.55 9.35 0 -18.55 20 0 -20
3 16 1.55 0 -15.1 6.35 0 -16.55 7.35 0 -16.55
4 16 1.55 0 -15.1 7.35 0 -16.55 8.35 0 -16.55 7.5 0 -15.15
4 16 8.35 0 -16.55 9.35 0 -16.55 9.2 0 -15.2 7.5 0 -15.15
3 16 9.2 0 -15.2 9.35 0 -16.55 10.35 0 -16.55
4 4 11.35 0 -17.55 10.35 0 -17.55 10.35 0 -18.55 11.35 0 -18.55
4 16 10.35 0 -16.55 10.35 0 -17.55 11.35 0 -17.55 11.35 0 -16.55
4 16 12.35 0 -18.55 12.35 0 -17.55 11.35 0 -17.55 11.35 0 -18.55
4 4 11.35 0 -17.55 12.35 0 -17.55 12.35 0 -16.55 11.35 0 -16.55
3 16 11.35 0 -18.55 10.35 0 -18.55 20 0 -20
3 16 12.35 0 -18.55 11.35 0 -18.55 20 0 -20
4 4 13.35 0 -17.55 12.35 0 -17.55 12.35 0 -18.55 13.35 0 -18.55
4 16 12.35 0 -16.55 12.35 0 -17.55 13.35 0 -17.55 13.35 0 -16.55
4 16 14.35 0 -18.55 14.35 0 -17.55 13.35 0 -17.55 13.35 0 -18.55
4 4 13.35 0 -17.55 14.35 0 -17.55 14.35 0 -16.55 13.35 0 -16.55
3 16 13.35 0 -18.55 12.35 0 -18.55 20 0 -20
3 16 14.35 0 -18.55 13.35 0 -18.55 20 0 -20
3 16 9.2 0 -15.2 10.35 0 -16.55 11.35 0 -16.55
4 16 9.2 0 -15.2 11.35 0 -16.55 12.35 0 -16.55 10.75 0 -15.15
4 16 12.35 0 -16.55 13.35 0 -16.55 13.1 0 -15.2 12.8 0 -14.9
3 16 13.1 0 -15.2 13.35 0 -16.55 14.35 0 -16.55
4 16 -17.65 0 -18.55 -17.65 0 -17.55 -18.65 0 -17.55 -20 0 -20
4 4 -18.65 0 -17.55 -17.65 0 -17.55 -17.65 0 -16.55 -18.65 0 -16.55
4 4 15.35 0 -17.55 14.35 0 -17.55 14.35 0 -18.55 15.35 0 -18.55
4 16 14.35 0 -16.55 14.35 0 -17.55 15.35 0 -17.55 15.35 0 -16.55
4 16 16.35 0 -18.55 16.35 0 -17.55 15.35 0 -17.55 15.35 0 -18.55
4 4 15.35 0 -17.55 16.35 0 -17.55 16.35 0 -16.55 15.35 0 -16.55
3 16 15.35 0 -18.55 14.35 0 -18.55 20 0 -20
3 16 16.35 0 -18.55 15.35 0 -18.55 20 0 -20
3 16 13.1 0 -15.2 14.35 0 -16.55 15.35 0 -16.55
4 16 13.1 0 -15.2 15.35 0 -16.55 16.35 0 -16.55 14.65 0 -15.15
4 4 -17.65 0 15.45 -16.65 0 15.45 -16.65 0 16.45 -17.65 0 16.45
4 16 -16.65 0 14.45 -16.65 0 15.45 -17.65 0 15.45 -17.65 0 14.45
4 16 -18.65 0 16.45 -18.65 0 15.45 -17.65 0 15.45 -17.65 0 16.45
4 4 -17.65 0 15.45 -18.65 0 15.45 -18.65 0 14.45 -17.65 0 14.45
3 16 -20 0 20 -18.65 0 15.45 -18.65 0 16.45
3 16 -20 0 20 -18.65 0 14.45 -18.65 0 15.45
4 4 -17.65 0 13.45 -16.65 0 13.45 -16.65 0 14.45 -17.65 0 14.45
4 16 -16.65 0 12.45 -16.65 0 13.45 -17.65 0 13.45 -17.65 0 12.45
4 16 -18.65 0 14.45 -18.65 0 13.45 -17.65 0 13.45 -17.65 0 14.45
4 4 -17.65 0 13.45 -18.65 0 13.45 -18.65 0 12.45 -17.65 0 12.45
3 16 -20 0 20 -18.65 0 13.45 -18.65 0 14.45
3 16 -20 0 20 -18.65 0 12.45 -18.65 0 13.45
4 4 -17.65 0 11.45 -16.65 0 11.45 -16.65 0 12.45 -17.65 0 12.45
4 16 -16.65 0 10.45 -16.65 0 11.45 -17.65 0 11.45 -17.65 0 10.45
4 16 -18.65 0 12.45 -18.65 0 11.45 -17.65 0 11.45 -17.65 0 12.45
4 4 -17.65 0 11.45 -18.65 0 11.45 -18.65 0 10.45 -17.65 0 10.45
3 16 -20 0 20 -18.65 0 11.45 -18.65 0 12.45
3 16 -20 0 20 -18.65 0 10.45 -18.65 0 11.45
4 4 -17.65 0 9.45 -16.65 0 9.45 -16.65 0 10.45 -17.65 0 10.45
4 16 -16.65 0 8.45 -16.65 0 9.45 -17.65 0 9.45 -17.65 0 8.45
4 16 -18.65 0 10.45 -18.65 0 9.45 -17.65 0 9.45 -17.65 0 10.45
4 4 -17.65 0 9.45 -18.65 0 9.45 -18.65 0 8.45 -17.65 0 8.45
3 16 -20 0 20 -18.65 0 9.45 -18.65 0 10.45
3 16 -20 0 20 -18.65 0 8.45 -18.65 0 9.45
4 4 -17.65 0 7.45 -16.65 0 7.45 -16.65 0 8.45 -17.65 0 8.45
4 16 -16.65 0 6.45 -16.65 0 7.45 -17.65 0 7.45 -17.65 0 6.45
4 16 -18.65 0 8.45 -18.65 0 7.45 -17.65 0 7.45 -17.65 0 8.45
4 4 -17.65 0 7.45 -18.65 0 7.45 -18.65 0 6.45 -17.65 0 6.45
3 16 -20 0 20 -18.65 0 7.45 -18.65 0 8.45
3 16 -20 0 20 -18.65 0 6.45 -18.65 0 7.45
4 4 -17.65 0 5.45 -16.65 0 5.45 -16.65 0 6.45 -17.65 0 6.45
4 16 -16.65 0 4.45 -16.65 0 5.45 -17.65 0 5.45 -17.65 0 4.45
4 16 -18.65 0 6.45 -18.65 0 5.45 -17.65 0 5.45 -17.65 0 6.45
4 4 -17.65 0 5.45 -18.65 0 5.45 -18.65 0 4.45 -17.65 0 4.45
3 16 -20 0 20 -18.65 0 5.45 -18.65 0 6.45
3 16 -20 0 20 -18.65 0 4.45 -18.65 0 5.45
4 4 -17.65 0 3.45 -16.65 0 3.45 -16.65 0 4.45 -17.65 0 4.45
4 16 -16.65 0 2.45 -16.65 0 3.45 -17.65 0 3.45 -17.65 0 2.45
4 16 -18.65 0 4.45 -18.65 0 3.45 -17.65 0 3.45 -17.65 0 4.45
4 4 -17.65 0 3.45 -18.65 0 3.45 -18.65 0 2.45 -17.65 0 2.45
3 16 -20 0 20 -18.65 0 3.45 -18.65 0 4.45
3 16 -20 0 20 -18.65 0 2.45 -18.65 0 3.45
4 4 -17.65 0 1.45 -16.65 0 1.45 -16.65 0 2.45 -17.65 0 2.45
4 16 -16.65 0 0.45 -16.65 0 1.45 -17.65 0 1.45 -17.65 0 0.45
4 16 -18.65 0 2.45 -18.65 0 1.45 -17.65 0 1.45 -17.65 0 2.45
4 4 -17.65 0 1.45 -18.65 0 1.45 -18.65 0 0.45 -17.65 0 0.45
3 16 -20 0 20 -18.65 0 1.45 -18.65 0 2.45
4 16 -18.65 0 0.45 -18.65 0 1.45 -20 0 20 -20 0 -20
4 4 -17.65 0 -0.55 -16.65 0 -0.55 -16.65 0 0.45 -17.65 0 0.45
4 16 -16.65 0 -1.55 -16.65 0 -0.55 -17.65 0 -0.55 -17.65 0 -1.55
4 16 -18.65 0 0.45 -18.65 0 -0.55 -17.65 0 -0.55 -17.65 0 0.45
4 4 -17.65 0 -0.55 -18.65 0 -0.55 -18.65 0 -1.55 -17.65 0 -1.55
3 16 -18.65 0 0.45 -20 0 -20 -18.65 0 -0.55
3 16 -18.65 0 -0.55 -20 0 -20 -18.65 0 -1.55
4 4 -17.65 0 -2.55 -16.65 0 -2.55 -16.65 0 -1.55 -17.65 0 -1.55
4 16 -16.65 0 -3.55 -16.65 0 -2.55 -17.65 0 -2.55 -17.65 0 -3.55
4 16 -18.65 0 -1.55 -18.65 0 -2.55 -17.65 0 -2.55 -17.65 0 -1.55
4 4 -17.65 0 -2.55 -18.65 0 -2.55 -18.65 0 -3.55 -17.65 0 -3.55
3 16 -18.65 0 -1.55 -20 0 -20 -18.65 0 -2.55
3 16 -18.65 0 -2.55 -20 0 -20 -18.65 0 -3.55
4 4 -17.65 0 -4.55 -16.65 0 -4.55 -16.65 0 -3.55 -17.65 0 -3.55
4 16 -16.65 0 -5.55 -16.65 0 -4.55 -17.65 0 -4.55 -17.65 0 -5.55
4 16 -18.65 0 -3.55 -18.65 0 -4.55 -17.65 0 -4.55 -17.65 0 -3.55
4 4 -17.65 0 -4.55 -18.65 0 -4.55 -18.65 0 -5.55 -17.65 0 -5.55
3 16 -18.65 0 -3.55 -20 0 -20 -18.65 0 -4.55
3 16 -18.65 0 -4.55 -20 0 -20 -18.65 0 -5.55
4 4 -17.65 0 -6.55 -16.65 0 -6.55 -16.65 0 -5.55 -17.65 0 -5.55
4 16 -16.65 0 -7.55 -16.65 0 -6.55 -17.65 0 -6.55 -17.65 0 -7.55
4 16 -18.65 0 -5.55 -18.65 0 -6.55 -17.65 0 -6.55 -17.65 0 -5.55
4 4 -17.65 0 -6.55 -18.65 0 -6.55 -18.65 0 -7.55 -17.65 0 -7.55
3 16 -18.65 0 -5.55 -20 0 -20 -18.65 0 -6.55
3 16 -18.65 0 -6.55 -20 0 -20 -18.65 0 -7.55
4 4 -17.65 0 -8.55 -16.65 0 -8.55 -16.65 0 -7.55 -17.65 0 -7.55
4 16 -16.65 0 -9.55 -16.65 0 -8.55 -17.65 0 -8.55 -17.65 0 -9.55
4 16 -18.65 0 -7.55 -18.65 0 -8.55 -17.65 0 -8.55 -17.65 0 -7.55
4 4 -17.65 0 -8.55 -18.65 0 -8.55 -18.65 0 -9.55 -17.65 0 -9.55
3 16 -18.65 0 -7.55 -20 0 -20 -18.65 0 -8.55
3 16 -18.65 0 -8.55 -20 0 -20 -18.65 0 -9.55
4 4 -17.65 0 -10.55 -16.65 0 -10.55 -16.65 0 -9.55 -17.65 0 -9.55
4 16 -16.65 0 -11.55 -16.65 0 -10.55 -17.65 0 -10.55 -17.65 0 -11.55
4 16 -18.65 0 -9.55 -18.65 0 -10.55 -17.65 0 -10.55 -17.65 0 -9.55
4 4 -17.65 0 -10.55 -18.65 0 -10.55 -18.65 0 -11.55 -17.65 0 -11.55
3 16 -18.65 0 -9.55 -20 0 -20 -18.65 0 -10.55
3 16 -18.65 0 -10.55 -20 0 -20 -18.65 0 -11.55
4 4 -17.65 0 -12.55 -16.65 0 -12.55 -16.65 0 -11.55 -17.65 0 -11.55
4 16 -16.65 0 -13.55 -16.65 0 -12.55 -17.65 0 -12.55 -17.65 0 -13.55
4 16 -18.65 0 -11.55 -18.65 0 -12.55 -17.65 0 -12.55 -17.65 0 -11.55
4 4 -17.65 0 -12.55 -18.65 0 -12.55 -18.65 0 -13.55 -17.65 0 -13.55
3 16 -18.65 0 -11.55 -20 0 -20 -18.65 0 -12.55
3 16 -18.65 0 -12.55 -20 0 -20 -18.65 0 -13.55
4 4 -17.65 0 -14.55 -16.65 0 -14.55 -16.65 0 -13.55 -17.65 0 -13.55
4 16 -16.65 0 -15.55 -16.65 0 -14.55 -17.65 0 -14.55 -17.65 0 -15.55
4 16 -18.65 0 -13.55 -18.65 0 -14.55 -17.65 0 -14.55 -17.65 0 -13.55
4 4 -17.65 0 -14.55 -18.65 0 -14.55 -18.65 0 -15.55 -17.65 0 -15.55
3 16 -18.65 0 -13.55 -20 0 -20 -18.65 0 -14.55
3 16 -18.65 0 -14.55 -20 0 -20 -18.65 0 -15.55
4 4 -17.65 0 -16.55 -16.65 0 -16.55 -16.65 0 -15.55 -17.65 0 -15.55
4 16 -18.65 0 -15.55 -18.65 0 -16.55 -17.65 0 -16.55 -17.65 0 -15.55
3 16 -18.65 0 -15.55 -20 0 -20 -18.65 0 -16.55
4 16 -16.65 0 16.45 -16.65 0 15.45 -4.9455 0 12.7462 -15.65 0 16.45
4 16 -4.9455 0 12.7462 -16.65 0 15.45 -16.65 0 14.45 -4.8766 0 11.8406
3 16 -16.65 0 14.45 -16.65 0 13.45 -4.8766 0 11.8406
3 16 -16.65 0 13.45 -16.65 0 12.45 -4.8766 0 11.8406
3 16 -16.65 0 12.45 -16.65 0 11.45 -4.8766 0 11.8406
4 16 -4.8766 0 11.8406 -16.65 0 11.45 -16.65 0 10.45 -6.9 0 7.05
4 16 -16.65 0 10.45 -16.65 0 9.45 -9.8447 0 6.1935 -8.423 0 6.7397
3 16 -16.65 0 9.45 -16.65 0 8.45 -9.8447 0 6.1935
3 16 -16.65 0 8.45 -16.65 0 7.45 -9.8447 0 6.1935
4 16 -9.8447 0 6.1935 -16.65 0 7.45 -16.65 0 6.45 -11.1106 0 5.3264
4 16 -16.65 0 6.45 -16.65 0 5.45 -12.516 0 2.673 -12.0438 0 4.1263
3 16 -16.65 0 5.45 -16.65 0 4.45 -12.516 0 2.673
3 16 -16.65 0 4.45 -16.65 0 3.45 -12.516 0 2.673
4 16 -12.516 0 2.673 -16.65 0 3.45 -16.65 0 2.45 -12.6 0 1.9
4 16 -16.65 0 2.45 -16.65 0 1.45 -12.4 0 1.15 -12.6 0 1.9
3 16 -16.65 0 1.45 -16.65 0 0.45 -12.4 0 1.15
3 16 -12.4 0 1.15 -16.65 0 0.45 -16.65 0 -0.55
4 16 -12.4 0 1.15 -16.65 0 -0.55 -16.65 0 -1.55 -14.9277 0 -1.5644
4 16 -16.65 0 -1.55 -16.65 0 -2.55 -14.25 0 -7.75 -15.4 0 -3.4
3 16 -16.65 0 -2.55 -16.65 0 -3.55 -14.25 0 -7.75
3 16 -16.65 0 -3.55 -16.65 0 -4.55 -14.25 0 -7.75
3 16 -16.65 0 -4.55 -16.65 0 -5.55 -14.25 0 -7.75
3 16 -16.65 0 -5.55 -16.65 0 -6.55 -14.25 0 -7.75
4 16 -14.25 0 -7.75 -16.65 0 -6.55 -16.65 0 -7.55 -14.6 0 -8.7
4 16 -16.65 0 -7.55 -16.65 0 -8.55 -14.95 0 -10.6 -14.6 0 -8.7
3 16 -16.65 0 -8.55 -16.65 0 -9.55 -14.95 0 -10.6
3 16 -16.65 0 -9.55 -16.65 0 -10.55 -14.95 0 -10.6
3 16 -16.65 0 -10.55 -16.65 0 -11.55 -14.95 0 -10.6
3 16 -14.95 0 -10.6 -16.65 0 -11.55 -16.65 0 -12.55
4 16 -14.95 0 -10.6 -16.65 0 -12.55 -16.65 0 -13.55 -15.15 0 -12.85
4 16 -16.65 0 -14.55 -16.65 0 -15.55 -14.9 0 -15.35 -15.15 0 -15.05
3 16 -18.65 0 -16.55 -20 0 -20 -18.65 0 -17.55
3 16 17.35 0 -18.55 16.35 0 -18.55 20 0 -20
3 16 18.35 0 -18.55 17.35 0 -18.55 20 0 -20
3 16 -20 0 20 -18.65 0 16.45 -18.65 0 17.45
4 2 -12.6 0 1.9 -12.4 0 1.15 -12.1265 0 2.6397 -12.516 0 2.673
4 2 -12.0438 0 4.1263 -12.516 0 2.673 -12.1265 0 2.6397 -11.3317 0 4.0661
4 2 -11.1106 0 5.3264 -12.0438 0 4.1263 -11.3317 0 4.0661 -10.0857 0 5.1232
4 2 -9.8447 0 6.1935 -11.1106 0 5.3264 -10.0857 0 5.1232 -8.6234 0 5.8765
4 2 -8.423 0 6.7397 -9.8447 0 6.1935 -8.6234 0 5.8765 -7.0836 0 6.4172
4 2 -6.9 0 7.05 -8.423 0 6.7397 -7.0836 0 6.4172 -5.35 0 6.85
4 2 -5.6189 0 7.192 -6.9 0 7.05 -5.35 0 6.85 -4.1146 0 7.1225
4 2 -4.3576 0 7.4663 -5.6189 0 7.192 -4.1146 0 7.1225 -2.9244 0 7.5313
4 2 -3.1426 0 7.8694 -4.3576 0 7.4663 -2.9244 0 7.5313 -1.7795 0 8.0738
4 2 -1.9955 0 8.4462 -3.1426 0 7.8694 -1.7795 0 8.0738 -0.7457 0 8.7812
4 2 -1.0107 0 9.2703 -1.9955 0 8.4462 -0.7457 0 8.7812 0.0621 0 9.7506
4 2 -0.4 0 10.4 -1.0107 0 9.2703 0.0621 0 9.7506 0.3 0 10.6
4 2 -0.4 0 10.4 0.3 0 10.6 0.3 0 11.5 -0.5156 0 11.5042
4 2 -0.5156 0 11.5042 0.3 0 11.5 0.1 0 12.3 -0.9479 0 12.5281
4 2 -0.9479 0 12.5281 0.1 0 12.3 -0.268 0 13.0202 -0.9794 0 13.7931
4 2 -1.8381 0 13.2871 -0.9479 0 12.5281 -0.9794 0 13.7931 -1.9437 0 14.2386
4 2 -2.9 0 13.5 -1.8381 0 13.2871 -1.9437 0 14.2386 -3 0 14.4
4 2 -3.4382 0 13.386 -2.9 0 13.5 -3 0 14.4 -3.8611 0 14.1293
4 2 -3.4382 0 13.386 -3.8611 0 14.1293 -4.5673 0 13.5656 -3.8481 0 13.0212
4 2 -3.8481 0 13.0212 -4.5673 0 13.5656 -4.9455 0 12.7462 -4.0555 0 12.4072
4 2 -4.0555 0 12.4072 -4.9455 0 12.7462 -4.8766 0 11.8406 -4.1 0 11.95
4 2 -4.1 0 11.95 -4.8766 0 11.8406 -4.5 0 11 -3.7204 0 11.2399
4 2 -3.7204 0 11.2399 -4.5 0 11 -4.0501 0 10.5802 -3.4081 0 10.9731
4 2 -2.95 0 10.9 -4.0501 0 10.5802 -3.4926 0 10.3213 -2.8776 0 10.3063
4 2 -2.5467 0 11.0382 -2.95 0 10.9 -2.8776 0 10.3063 -2.3247 0 10.5816
4 2 -2.5467 0 11.0382 -2.3247 0 10.5816 -1.9 0 11.05 -2.2543 0 11.429
4 2 -2.2543 0 11.429 -1.9 0 11.05 -1.8315 0 11.5723 -2.073 0 12.0393
4 2 -2.4625 0 11.8731 -2.2543 0 11.429 -2.073 0 12.0393 -2.6087 0 12.2555
3 2 -2.6087 0 12.2555 -2.95 0 12.2 -2.4625 0 11.8731
3 2 -3.4081 0 10.9731 -4.0501 0 10.5802 -2.95 0 10.9
4 16 -2.95 0 12.2 -3.4081 0 10.9731 -2.95 0 10.9 -2.4625 0 11.8731
4 16 -2.2543 0 11.429 -2.4625 0 11.8731 -2.95 0 10.9 -2.5467 0 11.0382
4 16 -3.7204 0 11.2399 -3.4081 0 10.9731 -2.95 0 12.2 -4.1 0 11.95
4 16 -4.0555 0 12.4072 -4.1 0 11.95 -2.95 0 12.2 -3.8481 0 13.0212
4 16 -3.8481 0 13.0212 -2.95 0 12.2 -2.6087 0 12.2555 -3.4382 0 13.386
4 16 -2.9 0 13.5 -3.4382 0 13.386 -2.6087 0 12.2555 -1.8381 0 13.2871
4 16 -1.8381 0 13.2871 -2.6087 0 12.2555 -2.073 0 12.0393 -0.9479 0 12.5281
4 16 -0.9479 0 12.5281 -2.073 0 12.0393 -1.8315 0 11.5723 -0.5156 0 11.5042
4 16 -0.5156 0 11.5042 -1.8315 0 11.5723 -1.9 0 11.05 -0.4 0 10.4
4 16 -0.4 0 10.4 -1.9 0 11.05 -2.3247 0 10.5816 -1.0107 0 9.2703
4 16 -1.9955 0 8.4462 -1.0107 0 9.2703 -2.3247 0 10.5816 -2.8776 0 10.3063
4 16 -3.1426 0 7.8694 -1.9955 0 8.4462 -2.8776 0 10.3063 -3.4926 0 10.3213
4 16 -4.3576 0 7.4663 -3.1426 0 7.8694 -3.4926 0 10.3213 -4.0501 0 10.5802
3 16 -16.65 0 10.45 -8.423 0 6.7397 -6.9 0 7.05
4 16 -4.5 0 11 -4.8766 0 11.8406 -6.9 0 7.05 -5.6189 0 7.192
4 16 -4.0501 0 10.5802 -4.5 0 11 -5.6189 0 7.192 -4.3576 0 7.4663
3 16 -16.65 0 6.45 -12.0438 0 4.1263 -11.1106 0 5.3264
4 2 -3.1435 0 4.1185 -3.75 0 2.9 -2.9 0 3.8 -2.141 0 5.038
4 2 -2.141 0 5.038 -2.9 0 3.8 -1.8818 0 4.5631 -0.8936 0 5.5922
4 2 -0.8936 0 5.5922 -1.8818 0 4.5631 -0.6672 0 4.9244 0.527 0 5.8935
4 2 0.527 0 5.8935 -0.6672 0 4.9244 0.5872 0 5.1328 1.8 0 6
4 2 1.8 0 6 0.5872 0 5.1328 1.85 0 5.3 3.1271 0 6.2623
4 2 3.1271 0 6.2623 1.85 0 5.3 3.1699 0 5.6465 4.3083 0 6.9232
4 2 4.3083 0 6.9232 3.1699 0 5.6465 4.4191 0 6.3933 5.2426 0 7.89
3 2 5.2426 0 7.89 4.4191 0 6.3933 5.4162 0 7.4504
4 2 5.8454 0 9.097 5.2426 0 7.89 5.4162 0 7.4504 6.099 0 8.7314
4 2 5.8454 0 9.097 6.099 0 8.7314 6.4771 0 10.1422 6.1 0 10.45
4 2 6.1 0 10.45 6.4771 0 10.1422 6.6 0 11.7 5.9549 0 11.7157
4 2 5.9549 0 11.7157 6.6 0 11.7 6.4288 0 12.9621 5.6514 0 12.9423
4 2 5.6514 0 12.9423 6.4288 0 12.9621 6.026 0 14.1724 5.1241 0 14.0883
4 2 5.1241 0 14.0883 6.026 0 14.1724 5.3119 0 15.2316 4.2279 0 14.9887
4 2 4.2279 0 14.9887 5.3119 0 15.2316 4.2637 0 15.9583 2.95 0 15.25
4 2 2.95 0 15.25 4.2637 0 15.9583 3 0 16.25 2.1639 0 16.1089
4 2 2.1342 0 14.9986 2.95 0 15.25 2.1639 0 16.1089 1.3873 0 15.7524
4 2 2.1342 0 14.9986 1.3873 0 15.7524 0.8401 0 15.0961 1.4636 0 14.4728
4 2 1.4636 0 14.4728 0.8401 0 15.0961 0.6597 0 14.2597 1.3668 0 13.627
4 2 1.3668 0 13.627 0.6597 0 14.2597 0.75 0 13.4 1.1299 0 12.7092
4 2 1.7515 0 12.8628 1.3668 0 13.627 1.1299 0 12.7092 1.6389 0 12.1102
4 2 2.3 0 12.2 1.7515 0 12.8628 1.6389 0 12.1102 2.2994 0 11.6857
4 2 2.8241 0 12.0146 2.3 0 12.2 2.2994 0 11.6857 3.0845 0 11.7194
4 2 3.3342 0 12.2325 2.8241 0 12.0146 3.0845 0 11.7194 3.7 0 12.15
3 2 3.7999 0 12.6291 3.3342 0 12.2325 3.7 0 12.15
4 16 0.8401 0 15.0961 -1.65 0 16.45 -1.9437 0 14.2386 -0.9794 0 13.7931
4 16 0.6597 0 14.2597 0.8401 0 15.0961 -0.9794 0 13.7931 -0.268 0 13.0202
4 16 0.75 0 13.4 0.6597 0 14.2597 -0.268 0 13.0202 0.1 0 12.3
3 16 0.75 0 13.4 0.1 0 12.3 1.1299 0 12.7092
4 16 1.6389 0 12.1102 1.1299 0 12.7092 0.1 0 12.3 0.3 0 11.5
4 16 2.2994 0 11.6857 1.6389 0 12.1102 0.3 0 11.5 0.3 0 10.6
4 16 3.0845 0 11.7194 2.2994 0 11.6857 0.3 0 10.6 0.0621 0 9.7506
4 16 3.0845 0 11.7194 0.0621 0 9.7506 3.1271 0 6.2623 4.3083 0 6.9232
4 16 3.0845 0 11.7194 4.3083 0 6.9232 5.2426 0 7.89 3.7 0 12.15
4 16 3.7 0 12.15 5.2426 0 7.89 5.8454 0 9.097 6.1 0 10.45
4 16 3.7999 0 12.6291 3.7 0 12.15 6.1 0 10.45 5.9549 0 11.7157
4 16 3.7999 0 12.6291 5.9549 0 11.7157 5.6514 0 12.9423 5.1241 0 14.0883
4 16 3.7999 0 12.6291 5.1241 0 14.0883 4.2279 0 14.9887 2.95 0 15.25
4 16 3.7999 0 12.6291 2.95 0 15.25 2.1342 0 14.9986 1.4636 0 14.4728
4 16 3.7999 0 12.6291 1.4636 0 14.4728 1.3668 0 13.627 3.3342 0 12.2325
4 16 2.8241 0 12.0146 3.3342 0 12.2325 1.3668 0 13.627 1.7515 0 12.8628
3 16 1.7515 0 12.8628 2.3 0 12.2 2.8241 0 12.0146
4 16 1.8 0 6 3.1271 0 6.2623 0.0621 0 9.7506 -0.7457 0 8.7812
4 16 0.527 0 5.8935 1.8 0 6 -0.7457 0 8.7812 -1.7795 0 8.0738
4 16 -0.8936 0 5.5922 0.527 0 5.8935 -1.7795 0 8.0738 -2.9244 0 7.5313
4 16 -2.141 0 5.038 -0.8936 0 5.5922 -2.9244 0 7.5313 -4.1146 0 7.1225
4 16 -3.1435 0 4.1185 -2.141 0 5.038 -4.1146 0 7.1225 -5.35 0 6.85
4 16 -3.75 0 2.9 -3.1435 0 4.1185 -5.35 0 6.85 -7.0836 0 6.4172
4 16 -3.75 0 2.9 -7.0836 0 6.4172 -8.6234 0 5.8765 -10.0857 0 5.1232
4 16 -3.75 0 2.9 -10.0857 0 5.1232 -11.3317 0 4.0661 -12.1265 0 2.6397
4 16 -3.75 0 2.9 -12.1265 0 2.6397 -12.4 0 1.15 -7.851 0 1.1312
4 2 6.9458 0 15.2011 6.45 0 15.2 7.9084 0 14.5261 7.8904 0 14.9436
4 2 8.8497 0 14.5566 7.8904 0 14.9436 7.9084 0 14.5261 9.0125 0 13.7492
4 2 9.7949 0 13.9994 8.8497 0 14.5566 9.0125 0 13.7492 9.9617 0 12.8174
4 2 10.7 0 13.1 9.7949 0 13.9994 9.9617 0 12.8174 11.3636 0 12.22
4 2 11.3636 0 12.22 9.9617 0 12.8174 10.7619 0 11.7414 11.8584 0 11.2397
4 2 11.8584 0 11.2397 10.7619 0 11.7414 11.3954 0 10.554 12.1235 0 10.0252
4 2 12.1235 0 10.0252 11.3954 0 10.554 11.75 0 9.55 12.05 0 9.05
4 2 12.05 0 9.05 11.75 0 9.55 11.6031 0 8.9793 11.5999 0 8.2365
3 2 11.6031 0 8.9793 11.326 0 8.4188 11.5999 0 8.2365
4 2 11.5999 0 8.2365 11.326 0 8.4188 10.9616 0 7.9389 10.9938 0 7.4595
4 2 10.9938 0 7.4595 10.9616 0 7.9389 10.5 0 7.55 10.3356 0 6.7347
4 2 10.3356 0 6.7347 10.5 0 7.55 9.6171 0 6.8922 9.6 0 6
4 2 9.6 0 6 9.6171 0 6.8922 8.9069 0 6.2104 9.1319 0 5.1275
4 2 9.1319 0 5.1275 8.9069 0 6.2104 8.3689 0 5.3965 8.2 0 4.55
4 2 9.1608 0 4.0224 9.1319 0 5.1275 8.2 0 4.55 8.3892 0 3.5893
4 2 9.1608 0 4.0224 8.3892 0 3.5893 8.8601 0 2.7308 9.6599 0 3.0413
4 2 9.6599 0 3.0413 8.8601 0 2.7308 9.4945 0 1.9877 10.4083 0 2.2408
4 2 10.4083 0 2.2408 9.4945 0 1.9877 10.2328 0 1.3408 11.4 0 1.5
4 2 11.4 0 1.5 10.2328 0 1.3408 11.05 0 0.8 11.8245 0 0.7556
3 2 11.4 0 1.5 11.8245 0 0.7556 12.0021 0 1.2706
4 2 12.6447 0 1.2395 12.0021 0 1.2706 11.8245 0 0.7556 12.6086 0 0.7844
4 2 12.6447 0 1.2395 12.6086 0 0.7844 13.3107 0 1.1263 13.2669 0 1.4187
3 2 13.7 0 1.8 13.2669 0 1.4187 13.3107 0 1.1263
4 16 13.7 0 1.8 13.3107 0 1.1263 16.35 0 1.45 16.35 0 2.45
3 16 16.35 0 3.45 13.7 0 1.8 16.35 0 2.45
4 16 13.7 0 1.8 16.35 0 3.45 16.35 0 4.45 10.3356 0 6.7347
4 16 13.7 0 1.8 10.3356 0 6.7347 9.6 0 6 9.1319 0 5.1275
4 16 13.7 0 1.8 9.1319 0 5.1275 9.1608 0 4.0224 9.6599 0 3.0413
4 16 13.2669 0 1.4187 13.7 0 1.8 9.6599 0 3.0413 12.6447 0 1.2395
4 16 12.0021 0 1.2706 12.6447 0 1.2395 9.6599 0 3.0413 10.4083 0 2.2408
3 16 10.4083 0 2.2408 11.4 0 1.5 12.0021 0 1.2706
4 16 10.9938 0 7.4595 10.3356 0 6.7347 16.35 0 4.45 16.35 0 5.45
3 16 10.9938 0 7.4595 16.35 0 5.45 16.35 0 6.45
3 16 10.9938 0 7.4595 16.35 0 6.45 16.35 0 7.45
4 16 10.9938 0 7.4595 16.35 0 7.45 16.35 0 8.45 11.5999 0 8.2365
4 16 12.05 0 9.05 11.5999 0 8.2365 16.35 0 8.45 16.35 0 9.45
4 16 12.05 0 9.05 16.35 0 9.45 16.35 0 10.45 12.1235 0 10.0252
3 16 16.35 0 11.45 12.1235 0 10.0252 16.35 0 10.45
4 16 12.1235 0 10.0252 16.35 0 11.45 16.35 0 12.45 11.8584 0 11.2397
4 16 11.3636 0 12.22 11.8584 0 11.2397 16.35 0 12.45 16.35 0 13.45
3 16 16.35 0 14.45 11.3636 0 12.22 16.35 0 13.45
4 16 11.3636 0 12.22 16.35 0 14.45 16.35 0 15.45 10.7 0 13.1
4 16 6.45 0 15.2 6.35 0 16.45 5.3119 0 15.2316 6.026 0 14.1724
3 16 8.35 0 16.45 7.8904 0 14.9436 8.8497 0 14.5566
4 16 6.4288 0 12.9621 9.9617 0 12.8174 9.0125 0 13.7492 7.9084 0 14.5261
4 16 6.026 0 14.1724 6.4288 0 12.9621 7.9084 0 14.5261 6.45 0 15.2
4 16 9.9617 0 12.8174 6.4288 0 12.9621 6.6 0 11.7 10.7619 0 11.7414
4 16 11.3954 0 10.554 10.7619 0 11.7414 6.6 0 11.7 6.4771 0 10.1422
4 16 11.75 0 9.55 11.3954 0 10.554 6.4771 0 10.1422 11.6031 0 8.9793
4 16 11.326 0 8.4188 11.6031 0 8.9793 6.4771 0 10.1422 10.9616 0 7.9389
4 16 10.5 0 7.55 10.9616 0 7.9389 6.4771 0 10.1422 9.6171 0 6.8922
4 16 9.6171 0 6.8922 6.4771 0 10.1422 6.099 0 8.7314 8.9069 0 6.2104
4 16 8.9069 0 6.2104 6.099 0 8.7314 5.4162 0 7.4504 8.3689 0 5.3965
4 16 8.2 0 4.55 8.3689 0 5.3965 5.4162 0 7.4504 4.4191 0 6.3933
4 16 8.3892 0 3.5893 8.2 0 4.55 4.4191 0 6.3933 3.1699 0 5.6465
4 16 8.8601 0 2.7308 8.3892 0 3.5893 3.1699 0 5.6465 1.85 0 5.3
4 16 8.8601 0 2.7308 1.85 0 5.3 0.5872 0 5.1328 -0.6672 0 4.9244
4 16 8.8601 0 2.7308 -0.6672 0 4.9244 -1.8818 0 4.5631 -2.9 0 3.8
4 16 8.8601 0 2.7308 -2.9 0 3.8 -3.75 0 2.9 0.315 0 0.8198
4 2 -14.9 0 -15.35 -12.95 0 -15.35 -13.2 0 -14 -15.15 0 -15.05
4 2 -15.15 0 -15.05 -13.2 0 -14 -13.25 0 -13.05 -15.15 0 -12.85
4 2 -13.2 0 -11.2 -15.15 0 -12.85 -13.25 0 -13.05 -13.05 0 -12.5
4 2 -12.75 0 -11.25 -13.2 0 -11.2 -13.05 0 -12.5 -11.45 0 -11.8
4 2 -10.85 0 -10.2 -12.75 0 -11.25 -11.45 0 -11.8 -9.75 0 -10.9
4 2 -10.85 0 -10.2 -9.75 0 -10.9 -9 0 -10 -10.6 0 -9.65
4 2 -10.6 0 -9.65 -9 0 -10 -8.95 0 -9.2 -9.45 0 -8.4
4 2 -10.85 0 -9.15 -10.6 0 -9.65 -9.45 0 -8.4 -10.55 0 -8
4 2 -11.65 0 -8.85 -10.85 0 -9.15 -10.55 0 -8 -11.8 0 -7.8
4 2 -12.45 0 -8.95 -11.65 0 -8.85 -11.8 0 -7.8 -13.85 0 -7.65
4 2 -12.85 0 -9.25 -12.45 0 -8.95 -13.85 0 -7.65 -14.25 0 -7.75
4 2 -12.85 0 -9.25 -14.25 0 -7.75 -14.6 0 -8.7 -13.25 0 -10.25
4 2 -13.25 0 -10.25 -14.6 0 -8.7 -14.95 0 -10.6 -13.35 0 -10.95
4 2 -13.35 0 -10.95 -14.95 0 -10.6 -15.15 0 -12.85 -13.2 0 -11.2
4 2 -6 0 -8.35 -7.6 0 -8.2 -8.05 0 -9 -6.4 0 -9.55
4 2 -6.4 0 -9.55 -8.05 0 -9 -8.4 0 -11 -6.7 0 -11.2
4 2 -6.7 0 -11.2 -8.4 0 -11 -8.45 0 -13.65 -6.7 0 -13.7
4 2 -6.7 0 -13.7 -8.45 0 -13.65 -8.4 0 -14.9 -8.05 0 -15.3
4 2 -6.4 0 -15.15 -6.7 0 -13.7 -8.05 0 -15.3 -6.6 0 -15.3
4 2 -4.45 0 -9.6 -4.15 0 -9.85 -3.65 0 -9.5 -4.75 0 -9.05
4 2 -4.85 0 -8.45 -4.75 0 -9.05 -3.65 0 -9.5 -2.4 0 -9.5
3 2 -4.85 0 -8.45 -2.4 0 -9.5 0.35 0 -8.55
4 2 0.35 0 -8.55 -2.4 0 -9.5 -2.15 0 -9.7 0.55 0 -8.7
4 2 0.55 0 -8.95 0.55 0 -8.7 -2.15 0 -9.7 -0.35 0 -10.15
4 2 -0.35 0 -10.15 -2.15 0 -9.7 -2.15 0 -10.05 -1.9 0 -11.85
4 2 -1.9 0 -11.85 -2.15 0 -10.05 -3.65 0 -11.5 -3.15 0 -13.5
4 2 -3.15 0 -13.5 -3.65 0 -11.5 -5 0 -13.2 -3.15 0 -13.8
4 2 -3.15 0 -13.8 -5 0 -13.2 -5.55 0 -14.4 -5.65 0 -14.9
4 2 -3.15 0 -13.8 -5.65 0 -14.9 -5.3 0 -15.25 -2.65 0 -14.15
4 2 -2.65 0 -14.15 -5.3 0 -15.25 -0.6 0 -15.25 0.35 0 -15.15
4 2 -1.7 0 -14.2 -2.65 0 -14.15 0.35 0 -15.15 0.2 0 -14.45
4 2 -0.95 0 -13.9 -1.7 0 -14.2 0.2 0 -14.45 -0.2 0 -13.85
3 2 -0.55 0 -13.55 -0.95 0 -13.9 -0.2 0 -13.85
4 2 1.7 0 -8.6 2.1 0 -9.55 2.5 0 -9.8 3.1 0 -9.5
4 2 2.25 0 -8.5 1.7 0 -8.6 3.1 0 -9.5 4.1 0 -9.25
3 2 6.4 0 -8.2 2.25 0 -8.5 4.1 0 -9.25
4 2 6.4 0 -8.2 4.1 0 -9.25 4.55 0 -9.45 7.1 0 -8.1
4 2 7.3 0 -8.2 7.1 0 -8.1 4.55 0 -9.45 7.35 0 -8.5
4 2 7 0 -9.225 7.35 0 -8.5 4.55 0 -9.45 6 0 -10.4
3 2 4.55 0 -9.45 4.65 0 -9.8 6 0 -10.4
4 2 4.55 0 -12.15 6 0 -10.4 4.65 0 -9.8 2.85 0 -11.75
4 2 4.55 0 -12.15 2.85 0 -11.75 1.65 0 -13.6 3.75 0 -13.3
4 2 3.75 0 -13.3 1.65 0 -13.6 1.35 0 -14.35 3.85 0 -13.95
4 2 3.85 0 -13.95 1.35 0 -14.35 1.3 0 -14.9 1.55 0 -15.1
4 2 4.75 0 -14.15 3.85 0 -13.95 1.55 0 -15.1 7.5 0 -15.15
4 2 5.7 0 -14.05 4.75 0 -14.15 7.5 0 -15.15 7.6 0 -14.95
4 2 5.7 0 -14.05 7.6 0 -14.95 7.2 0 -14.1 6.5 0 -13.4
4 2 8.65 0 -14.85 9.2 0 -15.2 10.75 0 -15.15 10.85 0 -15
4 2 8.65 0 -14.85 10.85 0 -15 10.25 0 -13.8 8.35 0 -13.3
4 2 8.35 0 -13.3 10.25 0 -13.8 10.05 0 -13.2 8.3 0 -11.95
4 2 8.3 0 -11.95 10.05 0 -13.2 10.25 0 -12.75 10.2 0 -11.35
4 2 10.2 0 -11.35 10.25 0 -12.75 10.95 0 -12.3 11.95 0 -11
4 2 11.95 0 -11 10.95 0 -12.3 12.85 0 -12.05 13 0 -10.85
4 2 13 0 -10.85 12.85 0 -12.05 13.5 0 -12.3 14.75 0 -11.15
4 2 15.1 0 -12.7 14.75 0 -11.15 13.5 0 -12.3 13.5 0 -13
4 2 15.15 0 -14.05 15.1 0 -12.7 13.5 0 -13 13.1 0 -14.2
4 2 15 0 -14.85 15.15 0 -14.05 13.1 0 -14.2 14.65 0 -15.15
4 2 13.1 0 -15.2 14.65 0 -15.15 13.1 0 -14.2 12.8 0 -14.9
4 2 13.15 0 -10.5 13 0 -10.85 14.75 0 -11.15 14.25 0 -9.85
4 2 12.45 0 -9.55 13.15 0 -10.5 14.25 0 -9.85 13.25 0 -8.65
4 2 12 0 -9.15 12.45 0 -9.55 13.25 0 -8.65 12.2 0 -7.8
4 2 11.55 0 -9.05 12 0 -9.15 12.2 0 -7.8 11.55 0 -7.55
4 2 11.55 0 -9.05 11.55 0 -7.55 11.25 0 -7.6 10.2 0 -8.25
4 2 10.75 0 -9.65 11.55 0 -9.05 10.2 0 -8.25 9.05 0 -9.9
4 2 10.2 0 -10.5 10.75 0 -9.65 9.05 0 -9.9 8.55 0 -10.95
4 2 10.2 0 -11.35 10.2 0 -10.5 8.55 0 -10.95 8.3 0 -11.95
4 16 13 0 -10.85 13.15 0 -10.5 12.45 0 -9.55 11.95 0 -11
4 16 11.95 0 -11 12.45 0 -9.55 12 0 -9.15 11.55 0 -9.05
4 16 11.95 0 -11 11.55 0 -9.05 10.75 0 -9.65 10.2 0 -10.5
3 16 10.2 0 -10.5 10.2 0 -11.35 11.95 0 -11
4 16 12.85 0 -12.05 10.95 0 -12.3 13.5 0 -13 13.5 0 -12.3
4 16 13.1 0 -14.2 13.5 0 -13 10.95 0 -12.3 10.25 0 -12.75
4 16 13.1 0 -14.2 10.25 0 -12.75 10.05 0 -13.2 10.25 0 -13.8
4 16 13.1 0 -14.2 10.25 0 -13.8 10.85 0 -15 12.8 0 -14.9
4 16 7.6 0 -14.95 8.65 0 -14.85 8.35 0 -13.3 7.2 0 -14.1
4 16 6.5 0 -13.4 7.2 0 -14.1 8.35 0 -13.3 8.3 0 -11.95
4 16 6.5 0 -13.4 8.3 0 -11.95 6 0 -10.4 4.55 0 -12.15
4 16 5.7 0 -14.05 6.5 0 -13.4 4.55 0 -12.15 4.75 0 -14.15
4 16 4.75 0 -14.15 4.55 0 -12.15 3.75 0 -13.3 3.85 0 -13.95
4 16 6 0 -10.4 8.3 0 -11.95 8.55 0 -10.95 7 0 -9.225
4 16 7 0 -9.225 8.55 0 -10.95 9.05 0 -9.9 7.35 0 -8.5
4 16 7.35 0 -8.5 9.05 0 -9.9 10.2 0 -8.25 7.3 0 -8.2
4 16 7.3 0 -8.2 10.2 0 -8.25 11.25 0 -7.6 8.8769 0 -6.2545
4 16 2.85 0 -11.75 4.65 0 -9.8 4.55 0 -9.45 4.1 0 -9.25
4 16 2.85 0 -11.75 4.1 0 -9.25 3.1 0 -9.5 2.5 0 -9.8
4 16 2.85 0 -11.75 2.5 0 -9.8 2.1 0 -9.55 -0.35 0 -10.15
4 16 2.85 0 -11.75 -0.35 0 -10.15 -0.55 0 -13.55 -0.2 0 -13.85
4 16 1.65 0 -13.6 2.85 0 -11.75 -0.2 0 -13.85 0.2 0 -14.45
4 16 1.35 0 -14.35 1.65 0 -13.6 0.2 0 -14.45 0.35 0 -15.15
3 16 1.35 0 -14.35 0.35 0 -15.15 1.3 0 -14.9
3 16 1.3 0 -14.9 0.35 0 -15.15 1.55 0 -15.1
4 16 -0.55 0 -13.55 -0.35 0 -10.15 -1.9 0 -11.85 -0.95 0 -13.9
4 16 -1.7 0 -14.2 -0.95 0 -13.9 -1.9 0 -11.85 -2.65 0 -14.15
4 16 -3.15 0 -13.8 -2.65 0 -14.15 -1.9 0 -11.85 -3.15 0 -13.5
4 16 0.55 0 -8.95 -0.35 0 -10.15 2.1 0 -9.55 1.7 0 -8.6
4 16 0.55 0 -8.7 0.55 0 -8.95 1.7 0 -8.6 2.6217 0 -7.1812
4 16 -2.15 0 -10.05 -2.15 0 -9.7 -2.4 0 -9.5 -3.65 0 -9.5
4 16 -2.15 0 -10.05 -3.65 0 -9.5 -4.15 0 -9.85 -3.65 0 -11.5
4 16 -5 0 -13.2 -3.65 0 -11.5 -4.15 0 -9.85 -6.7 0 -11.2
4 16 -6.7 0 -11.2 -4.15 0 -9.85 -4.45 0 -9.6 -6.4 0 -9.55
4 16 -6 0 -8.35 -6.4 0 -9.55 -4.45 0 -9.6 -4.75 0 -9.05
4 16 -6 0 -8.35 -4.75 0 -9.05 -4.85 0 -8.45 -6.8492 0 -7.0033
4 16 -5 0 -13.2 -6.7 0 -11.2 -6.7 0 -13.7 -5.55 0 -14.4
4 16 -5.55 0 -14.4 -6.7 0 -13.7 -6.4 0 -15.15 -5.65 0 -14.9
4 16 -5.3 0 -15.25 -5.65 0 -14.9 -6.4 0 -15.15 -6.6 0 -15.3
4 16 -12.95 0 -15.35 -8.4 0 -14.9 -8.45 0 -13.65 -13.2 0 -14
4 16 -13.25 0 -13.05 -13.2 0 -14 -8.45 0 -13.65 -13.05 0 -12.5
3 16 -11.45 0 -11.8 -13.05 0 -12.5 -8.45 0 -13.65
4 16 -9.75 0 -10.9 -11.45 0 -11.8 -8.45 0 -13.65 -8.4 0 -11
4 16 -9 0 -10 -9.75 0 -10.9 -8.4 0 -11 -8.05 0 -9
4 16 -8.95 0 -9.2 -9 0 -10 -8.05 0 -9 -7.6 0 -8.2
4 16 -9.45 0 -8.4 -8.95 0 -9.2 -7.6 0 -8.2 -9.55 0 -6.55
4 16 -10.85 0 -10.2 -10.6 0 -9.65 -10.85 0 -9.15 -11.65 0 -8.85
4 16 -10.85 0 -10.2 -11.65 0 -8.85 -12.45 0 -8.95 -12.85 0 -9.25
4 16 -10.85 0 -10.2 -12.85 0 -9.25 -13.25 0 -10.25 -12.75 0 -11.25
4 16 -13.2 0 -11.2 -12.75 0 -11.25 -13.25 0 -10.25 -13.35 0 -10.95
4 16 -15.15 0 -12.85 -16.65 0 -13.55 -16.65 0 -14.55 -15.15 0 -15.05
3 16 -16.65 0 -15.55 -16.65 0 -16.55 -15.65 0 -16.55
4 16 7.6 0 -14.95 7.5 0 -15.15 9.2 0 -15.2 8.65 0 -14.85
4 16 10.85 0 -15 10.75 0 -15.15 12.35 0 -16.55 12.8 0 -14.9
4 16 14.65 0 -15.15 16.35 0 -16.55 16.35 0 -15.55 15 0 -14.85
4 16 15 0 -14.85 16.35 0 -15.55 16.35 0 -14.55 15.15 0 -14.05
4 16 15.15 0 -14.05 16.35 0 -14.55 16.35 0 -13.55 15.1 0 -12.7
4 16 15.1 0 -12.7 16.35 0 -13.55 16.35 0 -12.55 14.75 0 -11.15
3 16 14.75 0 -11.15 16.35 0 -12.55 16.35 0 -11.55
3 16 16.35 0 -10.55 14.75 0 -11.15 16.35 0 -11.55
4 16 14.75 0 -11.15 16.35 0 -10.55 16.35 0 -9.55 14.25 0 -9.85
4 16 14.25 0 -9.85 16.35 0 -9.55 16.35 0 -8.55 13.25 0 -8.65
4 16 13.25 0 -8.65 16.35 0 -8.55 16.35 0 -7.55 12.2 0 -7.8
4 16 12.2 0 -7.8 16.35 0 -7.55 16.35 0 -6.55 11.55 0 -7.55
4 16 11.55 0 -7.55 16.35 0 -6.55 16.35 0 -5.55 12.35 0 -5.35
4 4 -4.6528 0 1.0316 -3.05 0 1.05 -3.15 0 1.4 -4.7119 0 1.3781
4 4 -6.2544 0 0.9111 -4.6528 0 1.0316 -4.7119 0 1.3781 -6.2833 0 1.2926
3 4 -3.15 0 1.4 -3.05 0 1.05 -2.9 0 1.25
4 4 -7.8355 0 0.6993 -6.2544 0 0.9111 -6.2833 0 1.2926 -7.851 0 1.1312
4 4 -9.4021 0 0.3823 -7.8355 0 0.6993 -7.851 0 1.1312 -9.3968 0 0.882
4 4 -9.4021 0 0.3823 -9.3968 0 0.882 -10.9108 0 0.5264 -10.9394 0 -0.0648
4 4 -10.9394 0 -0.0648 -10.9108 0 0.5264 -12.4018 0 0.0266 -12.4174 0 -0.6806
4 4 -12.4174 0 -0.6806 -12.4018 0 0.0266 -13.9 0 -0.75 -13.75 0 -1.5
4 4 -13.75 0 -1.5 -13.9 0 -0.75 -14.9277 0 -1.5644 -14.4659 0 -2.1507
4 4 -14.4659 0 -2.1507 -14.9277 0 -1.5644 -15.5 0 -2.35 -14.7 0 -2.8
4 4 -14.7 0 -2.8 -15.5 0 -2.35 -15.4 0 -3.4 -14.35 0 -3.65
4 4 -14.35 0 -3.65 -15.4 0 -3.4 -14.7 0 -4.35 -13.7142 0 -4.1081
4 4 -13.7142 0 -4.1081 -14.7 0 -4.35 -13.9455 0 -4.8864 -12.5869 0 -4.6765
4 4 -12.5869 0 -4.6765 -13.9455 0 -4.8864 -12.704 0 -5.5021 -11.3812 0 -5.1309
4 4 -11.3812 0 -5.1309 -12.704 0 -5.5021 -11.4312 0 -5.9851 -10.1567 0 -5.5118
4 4 -10.1567 0 -5.5118 -11.4312 0 -5.9851 -9.55 0 -6.55 -8.5 0 -5.95
4 4 -8.5 0 -5.95 -9.55 0 -6.55 -6.8492 0 -7.0033 -5.4775 0 -6.2808
4 4 -5.4775 0 -6.2808 -6.8492 0 -7.0033 -3.6895 0 -7.2763 -2.4611 0 -6.3936
4 4 -2.4611 0 -6.3936 -3.6895 0 -7.2763 -0.5149 0 -7.3317 0.5773 0 -6.3554
4 4 0.5773 0 -6.3554 -0.5149 0 -7.3317 2.6217 0 -7.1812 3.5977 0 -6.1653
4 4 3.5977 0 -6.1653 2.6217 0 -7.1812 5.7468 0 -6.8257 6.5945 0 -5.8086
4 4 6.5945 0 -5.8086 5.7468 0 -6.8257 8.8769 0 -6.2545 9.57 0 -5.2561
4 4 9.57 0 -5.2561 8.8769 0 -6.2545 12.35 0 -5.35 12.55 0 -4.45
4 4 12.55 0 -4.45 12.35 0 -5.35 13.5192 0 -4.8326 13.3329 0 -4.1312
4 4 13.3329 0 -4.1312 13.5192 0 -4.8326 14.564 0 -4.0841 14.0664 0 -3.7089
4 4 14.0664 0 -3.7089 14.564 0 -4.0841 15.15 0 -3.4 14.376 0 -2.921
4 4 14.376 0 -2.921 15.15 0 -3.4 15.15 0 -2.6 13.8583 0 -2.254
4 4 13.8583 0 -2.254 15.15 0 -2.6 14.5582 0 -1.792 13.1736 0 -1.7629
4 4 13.1736 0 -1.7629 14.5582 0 -1.792 13.421 0 -1.006 12.45 0 -1.35
4 4 12.45 0 -1.35 13.421 0 -1.006 12.3344 0 -0.5351 10.471 0 -0.7889
4 4 10.471 0 -0.7889 12.3344 0 -0.5351 11.1083 0 -0.1026 9.9 0 0.25
4 4 7.6977 0 -0.2835 10.471 0 -0.7889 9.9 0 0.25 7.5147 0 0.589
4 4 4.8817 0 -0.0051 7.6977 0 -0.2835 7.5147 0 0.589 5.104 0 0.7781
4 4 2.0663 0 0.0757 4.8817 0 -0.0051 5.104 0 0.7781 2.6981 0 0.8529
4 4 2.0663 0 0.0757 2.6981 0 0.8529 0.315 0 0.8198 -0.7894 0 -0.0235
4 4 -0.7894 0 -0.0235 0.315 0 0.8198 -2.1058 0 0.6739 -3.6277 0 -0.2899
4 4 -3.6277 0 -0.2899 -2.1058 0 0.6739 -4.4964 0 0.4112 -7.2 0 -0.85
4 4 -7.2 0 -0.85 -4.4964 0 0.4112 -6.8554 0 0.0249 -9.2 0 -0.5
4 4 -8.6108 0 -1.1797 -7.2 0 -0.85 -9.2 0 -0.5 -10.1538 0 -0.7959
4 4 -9.9972 0 -1.5986 -8.6108 0 -1.1797 -10.1538 0 -0.7959 -11.092 0 -1.1352
4 4 -11.2724 0 -2.2752 -9.9972 0 -1.5986 -11.092 0 -1.1352 -11.9832 0 -1.5835
4 4 -11.2724 0 -2.2752 -11.9832 0 -1.5835 -12.627 0 -2.3506 -11.45 0 -2.55
4 4 -11.45 0 -2.55 -12.627 0 -2.3506 -12.3 0 -3.1 -11.3 0 -2.95
4 4 -11.3 0 -2.95 -12.3 0 -3.1 -11.2865 0 -3.7618 -10.6112 0 -3.2527
4 4 -10.6112 0 -3.2527 -11.2865 0 -3.7618 -10.3787 0 -4.1628 -9.2131 0 -3.6532
4 4 -9.2131 0 -3.6532 -10.3787 0 -4.1628 -9.45 0 -4.5 -7.8135 0 -3.9166
4 4 -7.8135 0 -3.9166 -9.45 0 -4.5 -7.2769 0 -4.905 -6.3791 0 -4.1246
4 4 -4.9 0 -4.3 -6.3791 0 -4.1246 -7.2769 0 -4.905 -4.5922 0 -5.1499
4 4 -2.8342 0 -4.4007 -4.9 0 -4.3 -4.5922 0 -5.1499 -1.919 0 -5.1974
4 4 -0.7728 0 -4.4215 -2.8342 0 -4.4007 -1.919 0 -5.1974 0.7667 0 -5.0757
4 4 1.2912 0 -4.3785 -0.7728 0 -4.4215 0.7667 0 -5.0757 3.4414 0 -4.7999
3 4 3.3607 0 -4.2692 1.2912 0 -4.3785 3.4414 0 -4.7999
4 4 5.333 0 -4.092 3.3607 0 -4.2692 3.4414 0 -4.7999 6.1173 0 -4.3774
4 4 7.4643 0 -3.8095 5.333 0 -4.092 6.1173 0 -4.3774 8.7266 0 -3.8292
4 4 9.5098 0 -3.4114 7.4643 0 -3.8095 8.7266 0 -3.8292 10.85 0 -3.3
4 4 11.4 0 -2.8 9.5098 0 -3.4114 10.85 0 -3.3 11.8 0 -3
3 4 11.8 0 -2.8 11.4 0 -2.8 11.8 0 -3
3 16 -3.75 0 2.9 -4.7119 0 1.3781 -3.15 0 1.4
3 16 -3.75 0 2.9 -6.2833 0 1.2926 -4.7119 0 1.3781
3 16 -3.75 0 2.9 -7.851 0 1.1312 -6.2833 0 1.2926
3 16 -12.4 0 1.15 -9.3968 0 0.882 -7.851 0 1.1312
3 16 -12.4 0 1.15 -10.9108 0 0.5264 -9.3968 0 0.882
3 16 -12.4 0 1.15 -12.4018 0 0.0266 -10.9108 0 0.5264
3 16 -12.4 0 1.15 -13.9 0 -0.75 -12.4018 0 0.0266
3 16 -12.4 0 1.15 -14.9277 0 -1.5644 -13.9 0 -0.75
3 16 -16.65 0 -1.55 -15.5 0 -2.35 -14.9277 0 -1.5644
3 16 -16.65 0 -1.55 -15.4 0 -3.4 -15.5 0 -2.35
4 16 -14.7 0 -4.35 -15.4 0 -3.4 -14.25 0 -7.75 -13.85 0 -7.65
3 16 -14.7 0 -4.35 -13.85 0 -7.65 -13.9455 0 -4.8864
3 16 -13.9455 0 -4.8864 -13.85 0 -7.65 -12.704 0 -5.5021
4 16 -11.4312 0 -5.9851 -12.704 0 -5.5021 -13.85 0 -7.65 -11.8 0 -7.8
4 16 -9.55 0 -6.55 -11.4312 0 -5.9851 -11.8 0 -7.8 -10.55 0 -8
3 16 -9.55 0 -6.55 -10.55 0 -8 -9.45 0 -8.4
4 16 -6.8492 0 -7.0033 -9.55 0 -6.55 -7.6 0 -8.2 -6 0 -8.35
4 16 -3.6895 0 -7.2763 -6.8492 0 -7.0033 -4.85 0 -8.45 0.35 0 -8.55
3 16 -3.6895 0 -7.2763 0.35 0 -8.55 -0.5149 0 -7.3317
4 16 2.6217 0 -7.1812 -0.5149 0 -7.3317 0.35 0 -8.55 0.55 0 -8.7
4 16 2.6217 0 -7.1812 1.7 0 -8.6 2.25 0 -8.5 5.7468 0 -6.8257
4 16 5.7468 0 -6.8257 2.25 0 -8.5 6.4 0 -8.2 7.1 0 -8.1
4 16 8.8769 0 -6.2545 5.7468 0 -6.8257 7.1 0 -8.1 7.3 0 -8.2
4 16 12.35 0 -5.35 8.8769 0 -6.2545 11.25 0 -7.6 11.55 0 -7.55
3 16 13.5192 0 -4.8326 12.35 0 -5.35 16.35 0 -5.55
3 16 14.564 0 -4.0841 13.5192 0 -4.8326 16.35 0 -5.55
4 16 15.15 0 -3.4 14.564 0 -4.0841 16.35 0 -5.55 16.35 0 -4.55
3 16 15.15 0 -3.4 16.35 0 -4.55 16.35 0 -3.55
4 16 15.15 0 -3.4 16.35 0 -3.55 16.35 0 -2.55 15.15 0 -2.6
4 16 15.15 0 -2.6 16.35 0 -2.55 16.35 0 -1.55 14.5582 0 -1.792
3 16 16.35 0 -0.55 14.5582 0 -1.792 16.35 0 -1.55
3 16 16.35 0 0.45 14.5582 0 -1.792 16.35 0 -0.55
4 16 14.5582 0 -1.792 16.35 0 0.45 16.35 0 1.45 13.3107 0 1.1263
4 16 13.421 0 -1.006 14.5582 0 -1.792 13.3107 0 1.1263 12.6086 0 0.7844
4 16 12.3344 0 -0.5351 13.421 0 -1.006 12.6086 0 0.7844 11.8245 0 0.7556
4 16 11.1083 0 -0.1026 12.3344 0 -0.5351 11.8245 0 0.7556 11.05 0 0.8
4 16 9.9 0 0.25 11.1083 0 -0.1026 11.05 0 0.8 10.2328 0 1.3408
4 16 9.9 0 0.25 10.2328 0 1.3408 9.4945 0 1.9877 7.5147 0 0.589
4 16 7.5147 0 0.589 9.4945 0 1.9877 8.8601 0 2.7308 5.104 0 0.7781
3 16 8.8601 0 2.7308 2.6981 0 0.8529 5.104 0 0.7781
3 16 8.8601 0 2.7308 0.315 0 0.8198 2.6981 0 0.8529
4 16 -2.9 0 1.25 0.315 0 0.8198 -3.75 0 2.9 -3.15 0 1.4
4 16 -2.1058 0 0.6739 0.315 0 0.8198 -2.9 0 1.25 -3.05 0 1.05
4 16 -4.4964 0 0.4112 -2.1058 0 0.6739 -3.05 0 1.05 -4.6528 0 1.0316
4 16 -4.4964 0 0.4112 -4.6528 0 1.0316 -6.2544 0 0.9111 -6.8554 0 0.0249
4 16 -6.8554 0 0.0249 -6.2544 0 0.9111 -7.8355 0 0.6993 -9.2 0 -0.5
4 16 -9.2 0 -0.5 -7.8355 0 0.6993 -9.4021 0 0.3823 -10.1538 0 -0.7959
4 16 -10.1538 0 -0.7959 -9.4021 0 0.3823 -10.9394 0 -0.0648 -11.092 0 -1.1352
4 16 -11.092 0 -1.1352 -10.9394 0 -0.0648 -12.4174 0 -0.6806 -11.9832 0 -1.5835
4 16 -11.9832 0 -1.5835 -12.4174 0 -0.6806 -13.75 0 -1.5 -12.627 0 -2.3506
4 16 -12.627 0 -2.3506 -13.75 0 -1.5 -14.4659 0 -2.1507 -12.3 0 -3.1
4 16 -14.35 0 -3.65 -12.3 0 -3.1 -14.4659 0 -2.1507 -14.7 0 -2.8
4 16 -12.3 0 -3.1 -14.35 0 -3.65 -13.7142 0 -4.1081 -11.2865 0 -3.7618
4 16 -11.2865 0 -3.7618 -13.7142 0 -4.1081 -12.5869 0 -4.6765 -11.3812 0 -5.1309
4 16 -10.3787 0 -4.1628 -11.2865 0 -3.7618 -11.3812 0 -5.1309 -10.1567 0 -5.5118
4 16 -9.45 0 -4.5 -10.3787 0 -4.1628 -10.1567 0 -5.5118 -8.5 0 -5.95
4 16 -7.2769 0 -4.905 -9.45 0 -4.5 -8.5 0 -5.95 -5.4775 0 -6.2808
4 16 -4.5922 0 -5.1499 -7.2769 0 -4.905 -5.4775 0 -6.2808 -2.4611 0 -6.3936
4 16 -1.919 0 -5.1974 -4.5922 0 -5.1499 -2.4611 0 -6.3936 0.5773 0 -6.3554
4 16 0.7667 0 -5.0757 -1.919 0 -5.1974 0.5773 0 -6.3554 3.5977 0 -6.1653
4 16 3.4414 0 -4.7999 0.7667 0 -5.0757 3.5977 0 -6.1653 6.5945 0 -5.8086
4 16 6.1173 0 -4.3774 3.4414 0 -4.7999 6.5945 0 -5.8086 9.57 0 -5.2561
4 16 8.7266 0 -3.8292 6.1173 0 -4.3774 9.57 0 -5.2561 12.55 0 -4.45
4 16 10.85 0 -3.3 8.7266 0 -3.8292 12.55 0 -4.45 13.3329 0 -4.1312
4 16 11.8 0 -3 10.85 0 -3.3 13.3329 0 -4.1312 14.0664 0 -3.7089
4 16 11.8 0 -3 14.0664 0 -3.7089 14.376 0 -2.921 11.8 0 -2.8
4 16 11.8 0 -2.8 14.376 0 -2.921 13.8583 0 -2.254 13.1736 0 -1.7629
4 16 11.8 0 -2.8 13.1736 0 -1.7629 12.45 0 -1.35 11.4 0 -2.8
4 16 11.4 0 -2.8 12.45 0 -1.35 10.471 0 -0.7889 8.7 0 -2.5
4 4 -3.45 0 -1.05 -2.85 0 -1.1 -2.8 0 -0.85 -3.45 0 -0.7
4 4 -3.45 0 -1.05 -3.45 0 -0.7 -4.35 0 -0.8 -3.65 0 -1.2
4 4 -3.65 0 -1.2 -4.35 0 -0.8 -4.65 0 -1.05 -4.6 0 -1.4
4 4 -3.65 0 -1.2 -4.6 0 -1.4 -3.95 0 -1.65 -3.35 0 -1.3
4 4 -3.35 0 -1.3 -3.95 0 -1.65 -3.2 0 -1.7 -1.15 0 -1.3
4 4 -1.15 0 -1.3 -3.2 0 -1.7 -1.3 0 -1.7 -0.55 0 -1.5
4 4 -0.95 0 -1.15 -1.15 0 -1.3 -0.55 0 -1.5 -0.35 0 -1.3
4 4 -0.95 0 -1.15 -0.35 0 -1.3 -0.6 0 -0.95 -1.1 0 -1.05
4 4 -1.1 0 -1.05 -0.6 0 -0.95 -1.2 0 -0.7 -1.65 0 -1
4 4 -1.65 0 -1 -1.2 0 -0.7 -1.9 0 -0.6 -2.25 0 -0.8
3 4 -2.25 0 -0.8 -2 0 -0.95 -1.65 0 -1
4 4 -0.45 0 -2.8 -0.25 0 -2.7 -0.35 0 -2.55 -2.55 0 -2.95
4 4 -2.55 0 -2.95 -0.35 0 -2.55 -2.7 0 -2.5 -3.3 0 -2.7
4 4 -3 0 -3.05 -2.55 0 -2.95 -3.3 0 -2.7 -3.6 0 -3.05
4 4 -3.1 0 -3.3 -3 0 -3.05 -3.6 0 -3.05 -3.65 0 -3.35
4 4 -3.1 0 -3.3 -3.65 0 -3.35 -3.4 0 -3.75 -2.95 0 -3.45
4 4 -2.95 0 -3.45 -3.4 0 -3.75 -2.7 0 -4 -2.05 0 -3.55
4 4 -2.05 0 -3.55 -2.7 0 -4 -1.2 0 -4.05 -0.35 0 -3.5
4 4 -0.35 0 -3.5 -1.2 0 -4.05 -0.05 0 -3.9 0.5 0 -3.7
4 4 -0.35 0 -3.4 -0.35 0 -3.5 0.5 0 -3.7 0.6 0 -3.4
4 4 -0.35 0 -3.4 0.6 0 -3.4 0.45 0 -3.15 0 0 -3
4 4 -0.35 0 -3.4 0 0 -3 -1.4 0 -3 -1.15 0 -3.35
4 4 -1.7 0 -3.15 -1.15 0 -3.35 -1.4 0 -3 -1.65 0 -3
4 4 -8.15 0 -2.6 -8.1 0 -2.45 -8.3 0 -2.4 -9 0 -2.55
4 4 -9 0 -2.55 -8.3 0 -2.4 -8.55 0 -2.35 -9.15 0 -2.35
4 4 -9.15 0 -2.35 -8.55 0 -2.35 -8.5 0 -2.2 -9.1 0 -2.05
4 4 -8.4 0 -1.75 -9.1 0 -2.05 -8.5 0 -2.2 -7.85 0 -2
4 4 -7.2 0 -1.55 -8.4 0 -1.75 -7.85 0 -2 -7.05 0 -1.95
4 4 -5.55 0 -1.6 -7.2 0 -1.55 -7.05 0 -1.95 -5.75 0 -1.95
4 4 -5.1 0 -1.85 -5.55 0 -1.6 -5.75 0 -1.95 -5.05 0 -2.2
4 4 -5.3 0 -2.45 -5.05 0 -2.2 -5.75 0 -1.95 -5.75 0 -2.1
4 4 -6.15 0 -2.7 -5.3 0 -2.45 -5.75 0 -2.1 -6.5 0 -2.2
4 4 -6.95 0 -2.6 -6.15 0 -2.7 -6.5 0 -2.2 -7.05 0 -2.3
3 4 -7.05 0 -2.3 -7.45 0 -2.45 -6.95 0 -2.6
4 4 3 0 -1.05 3.1 0 -0.9 2.9 0 -0.8 2.35 0 -1.2
4 4 2.35 0 -1.2 2.9 0 -0.8 2.3 0 -0.8 1.8 0 -0.95
4 4 2.15 0 -1.3 2.35 0 -1.2 1.8 0 -0.95 1.55 0 -1.25
4 4 2.15 0 -1.5 2.15 0 -1.3 1.55 0 -1.25 1.55 0 -1.55
4 4 2.15 0 -1.5 1.55 0 -1.55 1.9 0 -1.9 2.9 0 -2.05
4 4 3.05 0 -1.55 2.15 0 -1.5 2.9 0 -2.05 4.6 0 -1.95
4 4 4.75 0 -1.45 3.05 0 -1.55 4.6 0 -1.95 5.75 0 -1.7
4 4 5.25 0 -1.4 4.75 0 -1.45 5.75 0 -1.7 6 0 -1.5
4 4 5.25 0 -1.3 5.25 0 -1.4 6 0 -1.5 6 0 -1.25
4 4 5.25 0 -1.3 6 0 -1.25 5.7 0 -1 5.3 0 -0.95
4 4 4.2 0 -1.25 5.25 0 -1.3 5.3 0 -0.95 4.25 0 -1
4 4 5.15 0 -2.6 7.35 0 -2.25 7.35 0 -2.1 5.15 0 -2.1
4 4 5.15 0 -2.6 5.15 0 -2.1 4.4 0 -2.25 4.85 0 -2.65
4 4 4.85 0 -2.65 4.4 0 -2.25 4.15 0 -2.5 4.85 0 -2.85
4 4 4.85 0 -2.85 4.15 0 -2.5 4.15 0 -2.85 4.5 0 -3.25
4 4 5.35 0 -2.9 4.85 0 -2.85 4.5 0 -3.25 5.35 0 -3.4
4 4 7 0 -2.8 5.35 0 -2.9 5.35 0 -3.4 7 0 -3.35
4 4 7 0 -2.8 7 0 -3.35 8.3 0 -3.05 8.05 0 -2.6
4 4 8.05 0 -2.6 8.3 0 -3.05 8.6 0 -2.8 8.1 0 -2.45
4 4 8.1 0 -2.45 8.6 0 -2.8 8.7 0 -2.5 8.55 0 -2.25
4 4 8.1 0 -2.45 8.55 0 -2.25 8.15 0 -2.1 7.95 0 -2.3
4 16 8.55 0 -2.25 8.7 0 -2.5 10.471 0 -0.7889 7.6977 0 -0.2835
4 16 9.5098 0 -3.4114 11.4 0 -2.8 8.7 0 -2.5 8.6 0 -2.8
4 16 9.5098 0 -3.4114 8.6 0 -2.8 8.3 0 -3.05 7.4643 0 -3.8095
4 16 7.4643 0 -3.8095 8.3 0 -3.05 7 0 -3.35 5.333 0 -4.092
3 16 7 0 -3.35 5.35 0 -3.4 5.333 0 -4.092
4 16 5.333 0 -4.092 5.35 0 -3.4 4.5 0 -3.25 3.3607 0 -4.2692
4 16 3.3607 0 -4.2692 4.5 0 -3.25 0.6 0 -3.4 1.2912 0 -4.3785
3 16 0.6 0 -3.4 0.5 0 -3.7 1.2912 0 -4.3785
4 16 1.2912 0 -4.3785 0.5 0 -3.7 -0.05 0 -3.9 -0.7728 0 -4.4215
4 16 -0.7728 0 -4.4215 -0.05 0 -3.9 -1.2 0 -4.05 -2.8342 0 -4.4007
4 16 -2.8342 0 -4.4007 -1.2 0 -4.05 -2.7 0 -4 -4.9 0 -4.3
4 16 -4.9 0 -4.3 -2.7 0 -4 -3.4 0 -3.75 -6.3791 0 -4.1246
4 16 -6.3791 0 -4.1246 -3.4 0 -3.75 -3.65 0 -3.35 -7.8135 0 -3.9166
4 16 -7.8135 0 -3.9166 -3.65 0 -3.35 -6.15 0 -2.7 -9.2131 0 -3.6532
3 16 -6.95 0 -2.6 -9.2131 0 -3.6532 -6.15 0 -2.7
4 16 -9.2131 0 -3.6532 -6.95 0 -2.6 -7.45 0 -2.45 -8.15 0 -2.6
4 16 -8.1 0 -2.45 -8.15 0 -2.6 -7.45 0 -2.45 -7.85 0 -2
4 16 -8.3 0 -2.4 -8.1 0 -2.45 -7.85 0 -2 -8.5 0 -2.2
3 16 -8.5 0 -2.2 -8.55 0 -2.35 -8.3 0 -2.4
4 16 -7.05 0 -1.95 -7.85 0 -2 -7.45 0 -2.45 -7.05 0 -2.3
4 16 -7.05 0 -1.95 -7.05 0 -2.3 -6.5 0 -2.2 -5.75 0 -1.95
3 16 -5.75 0 -1.95 -6.5 0 -2.2 -5.75 0 -2.1
4 16 -5.3 0 -2.45 -6.15 0 -2.7 -3.65 0 -3.35 -3.6 0 -3.05
4 16 -5.3 0 -2.45 -3.6 0 -3.05 -3.3 0 -2.7 -5.05 0 -2.2
4 16 -3.95 0 -1.65 -5.05 0 -2.2 -3.3 0 -2.7 -3.2 0 -1.7
4 16 -3.2 0 -1.7 -3.3 0 -2.7 -2.7 0 -2.5 -1.3 0 -1.7
4 16 -1.3 0 -1.7 -2.7 0 -2.5 -0.35 0 -2.55 -0.55 0 -1.5
4 16 1.55 0 -1.55 -0.55 0 -1.5 -0.35 0 -2.55 1.9 0 -1.9
4 16 1.9 0 -1.9 -0.35 0 -2.55 -0.25 0 -2.7 0 0 -3
3 16 1.9 0 -1.9 0 0 -3 0.45 0 -3.15
4 16 1.9 0 -1.9 0.45 0 -3.15 0.6 0 -3.4 2.9 0 -2.05
4 16 4.15 0 -2.5 2.9 0 -2.05 0.6 0 -3.4 4.15 0 -2.85
3 16 4.15 0 -2.85 0.6 0 -3.4 4.5 0 -3.25
4 16 2.9 0 -2.05 4.15 0 -2.5 4.4 0 -2.25 4.6 0 -1.95
4 16 4.6 0 -1.95 4.4 0 -2.25 5.15 0 -2.1 5.75 0 -1.7
3 16 5.75 0 -1.7 5.15 0 -2.1 7.35 0 -2.1
4 16 6 0 -1.5 5.75 0 -1.7 7.35 0 -2.1 8.15 0 -2.1
4 16 7.95 0 -2.3 8.15 0 -2.1 7.35 0 -2.1 7.35 0 -2.25
4 16 7.95 0 -2.3 7.35 0 -2.25 8.05 0 -2.6 8.1 0 -2.45
4 16 7 0 -2.8 8.05 0 -2.6 7.35 0 -2.25 5.35 0 -2.9
4 16 5.35 0 -2.9 7.35 0 -2.25 5.15 0 -2.6 4.85 0 -2.85
3 16 5.15 0 -2.6 4.85 0 -2.65 4.85 0 -2.85
4 16 6 0 -1.5 8.15 0 -2.1 7.6977 0 -0.2835 6 0 -1.25
3 16 7.6977 0 -0.2835 8.15 0 -2.1 8.55 0 -2.25
4 16 5.7 0 -1 6 0 -1.25 7.6977 0 -0.2835 4.8817 0 -0.0051
3 16 4.8817 0 -0.0051 5.3 0 -0.95 5.7 0 -1
4 16 4.25 0 -1 5.3 0 -0.95 4.8817 0 -0.0051 3.1 0 -0.9
4 16 4.25 0 -1 3.1 0 -0.9 3 0 -1.05 4.2 0 -1.25
4 16 4.2 0 -1.25 3 0 -1.05 3.05 0 -1.55 4.75 0 -1.45
4 16 5.25 0 -1.3 4.2 0 -1.25 4.75 0 -1.45 5.25 0 -1.4
4 16 3.05 0 -1.55 3 0 -1.05 2.35 0 -1.2 2.15 0 -1.5
3 16 2.35 0 -1.2 2.15 0 -1.3 2.15 0 -1.5
4 16 2.3 0 -0.8 2.9 0 -0.8 4.8817 0 -0.0051 2.0663 0 0.0757
3 16 4.8817 0 -0.0051 2.9 0 -0.8 3.1 0 -0.9
3 16 2.0663 0 0.0757 1.8 0 -0.95 2.3 0 -0.8
4 16 1.55 0 -1.25 1.8 0 -0.95 2.0663 0 0.0757 -0.35 0 -1.3
4 16 -0.6 0 -0.95 -0.35 0 -1.3 2.0663 0 0.0757 -0.7894 0 -0.0235
4 16 1.55 0 -1.55 1.55 0 -1.25 -0.35 0 -1.3 -0.55 0 -1.5
3 16 -0.7894 0 -0.0235 -1.2 0 -0.7 -0.6 0 -0.95
4 16 -1.9 0 -0.6 -1.2 0 -0.7 -0.7894 0 -0.0235 -3.6277 0 -0.2899
4 16 -1.9 0 -0.6 -3.6277 0 -0.2899 -3.45 0 -0.7 -2.25 0 -0.8
4 16 -2.25 0 -0.8 -3.45 0 -0.7 -2.8 0 -0.85 -2 0 -0.95
4 16 -2 0 -0.95 -2.8 0 -0.85 -2.85 0 -1.1 -1.15 0 -1.3
3 16 -2 0 -0.95 -1.15 0 -1.3 -1.65 0 -1
4 16 -1.1 0 -1.05 -1.65 0 -1 -1.15 0 -1.3 -0.95 0 -1.15
4 16 -3.35 0 -1.3 -1.15 0 -1.3 -2.85 0 -1.1 -3.45 0 -1.05
3 16 -3.45 0 -1.05 -3.65 0 -1.2 -3.35 0 -1.3
4 16 -4.35 0 -0.8 -3.45 0 -0.7 -3.6277 0 -0.2899 -7.2 0 -0.85
4 16 -4.65 0 -1.05 -4.35 0 -0.8 -7.2 0 -0.85 -5.55 0 -1.6
4 16 -4.6 0 -1.4 -4.65 0 -1.05 -5.55 0 -1.6 -5.1 0 -1.85
4 16 -3.95 0 -1.65 -4.6 0 -1.4 -5.1 0 -1.85 -5.05 0 -2.2
4 16 -7.2 0 -1.55 -5.55 0 -1.6 -7.2 0 -0.85 -8.6108 0 -1.1797
4 16 -8.4 0 -1.75 -7.2 0 -1.55 -8.6108 0 -1.1797 -9.9972 0 -1.5986
4 16 -9.1 0 -2.05 -8.4 0 -1.75 -9.9972 0 -1.5986 -11.2724 0 -2.2752
4 16 -9.15 0 -2.35 -9.1 0 -2.05 -11.2724 0 -2.2752 -11.45 0 -2.55
4 16 -9.15 0 -2.35 -11.45 0 -2.55 -11.3 0 -2.95 -10.6112 0 -3.2527
3 16 -9.15 0 -2.35 -10.6112 0 -3.2527 -9 0 -2.55
4 16 -8.15 0 -2.6 -9 0 -2.55 -10.6112 0 -3.2527 -9.2131 0 -3.6532
3 16 -0.45 0 -2.8 -1.4 0 -3 0 0 -3
3 16 -0.25 0 -2.7 -0.45 0 -2.8 0 0 -3
4 16 -1.65 0 -3 -1.4 0 -3 -0.45 0 -2.8 -2.55 0 -2.95
4 16 -1.7 0 -3.15 -1.65 0 -3 -2.55 0 -2.95 -3 0 -3.05
4 16 -1.7 0 -3.15 -3 0 -3.05 -3.1 0 -3.3 -2.95 0 -3.45
4 16 -1.7 0 -3.15 -2.95 0 -3.45 -2.05 0 -3.55 -1.15 0 -3.35
4 16 -0.35 0 -3.4 -1.15 0 -3.35 -2.05 0 -3.55 -0.35 0 -3.5
