0 ~Moved to 3430c02-f1.dat
0 Name: 3430c02.dat
0 Author: [PTadmin]
0 !LDRAW_ORG Shortcut UPDATE 2022-01
0 !LICENSE Licensed under CC BY 4.0 : see CAreadme.txt

0 BFC CERTIFY CCW

0 !HISTORY 2022-01-14 [PTadmin] Official Update 2022-01


0 // Forklift 2 x 7 (Complete) Yellow Forks (Up Position)
1 16 0 0 0 1 0 0 0 1 0 0 0 1 3430c02-f1.dat
