0 Minifig Leg Left with SW Clone Trooper Black, Light Bluish Gray Markings and Knee Pad Pattern
0 Name: 3817cps4.dat
0 Author: Evert-Jan Boer [ejboer]
0 !LDRAW_ORG Part UPDATE 2023-03
0 !LICENSE Licensed under CC BY 4.0 : see CAreadme.txt

0 !HELP Move down 12 units to align with hips
0 !HELP Move at z=1.25 relative to stud grid
0 !HELP 1 16 0 0 1.25 1 0 0 0 1 0 0 0 1 3817cps4.dat
0 !HELP 1 16 0 28 0 1 0 0 0 1 0 0 0 1 stug-1x2.dat

0 BFC CERTIFY CCW

0 !KEYWORDS Brickowl 1312204, Rebrickable 970c27pr2143, Set 75337, Set 75340
0 !KEYWORDS Set 75390, Star Wars, Set 40558, Bricklink 970c00pb1283

0 !HISTORY 2023-05-15 [MagFors] Adapted to c-version leg
0 !HISTORY 2023-06-24 [OrionP] Official Update 2023-03


1 16 0 0 0 1 0 0 0 1 0 0 0 1 s\3817cs01.dat
4 16 1.25 20 -5.75 1.25 20 -11.25 18.978 20 -11.25 18.978 20 -5.75

3 0 14.9 6.3 -6.0179 17.108 6.187 -6.187 14.549 6.187 -6.187
4 0 17.108 6.187 -6.187 14.9 6.3 -6.0179 15.8308 6.479 -5.75 17.1201 6.479 -5.75
3 0 5.1 6.3 -6.0179 5.481 6.187 -6.187 2.892 6.187 -6.187
4 0 2.88 6.479 -5.75 4.1692 6.479 -5.75 5.1 6.3 -6.0179 2.892 6.187 -6.187
4 0 6.6 4.45 -7.3481 7.85 4.15 -7.5486 8.146 3.769 -7.8033 7.45 3.55 -7.9496
4 0 7.85 4.15 -7.5486 6.6 4.45 -7.3481 5.75 5 -6.9804 7 5.15 -6.8802
4 0 4.8 5.55 -6.6128 6.1 5.85 -6.4123 7 5.15 -6.8802 5.75 5 -6.9804
4 0 14.25 5 -6.9804 13.4 4.45 -7.3481 12.15 4.15 -7.5486 13 5.15 -6.8802
4 0 13 5.15 -6.8802 13.9 5.85 -6.4123 15.2 5.55 -6.6128 14.25 5 -6.9804
4 0 11.854 3.769 -7.8033 12.15 4.15 -7.5486 13.4 4.45 -7.3481 12.55 3.55 -7.9496
4 0 11.527 3.349 -8.084 11.854 3.769 -7.8033 12.55 3.55 -7.9496 12.409 3.349 -8.084
4 0 7.45 3.55 -7.9496 8.146 3.769 -7.8033 8.473 3.349 -8.084 7.591 3.349 -8.084
4 0 3.9 5.85 -6.4123 5.481 6.187 -6.187 6.1 5.85 -6.4123 4.8 5.55 -6.6128
4 0 2.9 6 -6.312 2.892 6.187 -6.187 5.481 6.187 -6.187 3.9 5.85 -6.4123
4 0 16.1 5.85 -6.4123 15.2 5.55 -6.6128 13.9 5.85 -6.4123 14.549 6.187 -6.187
4 0 16.1 5.85 -6.4123 14.549 6.187 -6.187 17.108 6.187 -6.187 17.1 6 -6.312
4 0 7.3 -6.187 -6.187 2.4 -6.187 -6.187 4.3 -3.9 -7.7157 5.5 -4.7 -7.181
4 0 4.3 -3.9 -7.7157 2.4 -6.187 -6.187 2.4 -3.349 -8.084 3.2 -3.349 -8.084
3 0 11.85 2.55 -8.2429 11 2.55 -8.2429 11.45 3.25 -8.1037
4 0 11 2.55 -8.2429 9 2.55 -8.2429 8.55 3.25 -8.1037 11.45 3.25 -8.1037
3 0 9 2.55 -8.2429 8.15 2.55 -8.2429 8.55 3.25 -8.1037
4 0 11.527 3.349 -8.084 12.409 3.349 -8.084 11.85 2.55 -8.2429 11.45 3.25 -8.1037
4 0 7.591 3.349 -8.084 8.473 3.349 -8.084 8.55 3.25 -8.1037 8.15 2.55 -8.2429
3 0 3.2 -3.349 -8.084 2.4 -3.349 -8.084 2.4 -3 -8.1534
3 0 16.2 6.55 -5.75 17.1201 6.479 -5.75 15.8308 6.479 -5.75
3 0 3.8 6.55 -5.75 4.1692 6.479 -5.75 2.88 6.479 -5.75
3 0 8.55 13.35 -5.75 8.9 12.6 -5.75 8.1 12.75 -5.75
4 0 7.6 12.2 -5.75 8.1 12.75 -5.75 8.9 12.6 -5.75 8.2 11.85 -5.75
4 0 6.75 11.45 -5.75 7.6 12.2 -5.75 8.2 11.85 -5.75 7.15 10.85 -5.75
4 0 5.85 10.85 -5.75 6.75 11.45 -5.75 7.15 10.85 -5.75 6.15 10.1 -5.75
4 0 6.15 10.1 -5.75 5.15 9.7 -5.75 5.35 10.65 -5.75 5.85 10.85 -5.75
4 0 4.6 11.15 -5.75 5.35 10.65 -5.75 5.15 9.7 -5.75 3.8 9.5 -5.75
3 0 4.6 11.15 -5.75 3.8 9.5 -5.75 2.7 10.85 -5.75
3 0 11.9 12.75 -5.75 11.1 12.6 -5.75 11.45 13.35 -5.75
4 0 12.4 12.2 -5.75 11.8 11.85 -5.75 11.1 12.6 -5.75 11.9 12.75 -5.75
3 0 12.4 12.2 -5.75 12.85 10.85 -5.75 11.8 11.85 -5.75
4 0 13.85 10.1 -5.75 12.85 10.85 -5.75 12.4 12.2 -5.75 13.25 11.45 -5.75
4 0 14.85 9.7 -5.75 13.85 10.1 -5.75 13.25 11.45 -5.75 14.15 10.85 -5.75
4 0 14.15 10.85 -5.75 14.65 10.65 -5.75 16.2 9.5 -5.75 14.85 9.7 -5.75
4 0 17.3 10.85 -5.75 16.2 9.5 -5.75 14.65 10.65 -5.75 15.4 11.15 -5.75
4 0 11.45 13.35 -5.75 11.1 12.6 -5.75 8.9 12.6 -5.75 8.55 13.35 -5.75
4 0 16.2 6.55 -5.75 16.2 9.5 -5.75 17.3 10.85 -5.75 17.1201 6.479 -5.75
4 0 3.8 9.5 -5.75 3.8 6.55 -5.75 2.88 6.479 -5.75 2.7 10.85 -5.75
3 16 11.537 6.187 -6.187 14.9 6.3 -6.0179 14.549 6.187 -6.187
4 16 14.9 6.3 -6.0179 11.537 6.187 -6.187 11.5105 6.479 -5.75 15.8308 6.479 -5.75
4 16 5.481 6.187 -6.187 5.1 6.3 -6.0179 8.4895 6.479 -5.75 8.463 6.187 -6.187
3 16 8.4895 6.479 -5.75 5.1 6.3 -6.0179 4.1692 6.479 -5.75
4 16 18.508 6.187 -6.187 17.108 6.187 -6.187 17.1201 6.479 -5.75 18.518 6.479 -5.75
4 16 2 6.479 -5.75 2.88 6.479 -5.75 2.892 6.187 -6.187 2 6.187 -6.187
4 16 9.0544 6.479 -5.75 10.9456 6.479 -5.75 10.969 6.187 -6.187 9.031 6.187 -6.187
3 16 17.1 6 -6.312 17.108 6.187 -6.187 18.508 6.187 -6.187
4 16 18.412 3.349 -8.084 16.1 5.85 -6.4123 17.1 6 -6.312 18.508 6.187 -6.187
4 16 14.25 5 -6.9804 15.2 5.55 -6.6128 16.1 5.85 -6.4123 18.412 3.349 -8.084
4 16 12.55 3.55 -7.9496 13.4 4.45 -7.3481 14.25 5 -6.9804 18.412 3.349 -8.084
3 16 12.409 3.349 -8.084 12.55 3.55 -7.9496 18.412 3.349 -8.084
3 16 12.15 4.15 -7.5486 11.854 3.769 -7.8033 11.65 4.95 -7.0138
3 16 7.591 3.349 -8.084 2 3.349 -8.084 7.45 3.55 -7.9496
4 16 7.45 3.55 -7.9496 2 3.349 -8.084 5.75 5 -6.9804 6.6 4.45 -7.3481
3 16 5.75 5 -6.9804 2 3.349 -8.084 4.8 5.55 -6.6128
4 16 2.9 6 -6.312 3.9 5.85 -6.4123 4.8 5.55 -6.6128 2 3.349 -8.084
4 16 2 3.349 -8.084 2 6.187 -6.187 2.892 6.187 -6.187 2.9 6 -6.312
3 16 8.35 4.95 -7.0138 8.146 3.769 -7.8033 7.85 4.15 -7.5486
3 16 8.35 4.95 -7.0138 7.85 4.15 -7.5486 7 5.15 -6.8802
4 16 11 5.8 -6.4457 11.3 4 -7.6489 8.7 4 -7.6489 9 5.8 -6.4457
4 16 8.57 3.349 -8.084 8.7 4 -7.6489 11.3 4 -7.6489 11.43 3.349 -8.084
4 16 9 5.8 -6.4457 9.031 6.187 -6.187 10.969 6.187 -6.187 11 5.8 -6.4457
3 16 14.549 6.187 -6.187 13.9 5.85 -6.4123 11.537 6.187 -6.187
3 16 13.9 5.85 -6.4123 13 5.15 -6.8802 11.537 6.187 -6.187
4 16 11.537 6.187 -6.187 13 5.15 -6.8802 12.15 4.15 -7.5486 11.65 4.95 -7.0138
3 16 8.463 6.187 -6.187 6.1 5.85 -6.4123 5.481 6.187 -6.187
4 16 7 5.15 -6.8802 6.1 5.85 -6.4123 8.463 6.187 -6.187 8.35 4.95 -7.0138
4 16 12.2 23.6 -11.25 14.8 23.6 -11.25 16.65 21.3 -11.25 12.2 21.3 -11.25
4 16 8.45 23.6 -11.25 11.55 23.6 -11.25 11.55 22.8 -11.25 8.45 22.8 -11.25
4 16 7.8 23.6 -11.25 7.8 21.3 -11.25 3.35 21.3 -11.25 5.2 23.6 -11.25
3 16 16.65 21.3 -11.25 17.1 21.6 -11.25 18.978 20 -11.25
4 16 17.1 21.6 -11.25 15.1 24.1 -11.25 18 25.8 -11.25 18.978 20 -11.25
4 16 18.978 20 -11.25 18 25.8 -11.25 18 27.2 -11.25 19.25 28 -11.25
4 16 1.25 28 -11.25 19.25 28 -11.25 18 27.2 -11.25 3 27.2 -11.25
4 16 1.25 20 -11.25 1.25 28 -11.25 3 27.2 -11.25 3 25.8 -11.25
4 16 4.9 24.1 -11.25 2.9 21.6 -11.25 1.25 20 -11.25 3 25.8 -11.25
4 16 15.1 24.1 -11.25 11.8 24.1 -11.25 3 25.8 -11.25 18 25.8 -11.25
3 16 11.8 24.1 -11.25 8.2 24.1 -11.25 3 25.8 -11.25
3 16 8.2 24.1 -11.25 4.9 24.1 -11.25 3 25.8 -11.25
4 16 12.2 21.3 -11.25 16.65 21.3 -11.25 18.978 20 -11.25 1.25 20 -11.25
3 16 12.2 21.3 -11.25 1.25 20 -11.25 7.8 21.3 -11.25
3 16 7.8 21.3 -11.25 1.25 20 -11.25 3.35 21.3 -11.25
3 16 3.35 21.3 -11.25 1.25 20 -11.25 2.9 21.6 -11.25
4 16 10.35 -6.187 -6.187 10.35 -3.349 -8.084 18.184 -3.349 -8.084 18.087 -6.187 -6.187
4 16 9.65 -3.349 -8.084 9.65 -6.187 -6.187 7.3 -6.187 -6.187 5.5 -4.7 -7.181
3 16 9.65 -3.349 -8.084 5.5 -4.7 -7.181 4.3 -3.9 -7.7157
3 16 9.65 -3.349 -8.084 4.3 -3.9 -7.7157 3.2 -3.349 -8.084
4 16 2 -3.349 -8.084 2.4 -3.349 -8.084 2.4 -6.187 -6.187 2 -6.187 -6.187
3 16 10.583 0 -8.75 10.85 .8 -8.5909 18.298 0 -8.75
4 16 10.85 .8 -8.5909 11.25 1.65 -8.4219 11.85 2.55 -8.2429 18.298 0 -8.75
4 16 18.298 0 -8.75 11.85 2.55 -8.2429 12.409 3.349 -8.084 18.412 3.349 -8.084
4 16 9.35 1.9 -8.3722 9 2.55 -8.2429 11 2.55 -8.2429 10.65 1.9 -8.3722
3 16 10.2 .9 -8.571 10 .25 -8.7003 9.8 .9 -8.571
4 16 9.35 1.9 -8.3722 10.65 1.9 -8.3722 10.2 .9 -8.571 9.8 .9 -8.571
4 16 8.75 1.65 -8.4219 9.15 .8 -8.5909 9.417 0 -8.75 2 0 -8.75
4 16 8.75 1.65 -8.4219 2 0 -8.75 7.591 3.349 -8.084 8.15 2.55 -8.2429
3 16 7.591 3.349 -8.084 2 0 -8.75 2 3.349 -8.084
4 16 8.55 3.25 -8.1037 8.57 3.349 -8.084 11.43 3.349 -8.084 11.45 3.25 -8.1037
3 16 10.35 -3.349 -8.084 10.35 -1 -8.5511 18.184 -3.349 -8.084
4 16 18.184 -3.349 -8.084 10.35 -1 -8.5511 10.583 0 -8.75 18.298 0 -8.75
3 16 9.65 -3.349 -8.084 3.2 -3.349 -8.084 9.65 -1 -8.5511
3 16 9.417 0 -8.75 2.4 -3 -8.1534 2 0 -8.75
4 16 2.4 -3.349 -8.084 2 -3.349 -8.084 2 0 -8.75 2.4 -3 -8.1534
4 16 9.65 -1 -8.5511 3.2 -3.349 -8.084 2.4 -3 -8.1534 9.417 0 -8.75
4 16 3.8 6.55 -5.75 3.8 9.5 -5.75 8.4895 6.479 -5.75 4.1692 6.479 -5.75
3 16 17.1201 6.479 -5.75 17.3 10.85 -5.75 18.518 6.479 -5.75
4 16 18.518 6.479 -5.75 17.3 10.85 -5.75 17.3 11.7 -5.75 18.978 20 -5.75
3 16 17.3 11.7 -5.75 16.1 11.9 -5.75 18.978 20 -5.75
4 16 11.9 12.75 -5.75 11.45 13.35 -5.75 18.978 20 -5.75 15.55 11.85 -5.75
3 16 18.978 20 -5.75 16.1 11.9 -5.75 15.55 11.85 -5.75
4 16 11.9 12.75 -5.75 15.55 11.85 -5.75 15.05 11.7 -5.75 12.4 12.2 -5.75
4 16 12.4 12.2 -5.75 15.05 11.7 -5.75 14.15 10.85 -5.75 13.25 11.45 -5.75
4 16 1.25 20 -5.75 18.978 20 -5.75 11.45 13.35 -5.75 8.55 13.35 -5.75
3 16 8.55 13.35 -5.75 8.1 12.75 -5.75 1.25 20 -5.75
4 16 4.95 11.7 -5.75 1.25 20 -5.75 8.1 12.75 -5.75 7.6 12.2 -5.75
4 16 5.85 10.85 -5.75 4.95 11.7 -5.75 7.6 12.2 -5.75 6.75 11.45 -5.75
3 16 1.25 20 -5.75 4.95 11.7 -5.75 4.45 11.85 -5.75
3 16 1.25 20 -5.75 4.45 11.85 -5.75 3.9 11.9 -5.75
3 16 3.9 11.9 -5.75 2.7 11.7 -5.75 1.25 20 -5.75
4 16 2.7 11.7 -5.75 2.7 10.85 -5.75 2 8 -5.75 1.25 8 -5.75
3 16 2.7 11.7 -5.75 1.25 8 -5.75 1.25 20 -5.75
4 16 10.8 8.3 -5.75 10.9456 6.479 -5.75 9.0544 6.479 -5.75 9.2 8.3 -5.75
4 16 9.2 8.3 -5.75 9.35 10.25 -5.75 10.65 10.25 -5.75 10.8 8.3 -5.75
4 16 11.1 12.6 -5.75 11.8 11.85 -5.75 11.15 10.9 -5.75 10.95 11.1 -5.75
4 16 10.95 11.1 -5.75 9.05 11.1 -5.75 8.9 12.6 -5.75 11.1 12.6 -5.75
4 16 8.85 10.9 -5.75 8.2 11.85 -5.75 8.9 12.6 -5.75 9.05 11.1 -5.75
4 16 8.2 11.85 -5.75 8.85 10.9 -5.75 8.75 10.55 -5.75 7.15 10.85 -5.75
4 16 8.65 8.9 -5.75 6.15 10.1 -5.75 7.15 10.85 -5.75 8.75 10.55 -5.75
4 16 6.15 10.1 -5.75 8.65 8.9 -5.75 8.4895 6.479 -5.75 5.15 9.7 -5.75
3 16 3.8 9.5 -5.75 5.15 9.7 -5.75 8.4895 6.479 -5.75
3 16 16.2 9.5 -5.75 16.2 6.55 -5.75 15.8308 6.479 -5.75
4 16 13.85 10.1 -5.75 14.85 9.7 -5.75 11.5105 6.479 -5.75 11.35 8.9 -5.75
4 16 11.25 10.55 -5.75 12.85 10.85 -5.75 13.85 10.1 -5.75 11.35 8.9 -5.75
4 16 11.25 10.55 -5.75 11.15 10.9 -5.75 11.8 11.85 -5.75 12.85 10.85 -5.75
4 16 14.85 9.7 -5.75 16.2 9.5 -5.75 15.8308 6.479 -5.75 11.5105 6.479 -5.75
4 16 2.7 10.85 -5.75 2.88 6.479 -5.75 2 6.479 -5.75 2 8 -5.75
4 71 11.537 6.187 -6.187 10.969 6.187 -6.187 10.9456 6.479 -5.75 11.5105 6.479 -5.75
4 71 8.463 6.187 -6.187 8.4895 6.479 -5.75 9.0544 6.479 -5.75 9.031 6.187 -6.187
4 71 11 5.8 -6.4457 11.65 4.95 -7.0138 11.854 3.769 -7.8033 11.3 4 -7.6489
4 71 8.473 3.349 -8.084 8.146 3.769 -7.8033 8.7 4 -7.6489 8.57 3.349 -8.084
4 71 8.146 3.769 -7.8033 8.35 4.95 -7.0138 9 5.8 -6.4457 8.7 4 -7.6489
4 71 11.854 3.769 -7.8033 11.527 3.349 -8.084 11.43 3.349 -8.084 11.3 4 -7.6489
4 71 10.969 6.187 -6.187 11.537 6.187 -6.187 11.65 4.95 -7.0138 11 5.8 -6.4457
4 71 9.031 6.187 -6.187 9 5.8 -6.4457 8.35 4.95 -7.0138 8.463 6.187 -6.187
4 71 15.1 24.1 -11.25 17.1 21.6 -11.25 16.65 21.3 -11.25 14.8 23.6 -11.25
4 71 14.8 23.6 -11.25 12.2 23.6 -11.25 11.8 24.1 -11.25 15.1 24.1 -11.25
3 71 12.2 23.6 -11.25 11.55 23.6 -11.25 11.8 24.1 -11.25
4 71 12.2 21.3 -11.25 11.55 22.8 -11.25 11.55 23.6 -11.25 12.2 23.6 -11.25
4 71 4.9 24.1 -11.25 5.2 23.6 -11.25 3.35 21.3 -11.25 2.9 21.6 -11.25
4 71 8.2 24.1 -11.25 7.8 23.6 -11.25 5.2 23.6 -11.25 4.9 24.1 -11.25
3 71 7.8 23.6 -11.25 8.2 24.1 -11.25 8.45 23.6 -11.25
4 71 7.8 21.3 -11.25 7.8 23.6 -11.25 8.45 23.6 -11.25 8.45 22.8 -11.25
4 71 7.8 21.3 -11.25 8.45 22.8 -11.25 11.55 22.8 -11.25 12.2 21.3 -11.25
4 71 8.45 23.6 -11.25 8.2 24.1 -11.25 11.8 24.1 -11.25 11.55 23.6 -11.25
4 71 9.65 -3.349 -8.084 10.35 -3.349 -8.084 10.35 -6.187 -6.187 9.65 -6.187 -6.187
4 71 9.8 .9 -8.571 9.15 .8 -8.5909 8.75 1.65 -8.4219 9.35 1.9 -8.3722
4 71 9.35 1.9 -8.3722 8.75 1.65 -8.4219 8.15 2.55 -8.2429 9 2.55 -8.2429
4 71 10.2 .9 -8.571 10.65 1.9 -8.3722 11.25 1.65 -8.4219 10.85 .8 -8.5909
4 71 10.65 1.9 -8.3722 11 2.55 -8.2429 11.85 2.55 -8.2429 11.25 1.65 -8.4219
3 71 10.583 0 -8.75 9.417 0 -8.75 10 .25 -8.7003
4 71 9.417 0 -8.75 9.15 .8 -8.5909 9.8 .9 -8.571 10 .25 -8.7003
4 71 10 .25 -8.7003 10.2 .9 -8.571 10.85 .8 -8.5909 10.583 0 -8.75
3 71 11.527 3.349 -8.084 11.45 3.25 -8.1037 11.43 3.349 -8.084
3 71 8.57 3.349 -8.084 8.55 3.25 -8.1037 8.473 3.349 -8.084
4 71 10.35 -3.349 -8.084 9.65 -3.349 -8.084 9.65 -1 -8.5511 10.35 -1 -8.5511
4 71 9.417 0 -8.75 10.583 0 -8.75 10.35 -1 -8.5511 9.65 -1 -8.5511
4 71 8.75 10.55 -5.75 9.35 10.25 -5.75 9.2 8.3 -5.75 8.65 8.9 -5.75
4 71 4.95 11.7 -5.75 5.85 10.85 -5.75 5.35 10.65 -5.75 4.6 11.15 -5.75
4 71 3.9 11.9 -5.75 4.45 11.85 -5.75 4.95 11.7 -5.75 4.6 11.15 -5.75
4 71 2.7 11.7 -5.75 3.9 11.9 -5.75 4.6 11.15 -5.75 2.7 10.85 -5.75
4 71 11.25 10.55 -5.75 11.35 8.9 -5.75 10.8 8.3 -5.75 10.65 10.25 -5.75
4 71 14.65 10.65 -5.75 14.15 10.85 -5.75 15.05 11.7 -5.75 15.4 11.15 -5.75
4 71 15.05 11.7 -5.75 15.55 11.85 -5.75 16.1 11.9 -5.75 15.4 11.15 -5.75
4 71 17.3 11.7 -5.75 17.3 10.85 -5.75 15.4 11.15 -5.75 16.1 11.9 -5.75
4 71 11.25 10.55 -5.75 10.65 10.25 -5.75 10.95 11.1 -5.75 11.15 10.9 -5.75
4 71 10.95 11.1 -5.75 10.65 10.25 -5.75 9.35 10.25 -5.75 9.05 11.1 -5.75
4 71 9.05 11.1 -5.75 9.35 10.25 -5.75 8.75 10.55 -5.75 8.85 10.9 -5.75
4 71 10.9456 6.479 -5.75 10.8 8.3 -5.75 11.35 8.9 -5.75 11.5105 6.479 -5.75
4 71 8.4895 6.479 -5.75 8.65 8.9 -5.75 9.2 8.3 -5.75 9.0544 6.479 -5.75
4 72 3 27.2 -11.25 18 27.2 -11.25 18 25.8 -11.25 3 25.8 -11.25
