0 Sticker  1.0 x 11.8 with Pipe, Three Connectors and Lever Oriented Right
0 Name: 4112957a.dat
0 Author: Gerald Lasser [GeraldLasser]
0 !LDRAW_ORG Part UPDATE 2024-02
0 !LICENSE Licensed under CC BY 4.0 : see CAreadme.txt

0 BFC CERTIFY CCW

0 !KEYWORDS set 2126

0 !HISTORY 2015-10-11 [PTadmin] Official Update 2015-01
0 !HISTORY 2024-03-23 [OrionP] Updated ring primitives
0 !HISTORY 2024-03-24 [OrionP] Official Update 2024-02

1 16 0 -0.25 0 118 0 0 0 0.25 0 0 0 10 box5-12.dat

1 0 -82.5 -0.25 -5 -1 0 0 0 1 0 0 0 1 1-4ring4.dat
1 8 -82.5 -0.25 -5 -1 0 0 0 1 0 0 0 1 1-4ring5.dat
1 8 -82.5 -0.25 -5 -1 0 0 0 1 0 0 0 1 1-4ring10.dat
1 0 -82.5 -0.25 -5 -1 0 0 0 1 0 0 0 1 1-4ring11.dat
1 7 -82.5 -0.25 -5 -1 0 0 0 1 0 0 0 1 1-4ring9.dat
1 15 -82.5 -0.25 -5 -1 0 0 0 1 0 0 0 1 1-4ring8.dat
1 15 -82.5 -0.25 -5 -1 0 0 0 1 0 0 0 1 1-4ring7.dat
1 7 -82.5 -0.25 -5 -1 0 0 0 1 0 0 0 1 1-4ring6.dat
1 0 102.5 -0.25 -5 1 0 0 0 1 0 0 0 1 1-4ring11.dat
1 1 -82.5 -0.25 -5 -4 0 0 0 1 0 0 0 4 1-4disc.dat
1 1 -82.5 -0.25 -5 -12 0 0 0 1 0 0 0 12 1-4ndis.dat
1 1 -95.5 -0.25 -7 0 0 -2 0 1 0 2 0 0 2-4ndis.dat
1 1 -85.5 -0.25 -7 0 0 2 0 1 0 2 0 0 2-4ndis.dat
1 1 15.5 -0.25 -7 0 0 2 0 1 0 2 0 0 2-4ndis.dat
1 1 5.5 -0.25 -7 0 0 -2 0 1 0 2 0 0 2-4ndis.dat
1 1 105.5 -0.25 -7 0 0 -2 0 1 0 2 0 0 2-4ndis.dat
1 1 114.5 -0.25 -7 0 0 2 0 1 0 2 0 0 2-4ndis.dat
1 1 102.5 -0.25 -5 12 0 0 0 1 0 0 0 12 1-4ndis.dat
1 7 15.5 -0.25 -7 0 0 1 0 1 0 -1 0 0 2-4disc.dat
1 7 5.5 -0.25 -7 0 0 -1 0 1 0 1 0 0 2-4disc.dat
1 0 15.5 -0.25 -7 0 0 1 0 1 0 1 0 0 2-4ring1.dat
1 0 5.5 -0.25 -7 0 0 -1 0 1 0 1 0 0 2-4ring1.dat
1 0 -95.5 -0.25 -7 0 0 -1 0 1 0 1 0 0 2-4ring1.dat
1 0 -85.5 -0.25 -7 0 0 1 0 1 0 1 0 0 2-4ring1.dat
1 0 114.5 -0.25 -7 0 0 1 0 1 0 1 0 0 2-4ring1.dat
1 0 105.5 -0.25 -7 0 0 -1 0 1 0 1 0 0 2-4ring1.dat
1 7 114.5 -0.25 -7 0 0 1 0 1 0 -1 0 0 2-4disc.dat
1 7 105.5 -0.25 -7 0 0 -1 0 1 0 -1 0 0 2-4disc.dat
1 7 -95.5 -0.25 -7 0 0 -1 0 1 0 -1 0 0 2-4disc.dat
1 7 -85.5 -0.25 -7 0 0 1 0 1 0 -1 0 0 2-4disc.dat
1 0 102.5 -0.25 -5 1 0 0 0 1 0 0 0 1 1-4ring4.dat
1 8 102.5 -0.25 -5 1 0 0 0 1 0 0 0 1 1-4ring5.dat
1 7 102.5 -0.25 -5 1 0 0 0 1 0 0 0 1 1-4ring6.dat
1 8 102.5 -0.25 -5 1 0 0 0 1 0 0 0 1 1-4ring10.dat
1 15 102.5 -0.25 -5 1 0 0 0 1 0 0 0 1 1-4ring7.dat
1 15 102.5 -0.25 -5 1 0 0 0 1 0 0 0 1 1-4ring8.dat
1 7 102.5 -0.25 -5 1 0 0 0 1 0 0 0 1 1-4ring9.dat
1 1 102.5 -0.25 -5 4 0 0 0 1 0 0 0 4 1-4disc.dat

4 1 -94.5 -0.25 -5 -94.5 -0.25 7 -118 -0.25 10 -97.5 -0.25 -5
4 1 -118 -0.25 -10 -97.5 -0.25 -9 -97.5 -0.25 -5 -118 -0.25 10
4 1 -118 -0.25 10 -94.5 -0.25 7 -82.5 -0.25 7 -2.5 -0.25 7.5
4 1 116.5 -0.25 -7 118 -0.25 -10 118 -0.25 10 116.5 -0.25 -5
4 1 116.5 -0.25 -5 118 -0.25 10 114.5 -0.25 7 114.5 -0.25 -5
3 1 -95.5 -0.25 -9 -97.5 -0.25 -9 -118 -0.25 -10
3 1 -85.5 -0.25 -9 -95.5 -0.25 -9 -118 -0.25 -10
3 1 -83.5 -0.25 -9 -85.5 -0.25 -9 -118 -0.25 -10
3 1 116.5 -0.25 -7 116.5 -0.25 -9 118 -0.25 -10
3 1 116.5 -0.25 -9 114.5 -0.25 -9 118 -0.25 -10
3 1 114.5 -0.25 -9 105.5 -0.25 -9 118 -0.25 -10
3 1 105.5 -0.25 -9 103.5 -0.25 -9 118 -0.25 -10
4 1 102.5 -0.25 7 114.5 -0.25 7 118 -0.25 10 98.25 -0.25 8
4 1 3.5 -0.25 -9 3.5 -0.25 -7 -83.5 -0.25 -7 -83.5 -0.25 -9
4 1 -82.5 -0.25 -5 -83.5 -0.25 -5 -83.5 -0.25 -7 3.5 -0.25 -7
4 1 -82.5 -0.25 -5 3.5 -0.25 -7 3.5 -0.25 -5 -2.5 -0.25 -3.5
4 0 -82.5 -0.25 -1 -2.5 -0.25 -1 -2.5 -0.25 0 -82.5 -0.25 0
4 0 -2.5 -0.25 7 -82.5 -0.25 7 -82.5 -0.25 6 -2.5 -0.25 6
4 8 -2.5 -0.25 6 -82.5 -0.25 6 -82.5 -0.25 5 -2.5 -0.25 5
4 8 -2.5 -0.25 1 -82.5 -0.25 1 -82.5 -0.25 0 -2.5 -0.25 0
4 7 -2.5 -0.25 2 -82.5 -0.25 2 -82.5 -0.25 1 -2.5 -0.25 1
4 7 -2.5 -0.25 5 -82.5 -0.25 5 -82.5 -0.25 4 -2.5 -0.25 4
4 15 -2.5 -0.25 4 -82.5 -0.25 4 -82.5 -0.25 3 -2.5 -0.25 2
3 15 -82.5 -0.25 3 -82.5 -0.25 2 -2.5 -0.25 2
4 0 23.5 -0.25 -1 81.5 -0.25 -1 81.5 -0.25 0 23.5 -0.25 0
4 0 81.5 -0.25 7 23.5 -0.25 7 23.5 -0.25 6 81.5 -0.25 6
4 8 81.5 -0.25 6 23.5 -0.25 6 23.5 -0.25 5 81.5 -0.25 5
4 8 81.5 -0.25 1 23.5 -0.25 1 23.5 -0.25 0 81.5 -0.25 0
4 7 81.5 -0.25 2 23.5 -0.25 2 23.5 -0.25 1 81.5 -0.25 1
4 7 81.5 -0.25 5 23.5 -0.25 5 23.5 -0.25 4 81.5 -0.25 4
4 15 81.5 -0.25 2 81.5 -0.25 4 23.5 -0.25 4 23.5 -0.25 2
4 0 6.5 -0.25 -3.5 6.5 -0.25 -5 7.5 -0.25 -5 7.5 -0.25 -3.5
4 0 14.5 -0.25 -5 14.5 -0.25 -3.5 13.5 -0.25 -3.5 13.5 -0.25 -5
4 8 13.5 -0.25 -5 13.5 -0.25 -3.5 12.5 -0.25 -3.5 12.5 -0.25 -5
4 8 8.5 -0.25 -5 8.5 -0.25 -3.5 7.5 -0.25 -3.5 7.5 -0.25 -5
4 7 9.5 -0.25 -5 9.5 -0.25 -3.5 8.5 -0.25 -3.5 8.5 -0.25 -5
4 7 12.5 -0.25 -5 12.5 -0.25 -3.5 11.5 -0.25 -3.5 11.5 -0.25 -5
4 15 11.5 -0.25 -5 11.5 -0.25 -3.5 10.5 -0.25 -3.5 10.5 -0.25 -5
4 15 10.5 -0.25 -5 10.5 -0.25 -3.5 9.5 -0.25 -3.5 9.5 -0.25 -5
3 0 -1.5 -0.25 -2.5 -2.5 -0.25 -3.5 6.5 -0.25 -3.5
3 0 -2.5 -0.25 -1 -2.5 -0.25 -3.5 -1.5 -0.25 -2.5
3 0 -1.5 -0.25 -2.5 6.5 -0.25 -3.5 7.5 -0.25 -3.5
3 0 -1.5 -0.25 -2.5 7.5 -0.25 -3.5 8.5 -0.25 -3.5
3 0 -1.5 -0.25 -2.5 8.5 -0.25 -3.5 9.5 -0.25 -3.5
4 0 -1.5 -0.25 -2.5 9.5 -0.25 -3.5 10.5 -0.25 -3.5 22.5 -0.25 -2.5
3 0 22.5 -0.25 -2.5 10.5 -0.25 -3.5 11.5 -0.25 -3.5
3 0 22.5 -0.25 -2.5 11.5 -0.25 -3.5 12.5 -0.25 -3.5
3 0 22.5 -0.25 -2.5 13.5 -0.25 -3.5 14.5 -0.25 -3.5
3 0 22.5 -0.25 -2.5 12.5 -0.25 -3.5 13.5 -0.25 -3.5
3 0 22.5 -0.25 -2.5 14.5 -0.25 -3.5 23.5 -0.25 -3.5
3 0 23.5 -0.25 -1 22.5 -0.25 -2.5 23.5 -0.25 -3.5
3 0 23.5 -0.25 0 22.5 -0.25 -2.5 23.5 -0.25 -1
3 0 23.5 -0.25 1 22.5 -0.25 -2.5 23.5 -0.25 0
3 0 23.5 -0.25 2 22.5 -0.25 -2.5 23.5 -0.25 1
4 0 22.5 -0.25 -2.5 23.5 -0.25 2 23.5 -0.25 4 22.5 -0.25 6.5
4 0 23.5 -0.25 7 23.5 -0.25 7.5 -2.5 -0.25 7.5 -2.5 -0.25 7
4 0 23.5 -0.25 7 -2.5 -0.25 7 -1.5 -0.25 6.5 22.5 -0.25 6.5
3 0 -2.5 -0.25 7 -2.5 -0.25 6 -1.5 -0.25 6.5
3 0 -1.5 -0.25 6.5 -2.5 -0.25 6 -2.5 -0.25 5
4 0 -1.5 -0.25 6.5 -2.5 -0.25 4 -2.5 -0.25 2 -1.5 -0.25 -2.5
3 0 -2.5 -0.25 2 -2.5 -0.25 1 -1.5 -0.25 -2.5
3 0 -2.5 -0.25 1 -2.5 -0.25 0 -1.5 -0.25 -2.5
3 0 -2.5 -0.25 0 -2.5 -0.25 -1 -1.5 -0.25 -2.5
3 0 -1.5 -0.25 6.5 -2.5 -0.25 5 -2.5 -0.25 4
3 0 22.5 -0.25 6.5 23.5 -0.25 4 23.5 -0.25 5
3 0 22.5 -0.25 6.5 23.5 -0.25 5 23.5 -0.25 6
3 0 23.5 -0.25 7 22.5 -0.25 6.5 23.5 -0.25 6
3 1 -2.5 -0.25 7.5 -82.5 -0.25 7 -2.5 -0.25 7
4 1 -2.5 -0.25 -1 -82.5 -0.25 -1 -82.5 -0.25 -5 -2.5 -0.25 -3.5
4 1 6.5 -0.25 -3.5 -2.5 -0.25 -3.5 3.5 -0.25 -5 5.5 -0.25 -5
3 1 6.5 -0.25 -3.5 5.5 -0.25 -5 6.5 -0.25 -5
3 1 14.5 -0.25 -3.5 14.5 -0.25 -5 15.5 -0.25 -5
4 1 14.5 -0.25 -3.5 15.5 -0.25 -5 17.5 -0.25 -5 23.5 -0.25 -3.5
3 0 6.5 -0.25 -5 5.5 -0.25 -5 5.5 -0.25 -6
3 0 7.5 -0.25 -5 6.5 -0.25 -5 5.5 -0.25 -6
3 0 8.5 -0.25 -5 7.5 -0.25 -5 5.5 -0.25 -6
3 0 9.5 -0.25 -5 8.5 -0.25 -5 5.5 -0.25 -6
4 0 10.5 -0.25 -5 9.5 -0.25 -5 5.5 -0.25 -6 15.5 -0.25 -6
3 0 11.5 -0.25 -5 10.5 -0.25 -5 15.5 -0.25 -6
3 0 12.5 -0.25 -5 11.5 -0.25 -5 15.5 -0.25 -6
3 0 13.5 -0.25 -5 12.5 -0.25 -5 15.5 -0.25 -6
3 0 14.5 -0.25 -5 13.5 -0.25 -5 15.5 -0.25 -6
3 0 15.5 -0.25 -5 14.5 -0.25 -5 15.5 -0.25 -6
4 0 5.5 -0.25 -8 5.5 -0.25 -9 15.5 -0.25 -9 15.5 -0.25 -8
4 0 -85.5 -0.25 -9 -85.5 -0.25 -8 -95.5 -0.25 -8 -95.5 -0.25 -9
3 0 -94.5 -0.25 -5 -95.5 -0.25 -5 -95.5 -0.25 -6
3 0 -93.5 -0.25 -5 -94.5 -0.25 -5 -95.5 -0.25 -6
3 0 -92.5 -0.25 -5 -93.5 -0.25 -5 -95.5 -0.25 -6
3 0 -91.5 -0.25 -5 -92.5 -0.25 -5 -95.5 -0.25 -6
4 0 -90.5 -0.25 -5 -91.5 -0.25 -5 -95.5 -0.25 -6 -85.5 -0.25 -6
3 0 -89.5 -0.25 -5 -90.5 -0.25 -5 -85.5 -0.25 -6
3 0 -88.5 -0.25 -5 -89.5 -0.25 -5 -85.5 -0.25 -6
3 0 -87.5 -0.25 -5 -88.5 -0.25 -5 -85.5 -0.25 -6
3 0 -86.5 -0.25 -5 -87.5 -0.25 -5 -85.5 -0.25 -6
3 0 -85.5 -0.25 -5 -86.5 -0.25 -5 -85.5 -0.25 -6
3 0 106.5 -0.25 -5 105.5 -0.25 -5 105.5 -0.25 -6
3 0 107.5 -0.25 -5 106.5 -0.25 -5 105.5 -0.25 -6
3 0 108.5 -0.25 -5 107.5 -0.25 -5 105.5 -0.25 -6
4 0 109.5 -0.25 -5 108.5 -0.25 -5 105.5 -0.25 -6 114.5 -0.25 -6
3 0 110.5 -0.25 -5 109.5 -0.25 -5 114.5 -0.25 -6
3 0 111.5 -0.25 -5 110.5 -0.25 -5 114.5 -0.25 -6
3 0 112.5 -0.25 -5 111.5 -0.25 -5 114.5 -0.25 -6
3 0 113.5 -0.25 -5 112.5 -0.25 -5 114.5 -0.25 -6
3 0 114.5 -0.25 -5 113.5 -0.25 -5 114.5 -0.25 -6
4 0 114.5 -0.25 -9 114.5 -0.25 -8 105.5 -0.25 -8 105.5 -0.25 -9
4 1 15.5 -0.25 -9 5.5 -0.25 -9 -118 -0.25 -10 118 -0.25 -10
3 1 5.5 -0.25 -9 3.5 -0.25 -9 -118 -0.25 -10
3 1 3.5 -0.25 -9 -83.5 -0.25 -9 -118 -0.25 -10
4 0 84.5 -0.25 -0.5 84.25 -0.25 0 82.25 -0.25 -0.5 82.25 -0.25 -1
4 0 84.5 -0.25 -0.5 85.75 -0.25 -2 85.75 -0.25 -1 84.75 -0.25 0.25
4 0 87 -0.25 -1 86.75 -0.25 0 85.75 -0.25 -1 85.75 -0.25 -2
4 0 87.25 -0.25 0 86.75 -0.25 0 87 -0.25 -1 88.25 -0.25 -2
3 0 87.25 -0.25 0 88.25 -0.25 -2 88.25 -0.25 -1
4 0 89.5 -0.25 -1 89.75 -0.25 0 89.25 -0.25 0 88.25 -0.25 -1
4 0 92 -0.25 -1 92.25 -0.25 0 91.75 -0.25 0 90.75 -0.25 -1
4 0 94.5 -0.25 -1 94.75 -0.25 0 94.25 -0.25 0 93.25 -0.25 -1
3 0 89.5 -0.25 -1 88.25 -0.25 -1 88.25 -0.25 -2
4 0 89.75 -0.25 0 89.5 -0.25 -1 90.75 -0.25 -2 90.75 -0.25 -1
3 0 92 -0.25 -1 90.75 -0.25 -1 90.75 -0.25 -2
4 0 92.25 -0.25 0 92 -0.25 -1 93.25 -0.25 -2 93.25 -0.25 -1
3 0 94.5 -0.25 -1 93.25 -0.25 -1 93.25 -0.25 -2
4 0 97 -0.25 -1 97.25 -0.25 0 96.75 -0.25 0 95.75 -0.25 -1
4 0 94.75 -0.25 0 94.5 -0.25 -1 95.75 -0.25 -2 95.75 -0.25 -1
3 0 97 -0.25 -1 95.75 -0.25 -1 95.75 -0.25 -2
4 0 97.25 -0.25 0 97 -0.25 -1 98.25 -0.25 -2 98.25 -0.25 -1
4 0 98.25 -0.25 -1 98.25 -0.25 -2 99.5 -0.25 -0.5 99.25 -0.25 0.25
4 0 86.75 -0.25 6 86.75 -0.25 0 87.25 -0.25 0 87.25 -0.25 6
4 0 89.25 -0.25 6 89.25 -0.25 0 89.75 -0.25 0 89.75 -0.25 6
4 0 91.75 -0.25 6 91.75 -0.25 0 92.25 -0.25 0 92.25 -0.25 6
4 0 94.25 -0.25 6 94.25 -0.25 0 94.75 -0.25 0 94.75 -0.25 6
4 0 96.75 -0.25 6 96.75 -0.25 0 97.25 -0.25 0 97.25 -0.25 6
4 0 99.75 -0.25 0 99.25 -0.25 5.75 99.25 -0.25 0.25 99.5 -0.25 -0.5
4 0 84.75 -0.25 0.25 84.75 -0.25 5.75 84.25 -0.25 0 84.5 -0.25 -0.5
4 0 101.75 -0.25 -0.5 99.75 -0.25 0 99.5 -0.25 -0.5 101.75 -0.25 -1
3 1 87 -0.25 -1 85.75 -0.25 -2 88.25 -0.25 -2
3 1 89.5 -0.25 -1 88.25 -0.25 -2 90.75 -0.25 -2
3 1 92 -0.25 -1 90.75 -0.25 -2 93.25 -0.25 -2
4 1 95.75 -0.25 -2 94.5 -0.25 -1 93.25 -0.25 -2 103.5 -0.25 -9
3 1 97 -0.25 -1 95.75 -0.25 -2 98.25 -0.25 -2
4 1 101.75 -0.25 -1 99.5 -0.25 -0.5 98.25 -0.25 -2 102.5 -0.25 -5
3 1 84.5 -0.25 -0.5 82.25 -0.25 -1 85.75 -0.25 -2
3 0 81.5 -0.25 2 81.5 -0.25 1 82.25 -0.25 -0.5
3 0 81.5 -0.25 1 81.5 -0.25 0 82.25 -0.25 -0.5
4 0 82.25 -0.25 -0.5 81.5 -0.25 0 81.5 -0.25 -1 82.25 -0.25 -1
4 0 101.75 -0.25 -0.5 101.75 -0.25 -1 102.5 -0.25 -1 102.5 -0.25 0
3 0 102.5 -0.25 1 101.75 -0.25 -0.5 102.5 -0.25 0
3 0 102.5 -0.25 2 101.75 -0.25 -0.5 102.5 -0.25 1
4 0 101.75 -0.25 -0.5 102.5 -0.25 2 102.5 -0.25 3 101.75 -0.25 6.5
4 8 84.75 -0.25 0.25 85.75 -0.25 -1 86.75 -0.25 0 86.75 -0.25 6
4 8 84.75 -0.25 5.75 84.75 -0.25 0.25 86.75 -0.25 6 85.75 -0.25 7
4 8 89.25 -0.25 0 89.25 -0.25 6 87.25 -0.25 0 88.25 -0.25 -1
4 8 91.75 -0.25 0 91.75 -0.25 6 89.75 -0.25 0 90.75 -0.25 -1
4 8 94.25 -0.25 0 94.25 -0.25 6 92.25 -0.25 0 93.25 -0.25 -1
4 8 96.75 -0.25 0 96.75 -0.25 6 94.75 -0.25 0 95.75 -0.25 -1
4 8 99.25 -0.25 0.25 99.25 -0.25 5.75 97.25 -0.25 0 98.25 -0.25 -1
4 0 82.25 -0.25 6.5 84.25 -0.25 6 84.5 -0.25 6.5 82.25 -0.25 7
4 0 85.75 -0.25 7 85.75 -0.25 8 84.5 -0.25 6.5 84.75 -0.25 5.75
4 0 85.75 -0.25 7 86.75 -0.25 6 87 -0.25 7 85.75 -0.25 8
4 0 87 -0.25 7 86.75 -0.25 6 87.25 -0.25 6 88.25 -0.25 8
3 0 88.25 -0.25 8 87.25 -0.25 6 88.25 -0.25 7
4 0 89.25 -0.25 6 89.75 -0.25 6 89.5 -0.25 7 88.25 -0.25 7
4 0 91.75 -0.25 6 92.25 -0.25 6 92 -0.25 7 90.75 -0.25 7
4 0 94.25 -0.25 6 94.75 -0.25 6 94.5 -0.25 7 93.25 -0.25 7
3 0 88.25 -0.25 8 88.25 -0.25 7 89.5 -0.25 7
4 0 90.75 -0.25 8 89.5 -0.25 7 89.75 -0.25 6 90.75 -0.25 7
3 0 90.75 -0.25 8 90.75 -0.25 7 92 -0.25 7
4 0 93.25 -0.25 8 92 -0.25 7 92.25 -0.25 6 93.25 -0.25 7
3 0 93.25 -0.25 8 93.25 -0.25 7 94.5 -0.25 7
4 0 96.75 -0.25 6 97.25 -0.25 6 97 -0.25 7 95.75 -0.25 7
4 0 95.75 -0.25 8 94.5 -0.25 7 94.75 -0.25 6 95.75 -0.25 7
3 0 95.75 -0.25 8 95.75 -0.25 7 97 -0.25 7
4 0 98.25 -0.25 8 97 -0.25 7 97.25 -0.25 6 98.25 -0.25 7
4 0 99.5 -0.25 6.5 98.25 -0.25 8 98.25 -0.25 7 99.25 -0.25 5.75
4 0 99.25 -0.25 5.75 99.75 -0.25 0 99.75 -0.25 6 99.5 -0.25 6.5
4 0 84.25 -0.25 6 84.25 -0.25 0 84.75 -0.25 5.75 84.5 -0.25 6.5
4 0 99.5 -0.25 6.5 99.75 -0.25 6 101.75 -0.25 6.5 101.75 -0.25 7
3 1 88.25 -0.25 8 85.75 -0.25 8 87 -0.25 7
3 1 90.75 -0.25 8 88.25 -0.25 8 89.5 -0.25 7
3 1 93.25 -0.25 8 90.75 -0.25 8 92 -0.25 7
3 1 95.75 -0.25 8 93.25 -0.25 8 94.5 -0.25 7
3 1 98.25 -0.25 8 95.75 -0.25 8 97 -0.25 7
3 1 98.25 -0.25 8 99.5 -0.25 6.5 101.75 -0.25 7
3 1 85.75 -0.25 8 82.25 -0.25 7 84.5 -0.25 6.5
4 0 82.25 -0.25 6.5 81.5 -0.25 5 81.5 -0.25 4 82.25 -0.25 -0.5
3 0 82.25 -0.25 6.5 81.5 -0.25 6 81.5 -0.25 5
4 0 81.5 -0.25 7 81.5 -0.25 6 82.25 -0.25 6.5 82.25 -0.25 7
4 0 102.5 -0.25 7 101.75 -0.25 7 101.75 -0.25 6.5 102.5 -0.25 6
3 0 101.75 -0.25 6.5 102.5 -0.25 5 102.5 -0.25 6
3 0 101.75 -0.25 6.5 102.5 -0.25 4 102.5 -0.25 5
3 0 101.75 -0.25 6.5 102.5 -0.25 3 102.5 -0.25 4
4 8 84.25 -0.25 0 84.25 -0.25 6 82.25 -0.25 6.5 82.25 -0.25 -0.5
4 8 87.25 -0.25 6 87.25 -0.25 0 89.25 -0.25 6 88.25 -0.25 7
4 8 89.75 -0.25 6 89.75 -0.25 0 91.75 -0.25 6 90.75 -0.25 7
4 8 92.25 -0.25 6 92.25 -0.25 0 94.25 -0.25 6 93.25 -0.25 7
4 8 94.75 -0.25 6 94.75 -0.25 0 96.75 -0.25 6 95.75 -0.25 7
4 8 97.25 -0.25 6 97.25 -0.25 0 99.25 -0.25 5.75 98.25 -0.25 7
3 0 81.5 -0.25 4 81.5 -0.25 2 82.25 -0.25 -0.5
4 8 99.75 -0.25 6 99.75 -0.25 0 101.75 -0.25 -0.5 101.75 -0.25 6.5
3 1 82.25 -0.25 -1 81.5 -0.25 -1 85.75 -0.25 -2
4 1 85.75 -0.25 -2 81.5 -0.25 -1 23.5 -0.25 -1 23.5 -0.25 -3.5
4 1 85.75 -0.25 -2 23.5 -0.25 -3.5 17.5 -0.25 -5 17.5 -0.25 -7
4 1 85.75 -0.25 -2 17.5 -0.25 -7 17.5 -0.25 -9 103.5 -0.25 -9
4 1 102.5 -0.25 -5 98.25 -0.25 -2 95.75 -0.25 -2 103.5 -0.25 -9
3 1 102.5 -0.25 -1 101.75 -0.25 -1 102.5 -0.25 -5
3 1 103.5 -0.25 -5 102.5 -0.25 -5 103.5 -0.25 -7
3 1 102.5 -0.25 -5 103.5 -0.25 -9 103.5 -0.25 -7
3 1 93.25 -0.25 -2 90.75 -0.25 -2 103.5 -0.25 -9
3 1 90.75 -0.25 -2 88.25 -0.25 -2 103.5 -0.25 -9
3 1 88.25 -0.25 -2 85.75 -0.25 -2 103.5 -0.25 -9
3 1 98.25 -0.25 8 101.75 -0.25 7 102.5 -0.25 7
3 1 118 -0.25 10 95.75 -0.25 8 98.25 -0.25 8
3 1 118 -0.25 10 93.25 -0.25 8 95.75 -0.25 8
3 1 118 -0.25 10 90.75 -0.25 8 93.25 -0.25 8
3 1 118 -0.25 10 88.25 -0.25 8 90.75 -0.25 8
3 1 118 -0.25 10 85.75 -0.25 8 88.25 -0.25 8
4 1 81.5 -0.25 7 82.25 -0.25 7 85.75 -0.25 8 23.5 -0.25 7.5
3 1 23.5 -0.25 7.5 23.5 -0.25 7 81.5 -0.25 7
4 1 -118 -0.25 10 -2.5 -0.25 7.5 23.5 -0.25 7.5 118 -0.25 10
3 1 118 -0.25 10 23.5 -0.25 7.5 85.75 -0.25 8
3 1 17.5 -0.25 -9 15.5 -0.25 -9 118 -0.25 -10
3 1 103.5 -0.25 -9 17.5 -0.25 -9 118 -0.25 -10
4 0 113.25 -0.25 -6.75 113.27 -0.25 -6.65 113.06 -0.25 -6.71 113 -0.25 -7
4 0 113.27 -0.25 -6.85 113.25 -0.25 -6.75 113 -0.25 -7 113.06 -0.25 -7.29
4 0 113.32 -0.25 -6.93 113.27 -0.25 -6.85 113.06 -0.25 -7.29 113.22 -0.25 -7.53
4 0 113.4 -0.25 -6.98 113.32 -0.25 -6.93 113.22 -0.25 -7.53 113.46 -0.25 -7.69
4 0 113.5 -0.25 -7 113.4 -0.25 -6.98 113.46 -0.25 -7.69 113.75 -0.25 -7.75
4 0 113.6 -0.25 -6.98 113.5 -0.25 -7 113.75 -0.25 -7.75 114.04 -0.25 -7.69
4 0 113.68 -0.25 -6.93 113.6 -0.25 -6.98 114.04 -0.25 -7.69 114.28 -0.25 -7.53
4 0 113.73 -0.25 -6.85 113.68 -0.25 -6.93 114.28 -0.25 -7.53 114.44 -0.25 -7.29
4 0 113.75 -0.25 -6.75 113.73 -0.25 -6.85 114.44 -0.25 -7.29 114.5 -0.25 -7
4 0 113.73 -0.25 -6.65 113.75 -0.25 -6.75 114.5 -0.25 -7 114.44 -0.25 -6.71
4 0 113.68 -0.25 -6.57 113.73 -0.25 -6.65 114.44 -0.25 -6.71 114.28 -0.25 -6.47
4 0 113.6 -0.25 -6.52 113.68 -0.25 -6.57 114.28 -0.25 -6.47 114.04 -0.25 -6.31
4 0 113.5 -0.25 -6.5 113.6 -0.25 -6.52 114.04 -0.25 -6.31 113.75 -0.25 -6.25
4 0 113.4 -0.25 -6.52 113.5 -0.25 -6.5 113.75 -0.25 -6.25 113.46 -0.25 -6.31
4 0 113.32 -0.25 -6.57 113.4 -0.25 -6.52 113.46 -0.25 -6.31 113.22 -0.25 -6.47
4 0 113.27 -0.25 -6.65 113.32 -0.25 -6.57 113.22 -0.25 -6.47 113.06 -0.25 -6.71
4 7 113.5 -0.25 -6.75 113.27 -0.25 -6.65 113.25 -0.25 -6.75 113.27 -0.25 -6.85
4 7 113.5 -0.25 -6.75 113.27 -0.25 -6.85 113.32 -0.25 -6.93 113.4 -0.25 -6.98
4 7 113.5 -0.25 -6.75 113.4 -0.25 -6.98 113.5 -0.25 -7 113.6 -0.25 -6.98
4 7 113.5 -0.25 -6.75 113.6 -0.25 -6.98 113.68 -0.25 -6.93 113.73 -0.25 -6.85
4 7 113.5 -0.25 -6.75 113.73 -0.25 -6.85 113.75 -0.25 -6.75 113.73 -0.25 -6.65
4 7 113.5 -0.25 -6.75 113.73 -0.25 -6.65 113.68 -0.25 -6.57 113.6 -0.25 -6.52
4 7 113.5 -0.25 -6.75 113.6 -0.25 -6.52 113.5 -0.25 -6.5 113.4 -0.25 -6.52
4 7 113.5 -0.25 -6.75 113.4 -0.25 -6.52 113.32 -0.25 -6.57 113.27 -0.25 -6.65
4 0 106.75 -0.25 -6.75 106.77 -0.25 -6.65 106.56 -0.25 -6.71 106.5 -0.25 -7
4 0 106.77 -0.25 -6.85 106.75 -0.25 -6.75 106.5 -0.25 -7 106.56 -0.25 -7.29
4 0 106.82 -0.25 -6.93 106.77 -0.25 -6.85 106.56 -0.25 -7.29 106.72 -0.25 -7.53
4 0 106.9 -0.25 -6.98 106.82 -0.25 -6.93 106.72 -0.25 -7.53 106.96 -0.25 -7.69
4 0 107 -0.25 -7 106.9 -0.25 -6.98 106.96 -0.25 -7.69 107.25 -0.25 -7.75
4 0 107.1 -0.25 -6.98 107 -0.25 -7 107.25 -0.25 -7.75 107.54 -0.25 -7.69
4 0 107.18 -0.25 -6.93 107.1 -0.25 -6.98 107.54 -0.25 -7.69 107.78 -0.25 -7.53
4 0 107.23 -0.25 -6.85 107.18 -0.25 -6.93 107.78 -0.25 -7.53 107.94 -0.25 -7.29
4 0 107.25 -0.25 -6.75 107.23 -0.25 -6.85 107.94 -0.25 -7.29 108 -0.25 -7
4 0 107.23 -0.25 -6.65 107.25 -0.25 -6.75 108 -0.25 -7 107.94 -0.25 -6.71
4 0 107.18 -0.25 -6.57 107.23 -0.25 -6.65 107.94 -0.25 -6.71 107.78 -0.25 -6.47
4 0 107.1 -0.25 -6.52 107.18 -0.25 -6.57 107.78 -0.25 -6.47 107.54 -0.25 -6.31
4 0 107 -0.25 -6.5 107.1 -0.25 -6.52 107.54 -0.25 -6.31 107.25 -0.25 -6.25
4 0 106.9 -0.25 -6.52 107 -0.25 -6.5 107.25 -0.25 -6.25 106.96 -0.25 -6.31
4 0 106.82 -0.25 -6.57 106.9 -0.25 -6.52 106.96 -0.25 -6.31 106.72 -0.25 -6.47
4 0 106.77 -0.25 -6.65 106.82 -0.25 -6.57 106.72 -0.25 -6.47 106.56 -0.25 -6.71
4 7 107 -0.25 -6.75 106.77 -0.25 -6.65 106.75 -0.25 -6.75 106.77 -0.25 -6.85
4 7 107 -0.25 -6.75 106.77 -0.25 -6.85 106.82 -0.25 -6.93 106.9 -0.25 -6.98
4 7 107 -0.25 -6.75 106.9 -0.25 -6.98 107 -0.25 -7 107.1 -0.25 -6.98
4 7 107 -0.25 -6.75 107.1 -0.25 -6.98 107.18 -0.25 -6.93 107.23 -0.25 -6.85
4 7 107 -0.25 -6.75 107.23 -0.25 -6.85 107.25 -0.25 -6.75 107.23 -0.25 -6.65
4 7 107 -0.25 -6.75 107.23 -0.25 -6.65 107.18 -0.25 -6.57 107.1 -0.25 -6.52
4 7 107 -0.25 -6.75 107.1 -0.25 -6.52 107 -0.25 -6.5 106.9 -0.25 -6.52
4 7 107 -0.25 -6.75 106.9 -0.25 -6.52 106.82 -0.25 -6.57 106.77 -0.25 -6.65
4 0 110 -0.25 -6.75 110.02 -0.25 -6.65 109.81 -0.25 -6.71 109.75 -0.25 -7
4 0 110.02 -0.25 -6.85 110 -0.25 -6.75 109.75 -0.25 -7 109.81 -0.25 -7.29
4 0 110.07 -0.25 -6.93 110.02 -0.25 -6.85 109.81 -0.25 -7.29 109.97 -0.25 -7.53
4 0 110.15 -0.25 -6.98 110.07 -0.25 -6.93 109.97 -0.25 -7.53 110.21 -0.25 -7.69
4 0 110.25 -0.25 -7 110.15 -0.25 -6.98 110.21 -0.25 -7.69 110.5 -0.25 -7.75
4 0 110.35 -0.25 -6.98 110.25 -0.25 -7 110.5 -0.25 -7.75 110.79 -0.25 -7.69
4 0 110.43 -0.25 -6.93 110.35 -0.25 -6.98 110.79 -0.25 -7.69 111.03 -0.25 -7.53
4 0 110.48 -0.25 -6.85 110.43 -0.25 -6.93 111.03 -0.25 -7.53 111.19 -0.25 -7.29
4 0 110.5 -0.25 -6.75 110.48 -0.25 -6.85 111.19 -0.25 -7.29 111.25 -0.25 -7
4 0 110.48 -0.25 -6.65 110.5 -0.25 -6.75 111.25 -0.25 -7 111.19 -0.25 -6.71
4 0 110.43 -0.25 -6.57 110.48 -0.25 -6.65 111.19 -0.25 -6.71 111.03 -0.25 -6.47
4 0 110.35 -0.25 -6.52 110.43 -0.25 -6.57 111.03 -0.25 -6.47 110.79 -0.25 -6.31
4 0 110.25 -0.25 -6.5 110.35 -0.25 -6.52 110.79 -0.25 -6.31 110.5 -0.25 -6.25
4 0 110.15 -0.25 -6.52 110.25 -0.25 -6.5 110.5 -0.25 -6.25 110.21 -0.25 -6.31
4 0 110.07 -0.25 -6.57 110.15 -0.25 -6.52 110.21 -0.25 -6.31 109.97 -0.25 -6.47
4 0 110.02 -0.25 -6.65 110.07 -0.25 -6.57 109.97 -0.25 -6.47 109.81 -0.25 -6.71
4 7 110.25 -0.25 -6.75 110.02 -0.25 -6.65 110 -0.25 -6.75 110.02 -0.25 -6.85
4 7 110.25 -0.25 -6.75 110.02 -0.25 -6.85 110.07 -0.25 -6.93 110.15 -0.25 -6.98
4 7 110.25 -0.25 -6.75 110.15 -0.25 -6.98 110.25 -0.25 -7 110.35 -0.25 -6.98
4 7 110.25 -0.25 -6.75 110.35 -0.25 -6.98 110.43 -0.25 -6.93 110.48 -0.25 -6.85
4 7 110.25 -0.25 -6.75 110.48 -0.25 -6.85 110.5 -0.25 -6.75 110.48 -0.25 -6.65
4 7 110.25 -0.25 -6.75 110.48 -0.25 -6.65 110.43 -0.25 -6.57 110.35 -0.25 -6.52
4 7 110.25 -0.25 -6.75 110.35 -0.25 -6.52 110.25 -0.25 -6.5 110.15 -0.25 -6.52
4 7 110.25 -0.25 -6.75 110.15 -0.25 -6.52 110.07 -0.25 -6.57 110.02 -0.25 -6.65
4 0 10 -0.25 -6.75 10.02 -0.25 -6.65 9.81 -0.25 -6.71 9.75 -0.25 -7
4 0 10.02 -0.25 -6.85 10 -0.25 -6.75 9.75 -0.25 -7 9.81 -0.25 -7.29
4 0 10.07 -0.25 -6.93 10.02 -0.25 -6.85 9.81 -0.25 -7.29 9.97 -0.25 -7.53
4 0 10.15 -0.25 -6.98 10.07 -0.25 -6.93 9.97 -0.25 -7.53 10.21 -0.25 -7.69
4 0 10.25 -0.25 -7 10.15 -0.25 -6.98 10.21 -0.25 -7.69 10.5 -0.25 -7.75
4 0 10.35 -0.25 -6.98 10.25 -0.25 -7 10.5 -0.25 -7.75 10.79 -0.25 -7.69
4 0 10.43 -0.25 -6.93 10.35 -0.25 -6.98 10.79 -0.25 -7.69 11.03 -0.25 -7.53
4 0 10.48 -0.25 -6.85 10.43 -0.25 -6.93 11.03 -0.25 -7.53 11.19 -0.25 -7.29
4 0 10.5 -0.25 -6.75 10.48 -0.25 -6.85 11.19 -0.25 -7.29 11.25 -0.25 -7
4 0 10.48 -0.25 -6.65 10.5 -0.25 -6.75 11.25 -0.25 -7 11.19 -0.25 -6.71
4 0 10.43 -0.25 -6.57 10.48 -0.25 -6.65 11.19 -0.25 -6.71 11.03 -0.25 -6.47
4 0 10.35 -0.25 -6.52 10.43 -0.25 -6.57 11.03 -0.25 -6.47 10.79 -0.25 -6.31
4 0 10.25 -0.25 -6.5 10.35 -0.25 -6.52 10.79 -0.25 -6.31 10.5 -0.25 -6.25
4 0 10.15 -0.25 -6.52 10.25 -0.25 -6.5 10.5 -0.25 -6.25 10.21 -0.25 -6.31
4 0 10.07 -0.25 -6.57 10.15 -0.25 -6.52 10.21 -0.25 -6.31 9.97 -0.25 -6.47
4 0 10.02 -0.25 -6.65 10.07 -0.25 -6.57 9.97 -0.25 -6.47 9.81 -0.25 -6.71
4 7 10.25 -0.25 -6.75 10.02 -0.25 -6.65 10 -0.25 -6.75 10.02 -0.25 -6.85
4 7 10.25 -0.25 -6.75 10.02 -0.25 -6.85 10.07 -0.25 -6.93 10.15 -0.25 -6.98
4 7 10.25 -0.25 -6.75 10.15 -0.25 -6.98 10.25 -0.25 -7 10.35 -0.25 -6.98
4 7 10.25 -0.25 -6.75 10.35 -0.25 -6.98 10.43 -0.25 -6.93 10.48 -0.25 -6.85
4 7 10.25 -0.25 -6.75 10.48 -0.25 -6.85 10.5 -0.25 -6.75 10.48 -0.25 -6.65
4 7 10.25 -0.25 -6.75 10.48 -0.25 -6.65 10.43 -0.25 -6.57 10.35 -0.25 -6.52
4 7 10.25 -0.25 -6.75 10.35 -0.25 -6.52 10.25 -0.25 -6.5 10.15 -0.25 -6.52
4 7 10.25 -0.25 -6.75 10.15 -0.25 -6.52 10.07 -0.25 -6.57 10.02 -0.25 -6.65
4 0 13.25 -0.25 -6.75 13.27 -0.25 -6.65 13.06 -0.25 -6.71 13 -0.25 -7
4 0 13.27 -0.25 -6.85 13.25 -0.25 -6.75 13 -0.25 -7 13.06 -0.25 -7.29
4 0 13.32 -0.25 -6.93 13.27 -0.25 -6.85 13.06 -0.25 -7.29 13.22 -0.25 -7.53
4 0 13.4 -0.25 -6.98 13.32 -0.25 -6.93 13.22 -0.25 -7.53 13.46 -0.25 -7.69
4 0 13.5 -0.25 -7 13.4 -0.25 -6.98 13.46 -0.25 -7.69 13.75 -0.25 -7.75
4 0 13.6 -0.25 -6.98 13.5 -0.25 -7 13.75 -0.25 -7.75 14.04 -0.25 -7.69
4 0 13.68 -0.25 -6.93 13.6 -0.25 -6.98 14.04 -0.25 -7.69 14.28 -0.25 -7.53
4 0 13.73 -0.25 -6.85 13.68 -0.25 -6.93 14.28 -0.25 -7.53 14.44 -0.25 -7.29
4 0 13.75 -0.25 -6.75 13.73 -0.25 -6.85 14.44 -0.25 -7.29 14.5 -0.25 -7
4 0 13.73 -0.25 -6.65 13.75 -0.25 -6.75 14.5 -0.25 -7 14.44 -0.25 -6.71
4 0 13.68 -0.25 -6.57 13.73 -0.25 -6.65 14.44 -0.25 -6.71 14.28 -0.25 -6.47
4 0 13.6 -0.25 -6.52 13.68 -0.25 -6.57 14.28 -0.25 -6.47 14.04 -0.25 -6.31
4 0 13.5 -0.25 -6.5 13.6 -0.25 -6.52 14.04 -0.25 -6.31 13.75 -0.25 -6.25
4 0 13.4 -0.25 -6.52 13.5 -0.25 -6.5 13.75 -0.25 -6.25 13.46 -0.25 -6.31
4 0 13.32 -0.25 -6.57 13.4 -0.25 -6.52 13.46 -0.25 -6.31 13.22 -0.25 -6.47
4 0 13.27 -0.25 -6.65 13.32 -0.25 -6.57 13.22 -0.25 -6.47 13.06 -0.25 -6.71
4 7 13.5 -0.25 -6.75 13.27 -0.25 -6.65 13.25 -0.25 -6.75 13.27 -0.25 -6.85
4 7 13.5 -0.25 -6.75 13.27 -0.25 -6.85 13.32 -0.25 -6.93 13.4 -0.25 -6.98
4 7 13.5 -0.25 -6.75 13.4 -0.25 -6.98 13.5 -0.25 -7 13.6 -0.25 -6.98
4 7 13.5 -0.25 -6.75 13.6 -0.25 -6.98 13.68 -0.25 -6.93 13.73 -0.25 -6.85
4 7 13.5 -0.25 -6.75 13.73 -0.25 -6.85 13.75 -0.25 -6.75 13.73 -0.25 -6.65
4 7 13.5 -0.25 -6.75 13.73 -0.25 -6.65 13.68 -0.25 -6.57 13.6 -0.25 -6.52
4 7 13.5 -0.25 -6.75 13.6 -0.25 -6.52 13.5 -0.25 -6.5 13.4 -0.25 -6.52
4 7 13.5 -0.25 -6.75 13.4 -0.25 -6.52 13.32 -0.25 -6.57 13.27 -0.25 -6.65
4 0 6.75 -0.25 -6.75 6.77 -0.25 -6.65 6.56 -0.25 -6.71 6.5 -0.25 -7
4 0 6.77 -0.25 -6.85 6.75 -0.25 -6.75 6.5 -0.25 -7 6.56 -0.25 -7.29
4 0 6.82 -0.25 -6.93 6.77 -0.25 -6.85 6.56 -0.25 -7.29 6.72 -0.25 -7.53
4 0 6.9 -0.25 -6.98 6.82 -0.25 -6.93 6.72 -0.25 -7.53 6.96 -0.25 -7.69
4 0 7 -0.25 -7 6.9 -0.25 -6.98 6.96 -0.25 -7.69 7.25 -0.25 -7.75
4 0 7.1 -0.25 -6.98 7 -0.25 -7 7.25 -0.25 -7.75 7.54 -0.25 -7.69
4 0 7.18 -0.25 -6.93 7.1 -0.25 -6.98 7.54 -0.25 -7.69 7.78 -0.25 -7.53
4 0 7.23 -0.25 -6.85 7.18 -0.25 -6.93 7.78 -0.25 -7.53 7.94 -0.25 -7.29
4 0 7.25 -0.25 -6.75 7.23 -0.25 -6.85 7.94 -0.25 -7.29 8 -0.25 -7
4 0 7.23 -0.25 -6.65 7.25 -0.25 -6.75 8 -0.25 -7 7.94 -0.25 -6.71
4 0 7.18 -0.25 -6.57 7.23 -0.25 -6.65 7.94 -0.25 -6.71 7.78 -0.25 -6.47
4 0 7.1 -0.25 -6.52 7.18 -0.25 -6.57 7.78 -0.25 -6.47 7.54 -0.25 -6.31
4 0 7 -0.25 -6.5 7.1 -0.25 -6.52 7.54 -0.25 -6.31 7.25 -0.25 -6.25
4 0 6.9 -0.25 -6.52 7 -0.25 -6.5 7.25 -0.25 -6.25 6.96 -0.25 -6.31
4 0 6.82 -0.25 -6.57 6.9 -0.25 -6.52 6.96 -0.25 -6.31 6.72 -0.25 -6.47
4 0 6.77 -0.25 -6.65 6.82 -0.25 -6.57 6.72 -0.25 -6.47 6.56 -0.25 -6.71
4 7 7 -0.25 -6.75 6.77 -0.25 -6.65 6.75 -0.25 -6.75 6.77 -0.25 -6.85
4 7 7 -0.25 -6.75 6.77 -0.25 -6.85 6.82 -0.25 -6.93 6.9 -0.25 -6.98
4 7 7 -0.25 -6.75 6.9 -0.25 -6.98 7 -0.25 -7 7.1 -0.25 -6.98
4 7 7 -0.25 -6.75 7.1 -0.25 -6.98 7.18 -0.25 -6.93 7.23 -0.25 -6.85
4 7 7 -0.25 -6.75 7.23 -0.25 -6.85 7.25 -0.25 -6.75 7.23 -0.25 -6.65
4 7 7 -0.25 -6.75 7.23 -0.25 -6.65 7.18 -0.25 -6.57 7.1 -0.25 -6.52
4 7 7 -0.25 -6.75 7.1 -0.25 -6.52 7 -0.25 -6.5 6.9 -0.25 -6.52
4 7 7 -0.25 -6.75 6.9 -0.25 -6.52 6.82 -0.25 -6.57 6.77 -0.25 -6.65
4 0 -91 -0.25 -6.75 -90.98 -0.25 -6.65 -91.19 -0.25 -6.71 -91.25 -0.25 -7
4 0 -90.98 -0.25 -6.85 -91 -0.25 -6.75 -91.25 -0.25 -7 -91.19 -0.25 -7.29
4 0 -90.93 -0.25 -6.93 -90.98 -0.25 -6.85 -91.19 -0.25 -7.29 -91.03 -0.25 -7.53
4 0 -90.85 -0.25 -6.98 -90.93 -0.25 -6.93 -91.03 -0.25 -7.53 -90.79 -0.25 -7.69
4 0 -90.75 -0.25 -7 -90.85 -0.25 -6.98 -90.79 -0.25 -7.69 -90.5 -0.25 -7.75
4 0 -90.65 -0.25 -6.98 -90.75 -0.25 -7 -90.5 -0.25 -7.75 -90.21 -0.25 -7.69
4 0 -90.57 -0.25 -6.93 -90.65 -0.25 -6.98 -90.21 -0.25 -7.69 -89.97 -0.25 -7.53
4 0 -90.52 -0.25 -6.85 -90.57 -0.25 -6.93 -89.97 -0.25 -7.53 -89.81 -0.25 -7.29
4 0 -90.5 -0.25 -6.75 -90.52 -0.25 -6.85 -89.81 -0.25 -7.29 -89.75 -0.25 -7
4 0 -90.52 -0.25 -6.65 -90.5 -0.25 -6.75 -89.75 -0.25 -7 -89.81 -0.25 -6.71
4 0 -90.57 -0.25 -6.57 -90.52 -0.25 -6.65 -89.81 -0.25 -6.71 -89.97 -0.25 -6.47
4 0 -90.65 -0.25 -6.52 -90.57 -0.25 -6.57 -89.97 -0.25 -6.47 -90.21 -0.25 -6.31
4 0 -90.75 -0.25 -6.5 -90.65 -0.25 -6.52 -90.21 -0.25 -6.31 -90.5 -0.25 -6.25
4 0 -90.85 -0.25 -6.52 -90.75 -0.25 -6.5 -90.5 -0.25 -6.25 -90.79 -0.25 -6.31
4 0 -90.93 -0.25 -6.57 -90.85 -0.25 -6.52 -90.79 -0.25 -6.31 -91.03 -0.25 -6.47
4 0 -90.98 -0.25 -6.65 -90.93 -0.25 -6.57 -91.03 -0.25 -6.47 -91.19 -0.25 -6.71
4 7 -90.75 -0.25 -6.75 -90.98 -0.25 -6.65 -91 -0.25 -6.75 -90.98 -0.25 -6.85
4 7 -90.75 -0.25 -6.75 -90.98 -0.25 -6.85 -90.93 -0.25 -6.93 -90.85 -0.25 -6.98
4 7 -90.75 -0.25 -6.75 -90.85 -0.25 -6.98 -90.75 -0.25 -7 -90.65 -0.25 -6.98
4 7 -90.75 -0.25 -6.75 -90.65 -0.25 -6.98 -90.57 -0.25 -6.93 -90.52 -0.25 -6.85
4 7 -90.75 -0.25 -6.75 -90.52 -0.25 -6.85 -90.5 -0.25 -6.75 -90.52 -0.25 -6.65
4 7 -90.75 -0.25 -6.75 -90.52 -0.25 -6.65 -90.57 -0.25 -6.57 -90.65 -0.25 -6.52
4 7 -90.75 -0.25 -6.75 -90.65 -0.25 -6.52 -90.75 -0.25 -6.5 -90.85 -0.25 -6.52
4 7 -90.75 -0.25 -6.75 -90.85 -0.25 -6.52 -90.93 -0.25 -6.57 -90.98 -0.25 -6.65
4 0 -94.25 -0.25 -6.75 -94.23 -0.25 -6.65 -94.44 -0.25 -6.71 -94.5 -0.25 -7
4 0 -94.23 -0.25 -6.85 -94.25 -0.25 -6.75 -94.5 -0.25 -7 -94.44 -0.25 -7.29
4 0 -94.18 -0.25 -6.93 -94.23 -0.25 -6.85 -94.44 -0.25 -7.29 -94.28 -0.25 -7.53
4 0 -94.1 -0.25 -6.98 -94.18 -0.25 -6.93 -94.28 -0.25 -7.53 -94.04 -0.25 -7.69
4 0 -94 -0.25 -7 -94.1 -0.25 -6.98 -94.04 -0.25 -7.69 -93.75 -0.25 -7.75
4 0 -93.9 -0.25 -6.98 -94 -0.25 -7 -93.75 -0.25 -7.75 -93.46 -0.25 -7.69
4 0 -93.82 -0.25 -6.93 -93.9 -0.25 -6.98 -93.46 -0.25 -7.69 -93.22 -0.25 -7.53
4 0 -93.77 -0.25 -6.85 -93.82 -0.25 -6.93 -93.22 -0.25 -7.53 -93.06 -0.25 -7.29
4 0 -93.75 -0.25 -6.75 -93.77 -0.25 -6.85 -93.06 -0.25 -7.29 -93 -0.25 -7
4 0 -93.77 -0.25 -6.65 -93.75 -0.25 -6.75 -93 -0.25 -7 -93.06 -0.25 -6.71
4 0 -93.82 -0.25 -6.57 -93.77 -0.25 -6.65 -93.06 -0.25 -6.71 -93.22 -0.25 -6.47
4 0 -93.9 -0.25 -6.52 -93.82 -0.25 -6.57 -93.22 -0.25 -6.47 -93.46 -0.25 -6.31
4 0 -94 -0.25 -6.5 -93.9 -0.25 -6.52 -93.46 -0.25 -6.31 -93.75 -0.25 -6.25
4 0 -94.1 -0.25 -6.52 -94 -0.25 -6.5 -93.75 -0.25 -6.25 -94.04 -0.25 -6.31
4 0 -94.18 -0.25 -6.57 -94.1 -0.25 -6.52 -94.04 -0.25 -6.31 -94.28 -0.25 -6.47
4 0 -94.23 -0.25 -6.65 -94.18 -0.25 -6.57 -94.28 -0.25 -6.47 -94.44 -0.25 -6.71
4 7 -94 -0.25 -6.75 -94.23 -0.25 -6.65 -94.25 -0.25 -6.75 -94.23 -0.25 -6.85
4 7 -94 -0.25 -6.75 -94.23 -0.25 -6.85 -94.18 -0.25 -6.93 -94.1 -0.25 -6.98
4 7 -94 -0.25 -6.75 -94.1 -0.25 -6.98 -94 -0.25 -7 -93.9 -0.25 -6.98
4 7 -94 -0.25 -6.75 -93.9 -0.25 -6.98 -93.82 -0.25 -6.93 -93.77 -0.25 -6.85
4 7 -94 -0.25 -6.75 -93.77 -0.25 -6.85 -93.75 -0.25 -6.75 -93.77 -0.25 -6.65
4 7 -94 -0.25 -6.75 -93.77 -0.25 -6.65 -93.82 -0.25 -6.57 -93.9 -0.25 -6.52
4 7 -94 -0.25 -6.75 -93.9 -0.25 -6.52 -94 -0.25 -6.5 -94.1 -0.25 -6.52
4 7 -94 -0.25 -6.75 -94.1 -0.25 -6.52 -94.18 -0.25 -6.57 -94.23 -0.25 -6.65
4 0 -87.5 -0.25 -6.75 -87.48 -0.25 -6.65 -87.69 -0.25 -6.71 -87.75 -0.25 -7
4 0 -87.48 -0.25 -6.85 -87.5 -0.25 -6.75 -87.75 -0.25 -7 -87.69 -0.25 -7.29
4 0 -87.43 -0.25 -6.93 -87.48 -0.25 -6.85 -87.69 -0.25 -7.29 -87.53 -0.25 -7.53
4 0 -87.35 -0.25 -6.98 -87.43 -0.25 -6.93 -87.53 -0.25 -7.53 -87.29 -0.25 -7.69
4 0 -87.25 -0.25 -7 -87.35 -0.25 -6.98 -87.29 -0.25 -7.69 -87 -0.25 -7.75
4 0 -87.15 -0.25 -6.98 -87.25 -0.25 -7 -87 -0.25 -7.75 -86.71 -0.25 -7.69
4 0 -87.07 -0.25 -6.93 -87.15 -0.25 -6.98 -86.71 -0.25 -7.69 -86.47 -0.25 -7.53
4 0 -87.02 -0.25 -6.85 -87.07 -0.25 -6.93 -86.47 -0.25 -7.53 -86.31 -0.25 -7.29
4 0 -87 -0.25 -6.75 -87.02 -0.25 -6.85 -86.31 -0.25 -7.29 -86.25 -0.25 -7
4 0 -87.02 -0.25 -6.65 -87 -0.25 -6.75 -86.25 -0.25 -7 -86.31 -0.25 -6.71
4 0 -87.07 -0.25 -6.57 -87.02 -0.25 -6.65 -86.31 -0.25 -6.71 -86.47 -0.25 -6.47
4 0 -87.15 -0.25 -6.52 -87.07 -0.25 -6.57 -86.47 -0.25 -6.47 -86.71 -0.25 -6.31
4 0 -87.25 -0.25 -6.5 -87.15 -0.25 -6.52 -86.71 -0.25 -6.31 -87 -0.25 -6.25
4 0 -87.35 -0.25 -6.52 -87.25 -0.25 -6.5 -87 -0.25 -6.25 -87.29 -0.25 -6.31
4 0 -87.43 -0.25 -6.57 -87.35 -0.25 -6.52 -87.29 -0.25 -6.31 -87.53 -0.25 -6.47
4 0 -87.48 -0.25 -6.65 -87.43 -0.25 -6.57 -87.53 -0.25 -6.47 -87.69 -0.25 -6.71
4 7 -87.25 -0.25 -6.75 -87.48 -0.25 -6.65 -87.5 -0.25 -6.75 -87.48 -0.25 -6.85
4 7 -87.25 -0.25 -6.75 -87.48 -0.25 -6.85 -87.43 -0.25 -6.93 -87.35 -0.25 -6.98
4 7 -87.25 -0.25 -6.75 -87.35 -0.25 -6.98 -87.25 -0.25 -7 -87.15 -0.25 -6.98
4 7 -87.25 -0.25 -6.75 -87.15 -0.25 -6.98 -87.07 -0.25 -6.93 -87.02 -0.25 -6.85
4 7 -87.25 -0.25 -6.75 -87.02 -0.25 -6.85 -87 -0.25 -6.75 -87.02 -0.25 -6.65
4 7 -87.25 -0.25 -6.75 -87.02 -0.25 -6.65 -87.07 -0.25 -6.57 -87.15 -0.25 -6.52
4 7 -87.25 -0.25 -6.75 -87.15 -0.25 -6.52 -87.25 -0.25 -6.5 -87.35 -0.25 -6.52
4 7 -87.25 -0.25 -6.75 -87.35 -0.25 -6.52 -87.43 -0.25 -6.57 -87.48 -0.25 -6.65
4 0 -1 -0.25 -1.25 -0.98 -0.25 -1.15 -1.19 -0.25 -1.21 -1.25 -0.25 -1.5
4 0 -0.98 -0.25 -1.35 -1 -0.25 -1.25 -1.25 -0.25 -1.5 -1.19 -0.25 -1.79
4 0 -0.93 -0.25 -1.43 -0.98 -0.25 -1.35 -1.19 -0.25 -1.79 -1.03 -0.25 -2.03
4 0 -0.85 -0.25 -1.48 -0.93 -0.25 -1.43 -1.03 -0.25 -2.03 -0.79 -0.25 -2.19
4 0 -0.75 -0.25 -1.5 -0.85 -0.25 -1.48 -0.79 -0.25 -2.19 -0.5 -0.25 -2.25
4 0 -0.65 -0.25 -1.48 -0.75 -0.25 -1.5 -0.5 -0.25 -2.25 -0.21 -0.25 -2.19
4 0 -0.57 -0.25 -1.43 -0.65 -0.25 -1.48 -0.21 -0.25 -2.19 0.03 -0.25 -2.03
4 0 -0.52 -0.25 -1.35 -0.57 -0.25 -1.43 0.03 -0.25 -2.03 0.19 -0.25 -1.79
4 0 -0.5 -0.25 -1.25 -0.52 -0.25 -1.35 0.19 -0.25 -1.79 0.25 -0.25 -1.5
4 0 -0.52 -0.25 -1.15 -0.5 -0.25 -1.25 0.25 -0.25 -1.5 0.19 -0.25 -1.21
4 0 -0.57 -0.25 -1.07 -0.52 -0.25 -1.15 0.19 -0.25 -1.21 0.03 -0.25 -0.97
4 0 -0.65 -0.25 -1.02 -0.57 -0.25 -1.07 0.03 -0.25 -0.97 -0.21 -0.25 -0.81
4 0 -0.75 -0.25 -1 -0.65 -0.25 -1.02 -0.21 -0.25 -0.81 -0.5 -0.25 -0.75
4 0 -0.85 -0.25 -1.02 -0.75 -0.25 -1 -0.5 -0.25 -0.75 -0.79 -0.25 -0.81
4 0 -0.93 -0.25 -1.07 -0.85 -0.25 -1.02 -0.79 -0.25 -0.81 -1.03 -0.25 -0.97
4 0 -0.98 -0.25 -1.15 -0.93 -0.25 -1.07 -1.03 -0.25 -0.97 -1.19 -0.25 -1.21
4 7 -0.75 -0.25 -1.25 -0.98 -0.25 -1.15 -1 -0.25 -1.25 -0.98 -0.25 -1.35
4 7 -0.75 -0.25 -1.25 -0.98 -0.25 -1.35 -0.93 -0.25 -1.43 -0.85 -0.25 -1.48
4 7 -0.75 -0.25 -1.25 -0.85 -0.25 -1.48 -0.75 -0.25 -1.5 -0.65 -0.25 -1.48
4 7 -0.75 -0.25 -1.25 -0.65 -0.25 -1.48 -0.57 -0.25 -1.43 -0.52 -0.25 -1.35
4 7 -0.75 -0.25 -1.25 -0.52 -0.25 -1.35 -0.5 -0.25 -1.25 -0.52 -0.25 -1.15
4 7 -0.75 -0.25 -1.25 -0.52 -0.25 -1.15 -0.57 -0.25 -1.07 -0.65 -0.25 -1.02
4 7 -0.75 -0.25 -1.25 -0.65 -0.25 -1.02 -0.75 -0.25 -1 -0.85 -0.25 -1.02
4 7 -0.75 -0.25 -1.25 -0.85 -0.25 -1.02 -0.93 -0.25 -1.07 -0.98 -0.25 -1.15
4 0 -1 -0.25 5.75 -0.98 -0.25 5.85 -1.19 -0.25 5.79 -1.25 -0.25 5.5
4 0 -0.98 -0.25 5.65 -1 -0.25 5.75 -1.25 -0.25 5.5 -1.19 -0.25 5.21
4 0 -0.93 -0.25 5.57 -0.98 -0.25 5.65 -1.19 -0.25 5.21 -1.03 -0.25 4.97
4 0 -0.85 -0.25 5.52 -0.93 -0.25 5.57 -1.03 -0.25 4.97 -0.79 -0.25 4.81
4 0 -0.75 -0.25 5.5 -0.85 -0.25 5.52 -0.79 -0.25 4.81 -0.5 -0.25 4.75
4 0 -0.65 -0.25 5.52 -0.75 -0.25 5.5 -0.5 -0.25 4.75 -0.21 -0.25 4.81
4 0 -0.57 -0.25 5.57 -0.65 -0.25 5.52 -0.21 -0.25 4.81 0.03 -0.25 4.97
4 0 -0.52 -0.25 5.65 -0.57 -0.25 5.57 0.03 -0.25 4.97 0.19 -0.25 5.21
4 0 -0.5 -0.25 5.75 -0.52 -0.25 5.65 0.19 -0.25 5.21 0.25 -0.25 5.5
4 0 -0.52 -0.25 5.85 -0.5 -0.25 5.75 0.25 -0.25 5.5 0.19 -0.25 5.79
4 0 -0.57 -0.25 5.93 -0.52 -0.25 5.85 0.19 -0.25 5.79 0.03 -0.25 6.03
4 0 -0.65 -0.25 5.98 -0.57 -0.25 5.93 0.03 -0.25 6.03 -0.21 -0.25 6.19
4 0 -0.75 -0.25 6 -0.65 -0.25 5.98 -0.21 -0.25 6.19 -0.5 -0.25 6.25
4 0 -0.85 -0.25 5.98 -0.75 -0.25 6 -0.5 -0.25 6.25 -0.79 -0.25 6.19
4 0 -0.93 -0.25 5.93 -0.85 -0.25 5.98 -0.79 -0.25 6.19 -1.03 -0.25 6.03
4 0 -0.98 -0.25 5.85 -0.93 -0.25 5.93 -1.03 -0.25 6.03 -1.19 -0.25 5.79
4 7 -0.75 -0.25 5.75 -0.98 -0.25 5.85 -1 -0.25 5.75 -0.98 -0.25 5.65
4 7 -0.75 -0.25 5.75 -0.98 -0.25 5.65 -0.93 -0.25 5.57 -0.85 -0.25 5.52
4 7 -0.75 -0.25 5.75 -0.85 -0.25 5.52 -0.75 -0.25 5.5 -0.65 -0.25 5.52
4 7 -0.75 -0.25 5.75 -0.65 -0.25 5.52 -0.57 -0.25 5.57 -0.52 -0.25 5.65
4 7 -0.75 -0.25 5.75 -0.52 -0.25 5.65 -0.5 -0.25 5.75 -0.52 -0.25 5.85
4 7 -0.75 -0.25 5.75 -0.52 -0.25 5.85 -0.57 -0.25 5.93 -0.65 -0.25 5.98
4 7 -0.75 -0.25 5.75 -0.65 -0.25 5.98 -0.75 -0.25 6 -0.85 -0.25 5.98
4 7 -0.75 -0.25 5.75 -0.85 -0.25 5.98 -0.93 -0.25 5.93 -0.98 -0.25 5.85
4 0 21 -0.25 5.75 21.02 -0.25 5.85 20.81 -0.25 5.79 20.75 -0.25 5.5
4 0 21.02 -0.25 5.65 21 -0.25 5.75 20.75 -0.25 5.5 20.81 -0.25 5.21
4 0 21.07 -0.25 5.57 21.02 -0.25 5.65 20.81 -0.25 5.21 20.97 -0.25 4.97
4 0 21.15 -0.25 5.52 21.07 -0.25 5.57 20.97 -0.25 4.97 21.21 -0.25 4.81
4 0 21.25 -0.25 5.5 21.15 -0.25 5.52 21.21 -0.25 4.81 21.5 -0.25 4.75
4 0 21.35 -0.25 5.52 21.25 -0.25 5.5 21.5 -0.25 4.75 21.79 -0.25 4.81
4 0 21.43 -0.25 5.57 21.35 -0.25 5.52 21.79 -0.25 4.81 22.03 -0.25 4.97
4 0 21.48 -0.25 5.65 21.43 -0.25 5.57 22.03 -0.25 4.97 22.19 -0.25 5.21
4 0 21.5 -0.25 5.75 21.48 -0.25 5.65 22.19 -0.25 5.21 22.25 -0.25 5.5
4 0 21.48 -0.25 5.85 21.5 -0.25 5.75 22.25 -0.25 5.5 22.19 -0.25 5.79
4 0 21.43 -0.25 5.93 21.48 -0.25 5.85 22.19 -0.25 5.79 22.03 -0.25 6.03
4 0 21.35 -0.25 5.98 21.43 -0.25 5.93 22.03 -0.25 6.03 21.79 -0.25 6.19
4 0 21.25 -0.25 6 21.35 -0.25 5.98 21.79 -0.25 6.19 21.5 -0.25 6.25
4 0 21.15 -0.25 5.98 21.25 -0.25 6 21.5 -0.25 6.25 21.21 -0.25 6.19
4 0 21.07 -0.25 5.93 21.15 -0.25 5.98 21.21 -0.25 6.19 20.97 -0.25 6.03
4 0 21.02 -0.25 5.85 21.07 -0.25 5.93 20.97 -0.25 6.03 20.81 -0.25 5.79
4 7 21.25 -0.25 5.75 21.02 -0.25 5.85 21 -0.25 5.75 21.02 -0.25 5.65
4 7 21.25 -0.25 5.75 21.02 -0.25 5.65 21.07 -0.25 5.57 21.15 -0.25 5.52
4 7 21.25 -0.25 5.75 21.15 -0.25 5.52 21.25 -0.25 5.5 21.35 -0.25 5.52
4 7 21.25 -0.25 5.75 21.35 -0.25 5.52 21.43 -0.25 5.57 21.48 -0.25 5.65
4 7 21.25 -0.25 5.75 21.48 -0.25 5.65 21.5 -0.25 5.75 21.48 -0.25 5.85
4 7 21.25 -0.25 5.75 21.48 -0.25 5.85 21.43 -0.25 5.93 21.35 -0.25 5.98
4 7 21.25 -0.25 5.75 21.35 -0.25 5.98 21.25 -0.25 6 21.15 -0.25 5.98
4 7 21.25 -0.25 5.75 21.15 -0.25 5.98 21.07 -0.25 5.93 21.02 -0.25 5.85
4 0 21 -0.25 -1.25 21.02 -0.25 -1.15 20.81 -0.25 -1.21 20.75 -0.25 -1.5
4 0 21.02 -0.25 -1.35 21 -0.25 -1.25 20.75 -0.25 -1.5 20.81 -0.25 -1.79
4 0 21.07 -0.25 -1.43 21.02 -0.25 -1.35 20.81 -0.25 -1.79 20.97 -0.25 -2.03
4 0 21.15 -0.25 -1.48 21.07 -0.25 -1.43 20.97 -0.25 -2.03 21.21 -0.25 -2.19
4 0 21.25 -0.25 -1.5 21.15 -0.25 -1.48 21.21 -0.25 -2.19 21.5 -0.25 -2.25
4 0 21.35 -0.25 -1.48 21.25 -0.25 -1.5 21.5 -0.25 -2.25 21.79 -0.25 -2.19
4 0 21.43 -0.25 -1.43 21.35 -0.25 -1.48 21.79 -0.25 -2.19 22.03 -0.25 -2.03
4 0 21.48 -0.25 -1.35 21.43 -0.25 -1.43 22.03 -0.25 -2.03 22.19 -0.25 -1.79
4 0 21.5 -0.25 -1.25 21.48 -0.25 -1.35 22.19 -0.25 -1.79 22.25 -0.25 -1.5
4 0 21.48 -0.25 -1.15 21.5 -0.25 -1.25 22.25 -0.25 -1.5 22.19 -0.25 -1.21
4 0 21.43 -0.25 -1.07 21.48 -0.25 -1.15 22.19 -0.25 -1.21 22.03 -0.25 -0.97
4 0 21.35 -0.25 -1.02 21.43 -0.25 -1.07 22.03 -0.25 -0.97 21.79 -0.25 -0.81
4 0 21.25 -0.25 -1 21.35 -0.25 -1.02 21.79 -0.25 -0.81 21.5 -0.25 -0.75
4 0 21.15 -0.25 -1.02 21.25 -0.25 -1 21.5 -0.25 -0.75 21.21 -0.25 -0.81
4 0 21.07 -0.25 -1.07 21.15 -0.25 -1.02 21.21 -0.25 -0.81 20.97 -0.25 -0.97
4 0 21.02 -0.25 -1.15 21.07 -0.25 -1.07 20.97 -0.25 -0.97 20.81 -0.25 -1.21
4 7 21.25 -0.25 -1.25 21.02 -0.25 -1.15 21 -0.25 -1.25 21.02 -0.25 -1.35
4 7 21.25 -0.25 -1.25 21.02 -0.25 -1.35 21.07 -0.25 -1.43 21.15 -0.25 -1.48
4 7 21.25 -0.25 -1.25 21.15 -0.25 -1.48 21.25 -0.25 -1.5 21.35 -0.25 -1.48
4 7 21.25 -0.25 -1.25 21.35 -0.25 -1.48 21.43 -0.25 -1.43 21.48 -0.25 -1.35
4 7 21.25 -0.25 -1.25 21.48 -0.25 -1.35 21.5 -0.25 -1.25 21.48 -0.25 -1.15
4 7 21.25 -0.25 -1.25 21.48 -0.25 -1.15 21.43 -0.25 -1.07 21.35 -0.25 -1.02
4 7 21.25 -0.25 -1.25 21.35 -0.25 -1.02 21.25 -0.25 -1 21.15 -0.25 -1.02
4 7 21.25 -0.25 -1.25 21.15 -0.25 -1.02 21.07 -0.25 -1.07 21.02 -0.25 -1.15
4 7 105.5 -0.25 -6 105.5 -0.25 -7 106.5 -0.25 -7 106.56 -0.25 -6.71
3 7 105.5 -0.25 -6 106.56 -0.25 -6.71 106.72 -0.25 -6.47
3 7 105.5 -0.25 -6 106.72 -0.25 -6.47 106.96 -0.25 -6.31
3 7 105.5 -0.25 -6 106.96 -0.25 -6.31 107.25 -0.25 -6.25
4 7 106.5 -0.25 -7 105.5 -0.25 -7 105.5 -0.25 -8 106.56 -0.25 -7.29
3 7 106.56 -0.25 -7.29 105.5 -0.25 -8 106.72 -0.25 -7.53
3 7 106.72 -0.25 -7.53 105.5 -0.25 -8 106.96 -0.25 -7.69
3 7 114.5 -0.25 -6 114.44 -0.25 -6.71 114.5 -0.25 -7
3 7 114.5 -0.25 -6 114.28 -0.25 -6.47 114.44 -0.25 -6.71
3 7 114.5 -0.25 -6 114.04 -0.25 -6.31 114.28 -0.25 -6.47
3 7 114.5 -0.25 -6 113.75 -0.25 -6.25 114.04 -0.25 -6.31
3 7 114.5 -0.25 -7 114.44 -0.25 -7.29 114.5 -0.25 -8
3 7 114.44 -0.25 -7.29 114.28 -0.25 -7.53 114.5 -0.25 -8
3 7 114.28 -0.25 -7.53 114.04 -0.25 -7.69 114.5 -0.25 -8
3 7 114.04 -0.25 -7.69 113.75 -0.25 -7.75 114.5 -0.25 -8
4 7 113.06 -0.25 -7.29 113 -0.25 -7 111.25 -0.25 -7 111.19 -0.25 -7.29
4 7 113.22 -0.25 -7.53 113.06 -0.25 -7.29 111.19 -0.25 -7.29 111.03 -0.25 -7.53
4 7 113.46 -0.25 -7.69 113.22 -0.25 -7.53 111.03 -0.25 -7.53 110.79 -0.25 -7.69
4 7 113.75 -0.25 -7.75 113.46 -0.25 -7.69 110.79 -0.25 -7.69 110.5 -0.25 -7.75
4 7 113.75 -0.25 -6.25 110.5 -0.25 -6.25 110.79 -0.25 -6.31 113.46 -0.25 -6.31
4 7 113.46 -0.25 -6.31 110.79 -0.25 -6.31 111.03 -0.25 -6.47 113.22 -0.25 -6.47
4 7 113.22 -0.25 -6.47 111.03 -0.25 -6.47 111.19 -0.25 -6.71 113.06 -0.25 -6.71
4 7 113.06 -0.25 -6.71 111.19 -0.25 -6.71 111.25 -0.25 -7 113 -0.25 -7
4 7 110.5 -0.25 -6.25 107.25 -0.25 -6.25 107.54 -0.25 -6.31 110.21 -0.25 -6.31
4 7 110.21 -0.25 -6.31 107.54 -0.25 -6.31 107.78 -0.25 -6.47 109.97 -0.25 -6.47
4 7 109.97 -0.25 -6.47 107.78 -0.25 -6.47 107.94 -0.25 -6.71 109.81 -0.25 -6.71
4 7 109.81 -0.25 -6.71 107.94 -0.25 -6.71 108 -0.25 -7 109.75 -0.25 -7
4 7 109.81 -0.25 -7.29 108 -0.25 -7 107.94 -0.25 -7.29 109.97 -0.25 -7.53
4 7 109.97 -0.25 -7.53 107.94 -0.25 -7.29 107.78 -0.25 -7.53 110.21 -0.25 -7.69
4 7 110.21 -0.25 -7.69 107.78 -0.25 -7.53 107.54 -0.25 -7.69 110.5 -0.25 -7.75
3 7 107.54 -0.25 -7.69 107.25 -0.25 -7.75 110.5 -0.25 -7.75
3 7 109.75 -0.25 -7 108 -0.25 -7 109.81 -0.25 -7.29
4 7 13.75 -0.25 -6.25 10.5 -0.25 -6.25 10.79 -0.25 -6.31 13.46 -0.25 -6.31
4 7 13.46 -0.25 -6.31 10.79 -0.25 -6.31 11.03 -0.25 -6.47 13.22 -0.25 -6.47
4 7 13.22 -0.25 -6.47 11.03 -0.25 -6.47 11.19 -0.25 -6.71 13.06 -0.25 -6.71
4 7 13.06 -0.25 -6.71 11.19 -0.25 -6.71 11.25 -0.25 -7 13 -0.25 -7
4 7 13.06 -0.25 -7.29 11.25 -0.25 -7 11.19 -0.25 -7.29 13.22 -0.25 -7.53
4 7 13.22 -0.25 -7.53 11.19 -0.25 -7.29 11.03 -0.25 -7.53 13.46 -0.25 -7.69
4 7 13.46 -0.25 -7.69 11.03 -0.25 -7.53 10.79 -0.25 -7.69 13.75 -0.25 -7.75
4 7 13.75 -0.25 -7.75 10.79 -0.25 -7.69 10.5 -0.25 -7.75 15.5 -0.25 -8
3 7 13 -0.25 -7 11.25 -0.25 -7 13.06 -0.25 -7.29
4 7 10.5 -0.25 -6.25 7.25 -0.25 -6.25 7.54 -0.25 -6.31 10.21 -0.25 -6.31
4 7 10.21 -0.25 -6.31 7.54 -0.25 -6.31 7.78 -0.25 -6.47 9.97 -0.25 -6.47
4 7 9.97 -0.25 -6.47 7.78 -0.25 -6.47 7.94 -0.25 -6.71 9.81 -0.25 -6.71
4 7 9.81 -0.25 -6.71 7.94 -0.25 -6.71 8 -0.25 -7 9.75 -0.25 -7
4 7 9.81 -0.25 -7.29 8 -0.25 -7 7.94 -0.25 -7.29 9.97 -0.25 -7.53
4 7 9.97 -0.25 -7.53 7.94 -0.25 -7.29 7.78 -0.25 -7.53 10.21 -0.25 -7.69
4 7 10.21 -0.25 -7.69 7.78 -0.25 -7.53 7.54 -0.25 -7.69 10.5 -0.25 -7.75
3 7 7.54 -0.25 -7.69 7.25 -0.25 -7.75 10.5 -0.25 -7.75
3 7 9.75 -0.25 -7 8 -0.25 -7 9.81 -0.25 -7.29
4 7 -87 -0.25 -6.25 -90.5 -0.25 -6.25 -90.21 -0.25 -6.31 -87.29 -0.25 -6.31
4 7 -87.29 -0.25 -6.31 -90.21 -0.25 -6.31 -89.97 -0.25 -6.47 -87.53 -0.25 -6.47
4 7 -87.53 -0.25 -6.47 -89.97 -0.25 -6.47 -89.81 -0.25 -6.71 -87.69 -0.25 -6.71
4 7 -87.69 -0.25 -6.71 -89.81 -0.25 -6.71 -89.75 -0.25 -7 -87.75 -0.25 -7
4 7 -87.69 -0.25 -7.29 -89.75 -0.25 -7 -89.81 -0.25 -7.29 -87.53 -0.25 -7.53
4 7 -87.53 -0.25 -7.53 -89.81 -0.25 -7.29 -89.97 -0.25 -7.53 -87.29 -0.25 -7.69
4 7 -87.29 -0.25 -7.69 -89.97 -0.25 -7.53 -90.21 -0.25 -7.69 -87 -0.25 -7.75
4 7 -87 -0.25 -7.75 -90.21 -0.25 -7.69 -90.5 -0.25 -7.75 -85.5 -0.25 -8
3 7 -87.75 -0.25 -7 -89.75 -0.25 -7 -87.69 -0.25 -7.29
4 7 -90.5 -0.25 -6.25 -93.75 -0.25 -6.25 -93.46 -0.25 -6.31 -90.79 -0.25 -6.31
4 7 -90.79 -0.25 -6.31 -93.46 -0.25 -6.31 -93.22 -0.25 -6.47 -91.03 -0.25 -6.47
4 7 -91.03 -0.25 -6.47 -93.22 -0.25 -6.47 -93.06 -0.25 -6.71 -91.19 -0.25 -6.71
4 7 -91.19 -0.25 -6.71 -93.06 -0.25 -6.71 -93 -0.25 -7 -91.25 -0.25 -7
4 7 -91.19 -0.25 -7.29 -93 -0.25 -7 -93.06 -0.25 -7.29 -91.03 -0.25 -7.53
4 7 -91.03 -0.25 -7.53 -93.06 -0.25 -7.29 -93.22 -0.25 -7.53 -90.79 -0.25 -7.69
4 7 -90.79 -0.25 -7.69 -93.22 -0.25 -7.53 -93.46 -0.25 -7.69 -90.5 -0.25 -7.75
3 7 -93.46 -0.25 -7.69 -93.75 -0.25 -7.75 -90.5 -0.25 -7.75
3 7 -91.25 -0.25 -7 -93 -0.25 -7 -91.19 -0.25 -7.29
4 7 6.56 -0.25 -6.71 5.5 -0.25 -6 5.5 -0.25 -7 6.5 -0.25 -7
4 7 6.56 -0.25 -7.29 5.5 -0.25 -7 5.5 -0.25 -8 6.72 -0.25 -7.53
3 7 6.96 -0.25 -7.69 5.5 -0.25 -8 7.25 -0.25 -7.75
3 7 6.72 -0.25 -7.53 5.5 -0.25 -8 6.96 -0.25 -7.69
3 7 6.5 -0.25 -7 5.5 -0.25 -7 6.56 -0.25 -7.29
3 7 5.5 -0.25 -6 6.56 -0.25 -6.71 6.72 -0.25 -6.47
3 7 5.5 -0.25 -6 6.72 -0.25 -6.47 6.96 -0.25 -6.31
3 7 5.5 -0.25 -6 6.96 -0.25 -6.31 7.25 -0.25 -6.25
3 7 15.5 -0.25 -6 13.75 -0.25 -6.25 14.04 -0.25 -6.31
3 7 15.5 -0.25 -6 14.04 -0.25 -6.31 14.28 -0.25 -6.47
3 7 15.5 -0.25 -6 14.28 -0.25 -6.47 14.44 -0.25 -6.71
4 7 15.5 -0.25 -6 14.44 -0.25 -6.71 14.5 -0.25 -7 15.5 -0.25 -7
4 7 14.5 -0.25 -7 14.44 -0.25 -7.29 15.5 -0.25 -8 15.5 -0.25 -7
3 7 14.44 -0.25 -7.29 14.28 -0.25 -7.53 15.5 -0.25 -8
3 7 14.28 -0.25 -7.53 14.04 -0.25 -7.69 15.5 -0.25 -8
3 7 14.04 -0.25 -7.69 13.75 -0.25 -7.75 15.5 -0.25 -8
4 7 -94.44 -0.25 -6.71 -95.5 -0.25 -6 -95.5 -0.25 -7 -94.5 -0.25 -7
4 7 -94.44 -0.25 -7.29 -95.5 -0.25 -7 -95.5 -0.25 -8 -94.28 -0.25 -7.53
3 7 -94.04 -0.25 -7.69 -95.5 -0.25 -8 -93.75 -0.25 -7.75
3 7 -94.28 -0.25 -7.53 -95.5 -0.25 -8 -94.04 -0.25 -7.69
3 7 -94.5 -0.25 -7 -95.5 -0.25 -7 -94.44 -0.25 -7.29
3 7 -95.5 -0.25 -6 -94.44 -0.25 -6.71 -94.28 -0.25 -6.47
3 7 -95.5 -0.25 -6 -94.28 -0.25 -6.47 -94.04 -0.25 -6.31
3 7 -95.5 -0.25 -6 -94.04 -0.25 -6.31 -93.75 -0.25 -6.25
3 7 -85.5 -0.25 -6 -87 -0.25 -6.25 -86.71 -0.25 -6.31
3 7 -85.5 -0.25 -6 -86.71 -0.25 -6.31 -86.47 -0.25 -6.47
3 7 -85.5 -0.25 -6 -86.47 -0.25 -6.47 -86.31 -0.25 -6.71
4 7 -85.5 -0.25 -6 -86.31 -0.25 -6.71 -86.25 -0.25 -7 -85.5 -0.25 -7
4 7 -86.25 -0.25 -7 -86.31 -0.25 -7.29 -85.5 -0.25 -8 -85.5 -0.25 -7
3 7 -86.31 -0.25 -7.29 -86.47 -0.25 -7.53 -85.5 -0.25 -8
3 7 -86.47 -0.25 -7.53 -86.71 -0.25 -7.69 -85.5 -0.25 -8
3 7 -86.71 -0.25 -7.69 -87 -0.25 -7.75 -85.5 -0.25 -8
3 8 -1.5 -0.25 6.5 -0.79 -0.25 6.19 -0.5 -0.25 6.25
3 8 -1.5 -0.25 6.5 -1.03 -0.25 6.03 -0.79 -0.25 6.19
3 8 -1.5 -0.25 6.5 -1.19 -0.25 5.79 -1.03 -0.25 6.03
3 8 -1.5 -0.25 6.5 -1.25 -0.25 5.5 -1.19 -0.25 5.79
4 8 -1.25 -0.25 5.5 -1.5 -0.25 6.5 -1.5 -0.25 -2.5 -1.25 -0.25 -1.5
4 8 -0.5 -0.25 -0.75 -0.21 -0.25 -0.81 3.25 -0.25 0.5 -0.5 -0.25 4.75
3 8 3.25 -0.25 0.5 -0.21 -0.25 -0.81 0.03 -0.25 -0.97
3 8 3.25 -0.25 0.5 0.03 -0.25 -0.97 0.19 -0.25 -1.21
4 8 3.25 -0.25 0.5 0.19 -0.25 -1.21 0.25 -0.25 -1.5 11.37 -0.25 0.5
3 8 -1.25 -0.25 -1.5 -1.5 -0.25 -2.5 -1.19 -0.25 -1.79
3 8 -1.19 -0.25 -1.79 -1.5 -0.25 -2.5 -1.03 -0.25 -2.03
3 8 -1.03 -0.25 -2.03 -1.5 -0.25 -2.5 -0.79 -0.25 -2.19
3 8 -0.79 -0.25 -2.19 -1.5 -0.25 -2.5 -0.5 -0.25 -2.25
4 8 -1.25 -0.25 5.5 -1.25 -0.25 -1.5 -1.19 -0.25 -1.21 -1.19 -0.25 5.21
4 8 -1.19 -0.25 5.21 -1.19 -0.25 -1.21 -1.03 -0.25 -0.97 -1.03 -0.25 4.97
4 8 -1.03 -0.25 4.97 -1.03 -0.25 -0.97 -0.79 -0.25 -0.81 -0.79 -0.25 4.81
4 8 -0.79 -0.25 4.81 -0.79 -0.25 -0.81 -0.5 -0.25 -0.75 -0.5 -0.25 4.75
3 8 22.5 -0.25 6.5 21.5 -0.25 6.25 21.79 -0.25 6.19
3 8 22.5 -0.25 6.5 21.79 -0.25 6.19 22.03 -0.25 6.03
3 8 22.5 -0.25 6.5 22.03 -0.25 6.03 22.19 -0.25 5.79
3 8 22.5 -0.25 6.5 22.19 -0.25 5.79 22.25 -0.25 5.5
4 8 22.5 -0.25 -2.5 22.5 -0.25 6.5 22.25 -0.25 5.5 22.25 -0.25 -1.5
3 8 22.25 -0.25 -1.5 22.19 -0.25 -1.79 22.5 -0.25 -2.5
3 8 22.19 -0.25 -1.79 22.03 -0.25 -2.03 22.5 -0.25 -2.5
3 8 22.03 -0.25 -2.03 21.79 -0.25 -2.19 22.5 -0.25 -2.5
3 8 21.79 -0.25 -2.19 21.5 -0.25 -2.25 22.5 -0.25 -2.5
4 8 22.19 -0.25 -1.21 22.25 -0.25 -1.5 22.25 -0.25 5.5 22.19 -0.25 5.21
4 8 22.03 -0.25 -0.97 22.19 -0.25 -1.21 22.19 -0.25 5.21 22.03 -0.25 4.97
4 8 21.79 -0.25 -0.81 22.03 -0.25 -0.97 22.03 -0.25 4.97 21.79 -0.25 4.81
4 8 21.5 -0.25 -0.75 21.79 -0.25 -0.81 21.79 -0.25 4.81 21.5 -0.25 4.75
4 8 22.5 -0.25 6.5 -1.5 -0.25 6.5 -0.5 -0.25 6.25 21.5 -0.25 6.25
4 8 21.5 -0.25 6.25 -0.5 -0.25 6.25 -0.21 -0.25 6.19 21.21 -0.25 6.19
4 8 21.21 -0.25 6.19 -0.21 -0.25 6.19 0.03 -0.25 6.03 20.97 -0.25 6.03
4 8 20.97 -0.25 6.03 0.03 -0.25 6.03 0.19 -0.25 5.79 20.81 -0.25 5.79
4 8 20.81 -0.25 5.79 0.19 -0.25 5.79 0.25 -0.25 5.5 14.5 -0.25 5.5
4 8 0.25 -0.25 5.5 0.19 -0.25 5.21 3.25 -0.25 3.5 11.37 -0.25 3.5
3 8 0.19 -0.25 5.21 0.03 -0.25 4.97 3.25 -0.25 3.5
3 8 0.03 -0.25 4.97 -0.21 -0.25 4.81 3.25 -0.25 3.5
4 8 3.25 -0.25 3.5 -0.21 -0.25 4.81 -0.5 -0.25 4.75 3.25 -0.25 0.5
4 7 105.5 -0.25 -6 107.25 -0.25 -6.25 110.5 -0.25 -6.25 114.5 -0.25 -6
3 7 114.5 -0.25 -6 110.5 -0.25 -6.25 113.75 -0.25 -6.25
4 7 114.5 -0.25 -8 113.75 -0.25 -7.75 110.5 -0.25 -7.75 105.5 -0.25 -8
3 7 110.5 -0.25 -7.75 107.25 -0.25 -7.75 105.5 -0.25 -8
3 7 106.96 -0.25 -7.69 105.5 -0.25 -8 107.25 -0.25 -7.75
4 7 10.5 -0.25 -7.75 7.25 -0.25 -7.75 5.5 -0.25 -8 15.5 -0.25 -8
4 7 5.5 -0.25 -6 7.25 -0.25 -6.25 10.5 -0.25 -6.25 15.5 -0.25 -6
3 7 15.5 -0.25 -6 10.5 -0.25 -6.25 13.75 -0.25 -6.25
4 7 -95.5 -0.25 -6 -93.75 -0.25 -6.25 -90.5 -0.25 -6.25 -85.5 -0.25 -6
3 7 -85.5 -0.25 -6 -90.5 -0.25 -6.25 -87 -0.25 -6.25
4 7 -90.5 -0.25 -7.75 -93.75 -0.25 -7.75 -95.5 -0.25 -8 -85.5 -0.25 -8
4 0 4 -0.25 1.25 4 -0.25 2.75 3.25 -0.25 3.5 3.25 -0.25 0.5
4 0 12.26 -0.25 0.5 14.5 -0.25 1.25 4 -0.25 1.25 11.37 -0.25 0.5
4 0 4 -0.25 2.75 14.5 -0.25 2.75 12.26 -0.25 3.5 11.37 -0.25 3.5
4 0 12.56 -0.25 0.06 12.26 -0.25 0.5 11.37 -0.25 0.5 12.03 -0.25 -0.47
4 0 13.45 -0.25 -0.54 12.56 -0.25 0.06 12.03 -0.25 -0.47 13.16 -0.25 -1.23
4 0 14.5 -0.25 -0.75 13.45 -0.25 -0.54 13.16 -0.25 -1.23 14.5 -0.25 -1.5
4 0 15.55 -0.25 -0.54 14.5 -0.25 -0.75 14.5 -0.25 -1.5 15.84 -0.25 -1.23
4 0 16.44 -0.25 0.06 15.55 -0.25 -0.54 15.84 -0.25 -1.23 16.97 -0.25 -0.47
4 0 17.04 -0.25 0.95 16.44 -0.25 0.06 16.97 -0.25 -0.47 17.73 -0.25 0.66
4 0 17.25 -0.25 2 17.04 -0.25 0.95 17.73 -0.25 0.66 18 -0.25 2
4 0 17.04 -0.25 3.05 17.25 -0.25 2 18 -0.25 2 17.73 -0.25 3.34
4 0 16.44 -0.25 3.94 17.04 -0.25 3.05 17.73 -0.25 3.34 16.97 -0.25 4.47
4 0 15.55 -0.25 4.54 16.44 -0.25 3.94 16.97 -0.25 4.47 15.84 -0.25 5.23
4 0 14.5 -0.25 4.75 15.55 -0.25 4.54 15.84 -0.25 5.23 14.5 -0.25 5.5
4 0 13.45 -0.25 4.54 14.5 -0.25 4.75 14.5 -0.25 5.5 13.16 -0.25 5.23
4 0 12.56 -0.25 3.94 13.45 -0.25 4.54 13.16 -0.25 5.23 12.03 -0.25 4.47
4 0 12.26 -0.25 3.5 12.56 -0.25 3.94 12.03 -0.25 4.47 11.37 -0.25 3.5
3 0 11.37 -0.25 3.5 3.25 -0.25 3.5 4 -0.25 2.75
3 0 15.25 -0.25 3.5 12.26 -0.25 3.5 14.5 -0.25 2.75
3 0 4 -0.25 1.25 3.25 -0.25 0.5 11.37 -0.25 0.5
3 0 14.5 -0.25 1.25 12.26 -0.25 0.5 15.25 -0.25 0.5
4 0 14.5 -0.25 1.25 15.25 -0.25 0.5 15.25 -0.25 3.5 14.5 -0.25 2.75
4 4 4 -0.25 2.75 4 -0.25 1.25 14.5 -0.25 1.25 14.5 -0.25 2.75
4 4 12.56 -0.25 3.94 12.26 -0.25 3.5 15.25 -0.25 3.5 13.45 -0.25 4.54
4 4 14.5 -0.25 4.75 13.45 -0.25 4.54 15.25 -0.25 3.5 15.55 -0.25 4.54
4 4 16.44 -0.25 3.94 15.55 -0.25 4.54 15.25 -0.25 3.5 17.04 -0.25 3.05
4 4 17.25 -0.25 2 17.04 -0.25 3.05 15.25 -0.25 3.5 15.25 -0.25 0.5
4 4 17.04 -0.25 0.95 17.25 -0.25 2 15.25 -0.25 0.5 16.44 -0.25 0.06
4 4 15.55 -0.25 -0.54 16.44 -0.25 0.06 15.25 -0.25 0.5 14.5 -0.25 -0.75
4 4 13.45 -0.25 -0.54 14.5 -0.25 -0.75 15.25 -0.25 0.5 12.56 -0.25 0.06
3 4 15.25 -0.25 0.5 12.26 -0.25 0.5 12.56 -0.25 0.06
3 8 0.25 -0.25 5.5 11.37 -0.25 3.5 12.03 -0.25 4.47
3 8 0.25 -0.25 5.5 12.03 -0.25 4.47 13.16 -0.25 5.23
3 8 14.5 -0.25 5.5 0.25 -0.25 5.5 13.16 -0.25 5.23
3 8 20.81 -0.25 5.79 14.5 -0.25 5.5 15.84 -0.25 5.23
4 8 20.81 -0.25 5.79 15.84 -0.25 5.23 16.97 -0.25 4.47 20.75 -0.25 5.5
4 8 20.75 -0.25 5.5 16.97 -0.25 4.47 17.73 -0.25 3.34 20.81 -0.25 5.21
4 8 20.97 -0.25 4.97 20.81 -0.25 5.21 17.73 -0.25 3.34 18 -0.25 2
3 8 20.97 -0.25 4.97 18 -0.25 2 21.21 -0.25 4.81
4 8 21.5 -0.25 4.75 21.21 -0.25 4.81 18 -0.25 2 21.5 -0.25 -0.75
3 8 18 -0.25 2 21.21 -0.25 -0.81 21.5 -0.25 -0.75
4 8 20.97 -0.25 -0.97 21.21 -0.25 -0.81 18 -0.25 2 17.73 -0.25 0.66
3 8 17.73 -0.25 0.66 20.81 -0.25 -1.21 20.97 -0.25 -0.97
4 8 20.75 -0.25 -1.5 20.81 -0.25 -1.21 17.73 -0.25 0.66 16.97 -0.25 -0.47
4 8 20.81 -0.25 -1.79 20.75 -0.25 -1.5 16.97 -0.25 -0.47 15.84 -0.25 -1.23
4 8 20.97 -0.25 -2.03 20.81 -0.25 -1.79 15.84 -0.25 -1.23 14.5 -0.25 -1.5
4 8 12.03 -0.25 -0.47 11.37 -0.25 0.5 0.25 -0.25 -1.5 0.19 -0.25 -1.79
4 8 13.16 -0.25 -1.23 12.03 -0.25 -0.47 0.19 -0.25 -1.79 0.03 -0.25 -2.03
4 8 13.16 -0.25 -1.23 0.03 -0.25 -2.03 -0.21 -0.25 -2.19 14.5 -0.25 -1.5
4 8 20.97 -0.25 -2.03 14.5 -0.25 -1.5 -0.21 -0.25 -2.19 21.21 -0.25 -2.19
4 8 21.21 -0.25 -2.19 -0.21 -0.25 -2.19 -0.5 -0.25 -2.25 21.5 -0.25 -2.25
4 8 22.5 -0.25 -2.5 21.5 -0.25 -2.25 -0.5 -0.25 -2.25 -1.5 -0.25 -2.5

