0 Plane Jet Engine with Plate  1 x  2 with Emirates Logo Sticker Right
0 Name: 4868ad02.dat
0 Author: Takeshi Takahashi [RainbowDolphin]
0 !LDRAW_ORG Shortcut UPDATE 2023-03
0 !LICENSE Licensed under CC BY 4.0 : see CAreadme.txt

0 BFC CERTIFY CCW

0 !KEYWORDS Airliner, Brickowl 949698, Plane, Rebrickable 164325
0 !KEYWORDS Bricklink 1973stk01, Set 1973

0 !HISTORY 2023-06-24 [OrionP] Official Update 2023-03


1 16 0 0 0 1 0 0 0 1 0 0 0 1 4868a.dat
1 16 -20 0 -40 -1 0 0 0 1 0 0 0 -1 164325cc01.dat
