0 =Plate  1 x  2
0 Name: 6225.dat
0 Author: Rolf Osterthun [Rolf]
0 !LDRAW_ORG Part Alias UPDATE 2013-02
0 !LICENSE Licensed under CC BY 4.0 : see CAreadme.txt

0 BFC CERTIFY CCW

0 !HISTORY 2013-12-23 [PTadmin] Official Update 2013-02


0 // Alias of 3023
0 // Part 6225 is the transparent counterpart of 3023

1 16 0 0 0 1 0 0 0 1 0 0 0 1 3023.dat
