0 Door  1 x  3 x  4 Left with Vertical Handle with White Lower Section Pattern
0 Name: 825ap06.dat
0 Author: Magnus Forsberg [MagFors]
0 !LDRAW_ORG Part UPDATE 2022-01
0 !LICENSE Licensed under CC BY 4.0 : see CAreadme.txt

0 BFC CERTIFY CCW

0 !CMDLINE -c47

0 !HISTORY 2022-01-14 [PTadmin] Official Update 2022-01


1 16 0 0 0 1 0 0 0 1 0 0 0 1 s\825ap06s01.dat
1 16 0 0 0 1 0 0 0 1 0 0 0 1 stud.dat
