0 Tile  2 x  4 with Yellow License Plate and White "Michigan GT 1967" Sticker
0 Name: 87079dt1.dat
0 Author: Ulrich Röder [UR]
0 !LDRAW_ORG Shortcut UPDATE 2019-01
0 !LICENSE Licensed under CC BY 4.0 : see CAreadme.txt

0 BFC CERTIFY CCW

0 !KEYWORDS Ford, Mustang, Set 10265

0 !HISTORY 2019-06-28 [PTadmin] Official Update 2019-01


1 16 0 0 0 1 0 0 0 1 0 0 0 1 87079.dat
1 16 0 0 0 1 0 0 0 1 0 0 0 1 6258203b.dat
