0 Figure Friends Female Left Arm with Light Aqua Sleeve Pattern
0 Name: 92244p05.dat
0 Author: Philippe Hurbain [Philo]
0 !LDRAW_ORG Part UPDATE 2014-02
0 !LICENSE Licensed under CC BY 4.0 : see CAreadme.txt

0 !HELP Hand position: X=15 Y=27.5 Z=1.8

0 BFC CERTIFY CCW

0 !HISTORY 2014-12-23 [PTadmin] Official Update 2014-02


1 16 0 0 0 1 0 0 0 1 0 0 0 1 s\92244s01.dat
1 323 0 0 0 1 0 0 0 1 0 0 0 1 s\92244s02.dat
1 323 0 0 0 1 0 0 0 1 0 0 0 1 s\92244s03.dat
1 323 0 0 0 1 0 0 0 1 0 0 0 1 s\92244s04.dat
1 16 0 0 0 1 0 0 0 1 0 0 0 1 s\92244s05.dat
