0 Animal Chicken
0 Name: 95342.dat
0 Author: Magnus Forsberg [MagFors]
0 !LDRAW_ORG Part UPDATE 2011-02
0 !LICENSE Licensed under CC BY 4.0 : see CAreadme.txt

0 BFC CERTIFY CCW

0 !HISTORY 2011-09-08 {LEGO Digital Designer} Original part shape
0 !HISTORY 2011-09-10 [MagFors] File preparation for LDraw Parts Tracker
0 !HISTORY 2011-12-29 [PTadmin] Official Update 2011-02


1 16 0 -5 0 1 0 0 0 -1.25 0 0 0 1 stud4a.dat
1 16 0 -6 0 6 0 0 0 1 0 0 0 6 4-4edge.dat
0 BFC INVERTNEXT
1 16 0 -6 0 6 0 0 0 1 0 0 0 6 4-4cyli.dat
1 16 0 -6 0 -2 0 0 0 -1 0 0 0 2 4-4ring2.dat
0 BFC INVERTNEXT
1 16 0 -27.5 0 4 0 0 0 21.5 0 0 0 4 4-4cylc.dat
1 16 0 -5 0 8 0 0 0 1 0 0 0 8 4-4edge.dat
1 16 0 0 0 1 0 0 0 1 0 0 0 1 s\95342s01.dat
1 16 0 0 0 -1 0 0 0 1 0 0 0 1 s\95342s01.dat
1 16 0 0 0 1 0 0 0 1 0 0 0 1 s\95342s02.dat
1 16 0 0 0 -1 0 0 0 1 0 0 0 1 s\95342s02.dat
1 16 0 0 0 1 0 0 0 1 0 0 0 1 s\95342s03.dat
1 16 0 0 0 -1 0 0 0 1 0 0 0 1 s\95342s03.dat
0 //
5 24 0 -9.42 6.146 0 -10.183 5.412 3.624 -9.275 5.736 -3.624 -9.275 5.736
5 24 0 -10.606 -5.336 0 -9.415 -5.824 4.859 -10.375 -4.882 -4.859 -10.375 -4.882
5 24 0 -12.284 5.667 0 -13.206 6.734 3.97 -12.018 5.193 -3.97 -12.018 5.193
5 24 0 -13.625 -7.857 0 -12.783 -6.698 6.66 -13.999 -7.017 -6.66 -13.999 -7.017
5 24 0 -18.978 11.956 0 -21.87 12.891 3.984 -18.996 11.726 -3.984 -18.996 11.726
5 24 0 -26.873 -14.851 0 -23.955 -14.807 4.261 -24.274 -14.486 -3.429 -27.184 -14.566
5 24 0 -16.887 10.749 0 -18.978 11.956 4.331 -16.71 10.331 -4.331 -16.71 10.331
5 24 0 -23.955 -14.807 0 -20.826 -14.539 4.945 -20.889 -14.141 -4.261 -24.274 -14.486
5 24 0 -14.922 9.011 0 -16.887 10.749 4.367 -14.717 8.349 -4.367 -14.717 8.349
5 24 0 -17.651 -13.193 0 -14.633 -9.734 5.495 -17.475 -12.448 -5.495 -17.475 -12.448
5 24 0 -23.962 13.906 0 -24.455 15.271 2.755 -24.76 15.203 -2.998 -24.28 13.767
5 24 0 -24.455 15.271 0 -24.814 16.644 2.876 -25.092 16.452 -2.876 -25.092 16.452
5 24 0 -24.814 16.644 0 -25.213 17.143 2.876 -25.092 16.452 -2.876 -25.092 16.452
5 24 0 -25.213 17.143 0 -28.078 18.984 3.132 -25.624 16.845 -3.132 -25.624 16.845
5 24 0 -29.243 -16.287 0 -28.75 -14.982 1.984 -29.579 -16.097 -1.984 -29.579 -16.097
5 24 0 -36.533 -19.655 0 -35.441 -19.289 1.301 -35.626 -19.141 -1.301 -35.626 -19.141
5 24 0 -37.609 -18.695 0 -36.533 -19.655 1.157 -36.538 -19.49 -1.157 -36.538 -19.49
5 24 0 -38.732 -17.415 0 -38.247 -17.858 1.857 -38.171 -17.583 -1.857 -38.171 -17.583
5 24 0 -40.626 -18.193 0 -38.732 -17.415 1.321 -40.628 -17.996 -1.321 -40.628 -17.996
5 24 0 -42.395 -17.6 0 -40.626 -18.193 1.145 -42.379 -17.357 -1.145 -42.379 -17.357
5 24 0 -43.135 -15.988 0 -42.395 -17.6 1.145 -42.379 -17.357 -1.145 -42.379 -17.357
5 24 0 -42.963 -15.299 0 -43.135 -15.988 1.224 -42.983 -15.985 -1.224 -42.983 -15.985
5 24 0 -45.03 -12.72 0 -44.583 -13.47 1.059 -44.557 -13.289 -1.059 -44.557 -13.289
5 24 0 -44.787 -11.042 0 -45.092 -12.005 0.98 -44.952 -11.888 -0.98 -44.952 -11.888
5 24 0 -41.149 -6.16 0 -42.64 -6.673 1.469 -42.375 -6.88 -1.662 -41.115 -6.5
5 24 0 -39.739 -6.618 0 -41.149 -6.16 1.662 -41.115 -6.5 -1.662 -41.115 -6.5
5 24 0 -30.44 -17.132 0 -29.243 -16.287 1.687 -30.512 -16.868 -1.687 -30.512 -16.868
5 24 0 -33.243 -16.899 0 -30.44 -17.132 1.687 -30.512 -16.868 -1.687 -30.512 -16.868
5 24 0 -34.154 -17.217 0 -33.243 -16.899 2.017 -34.369 -16.972 -2.017 -34.369 -16.972
5 24 0 -35.441 -19.289 0 -34.694 -18.177 1.301 -35.626 -19.141 -1.301 -35.626 -19.141
5 24 0 -38.247 -17.858 0 -37.609 -18.695 1.606 -37.455 -18.566 -1.857 -38.171 -17.583
5 24 0 -43.299 -14.515 0 -42.963 -15.299 1.322 -43.242 -14.32 -1.322 -43.242 -14.32
5 24 0 -44.583 -13.47 0 -43.299 -14.515 1.322 -43.242 -14.32 -1.059 -44.557 -13.289
5 24 0 -43.805 -10.336 0 -44.787 -11.042 1.068 -44.547 -11.002 -1.068 -44.547 -11.002
5 24 0 -43.105 -7.378 0 -43.128 -8.507 1.408 -42.907 -8.439 -1.408 -42.907 -8.439
5 24 0 -39.126 -7.033 0 -39.739 -6.618 1.863 -39.709 -6.909 -1.967 -39.067 -7.362
5 24 0 -42.64 -6.673 0 -43.105 -7.378 1.351 -42.876 -7.408 -1.351 -42.876 -7.408
5 24 0 -43.021 -9.513 0 -43.805 -10.336 1.302 -43.495 -10.324 -1.302 -43.495 -10.324
5 24 0 -36.499 8.465 0 -34.204 5.583 3.128 -35.931 8.557 -3.128 -35.931 8.557
5 24 0 -37.46 15.312 0 -37.676 11.254 3.202 -37.165 11.285 -3.202 -37.165 11.285
5 24 0 -37.676 11.254 0 -36.499 8.465 3.202 -37.165 11.285 -3.202 -37.165 11.285
5 24 0 -34.817 18.476 0 -37.46 15.312 2.097 -33.947 18.808 -2.097 -33.947 18.808
5 24 0 -32.306 19.426 0 -34.817 18.476 2.097 -33.947 18.808 -2.097 -33.947 18.808
5 24 0 -31.33 19.51 0 -32.306 19.426 2.991 -31.474 19.021 -2.991 -31.474 19.021
5 24 0 -28.078 18.984 0 -31.33 19.51 2.822 -28.136 18.619 -2.822 -28.136 18.619
5 24 0 -32.85 1.456 0 -33.057 -1.261 5.511 -32.51 1.622 -5.511 -32.51 1.622
5 24 0 -32.838 3.384 0 -32.85 1.456 5.511 -32.51 1.622 -4.405 -32.559 3.909
5 24 0 -33.389 -3.905 0 -35.737 -5.413 4.084 -35.492 -6.519 -4.084 -35.492 -6.519
5 24 0 -34.694 -18.177 0 -34.154 -17.217 2.017 -34.369 -16.972 -1.707 -34.928 -18.085
5 24 0 -33.057 -1.261 0 -33.389 -3.905 4.954 -33.404 -5.006 -4.954 -33.404 -5.006
5 24 0 -14.633 -9.734 0 -13.625 -7.857 6.66 -13.999 -7.017 -6.201 -15.391 -9.725
5 24 0 -13.206 6.734 0 -14.922 9.011 4.367 -14.717 8.349 -4.367 -14.717 8.349
5 24 0 -43.128 -8.507 0 -43.021 -9.513 1.408 -42.891 -9.396 -1.408 -42.891 -9.396
5 24 0 -28.75 -14.982 0 -26.873 -14.851 2.693 -29.147 -14.868 -2.693 -29.147 -14.868
5 24 0 -21.87 12.891 0 -23.962 13.906 2.998 -24.28 13.767 -3.521 -22.212 12.717
5 24 0 -35.737 -5.413 0 -39.126 -7.033 4.084 -35.492 -6.519 -4.084 -35.492 -6.519
5 24 0 -20.826 -14.539 0 -17.651 -13.193 4.945 -20.889 -14.141 -4.945 -20.889 -14.141
5 24 0 -45.092 -12.005 0 -45.03 -12.72 1.01 -44.913 -12.591 -1.01 -44.913 -12.591
5 24 0 -34.204 5.583 0 -32.838 3.384 3.445 -33.725 5.647 -3.445 -33.725 5.647
5 24 0 -8.438 8.293 0 -9.42 6.146 4.821 -8.445 6.716 -4.821 -8.445 6.716
5 24 0 -9.415 -5.824 0 -8.462 -8.255 4.615 -9.243 -5.336 -4.615 -9.243 -5.336
5 24 0 -6.846 9.231 0 -8.438 8.293 5.393 -6.864 7.538 -5.393 -6.864 7.538
5 24 0 -8.462 -8.255 0 -6.868 -9.269 5.413 -6.873 -7.511 -4.836 -8.468 -6.677
5 24 0 -5.488 9.333 0 -6.846 9.231 4.667 -5.488 8.083 -4.667 -5.488 8.083
5 24 0 -6.868 -9.269 0 -5.488 -9.334 5.413 -6.873 -7.511 -5.413 -6.873 -7.511
5 24 0 -10.183 5.412 0 -12.284 5.667 3.685 -10.022 5.114 -3.685 -10.022 5.114
5 24 0 -12.783 -6.698 0 -10.606 -5.336 5.648 -12.695 -5.548 -5.648 -12.695 -5.548
5 24 0 -5.488 -9.334 0 -5 -8 3.062 -5 -7.391 -3.062 -5 -7.391
5 24 0 -5 8 0 -5.488 9.333 4.667 -5.488 8.083 -4.667 -5.488 8.083
