0 Train Coupling Hook without Notch with Round Base Connection
0 Name: u9514c01.dat
0 Author: Gerald Lasser [GeraldLasser]
0 !LDRAW_ORG Shortcut UPDATE 2022-04
0 !LICENSE Licensed under CC BY 4.0 : see CAreadme.txt

0 !HELP This part was only used together with Plate 3176

0 BFC CERTIFY CCW

0 !HISTORY 2022-07-18 [PTadmin] Official Update 2022-04


1 16 0 0 0 1 0 0 0 1 0 0 0 1 u9514.dat
1 16 0 0 0 1 0 0 0 1 0 0 0 1 u9513.dat
