0 ~Moved to stug-6x6
0 Name: stug6.dat
0 Author: [PTadmin]
0 !LDRAW_ORG Primitive UPDATE 2011-01
0 !LICENSE Licensed under CC BY 4.0 : see CAreadme.txt

0 BFC CERTIFY CCW

0 !HISTORY 2011-07-25 [PTadmin] Official Update 2011-01


0 // Stud Group 6 x 6
1 16 0 0 0 1 0 0 0 1 0 0 0 1 stug-6x6.dat
