0 ~Minifig Weapon Blaster with Two Barrels unrotated
0 Name: s\17010s01.dat
0 Author: Gerald Lasser [GeraldLasser]
0 !LDRAW_ORG Subpart UPDATE 2020-02
0 !LICENSE Licensed under CC BY 4.0 : see CAreadme.txt

0 BFC CERTIFY CCW

0 !HISTORY 2020-09-05 [PTadmin] Official Update 2020-02


0 // Supparted to allow for easier editing
0 // This sub-part is rotated at 0 0 0 by 12 degrees

0 // Top Part
1 16 0 11.25 7.25 0 0 1.85 -1.85 0 0 0 -1.25 0 4-4cylc.dat
1 16 0 11.25 6 -3 0 0 0 0 3 0 -1 0 2-4edge.dat
1 16 0 11.25 6 -3 0 0 0 0 3 0 -1 0 2-4disc.dat
1 16 0 9.125 6 3 0 0 0 0 -2.125 0 -1 0 rect3.dat
1 16 0 7 -2.75 0 0 -3 0 1 0 -8.75 0 0 rect2p.dat

1 16 0 5.2 -9.5 -2 0 0 0 0 -2 0 -2 0 2-4cylc.dat
1 16 0 6.1 -11.5 0 0 2 .9 0 0 0 2 0 box3u8p.dat
1 16 0 4.9 -11.5 -3 0 0 0 0 -3 0 -1 0 2-4disc.dat
1 16 0 5.95 -11.5 3 0 0 0 0 1.05 0 -1 0 rect3.dat
2 24 2 7 -9.5 2 7 -11.5
2 24 2 7 -9.5 -2 7 -9.5
2 24 -2 7 -9.5 -2 7 -11.5

1 16 0 4.9 -19.5 -3 0 0 0 0 -3 0 8 0 2-4cylc.dat
1 16 0 6.55 -19.5 0 0 3 -1.65 0 0 0 1 0 rect2p.dat
1 16 0 8.2 -19.5 -3 0 0 0 0 3 0 1 0 2-4disc.dat
1 16 0 8.2 -19.5 -3 0 0 0 0 3 0 1 0 2-4edge.dat
1 16 0 8.2 -21.5 -2 0 0 0 0 2 0 2 0 2-4cylc.dat
1 16 0 4.9 -21.5 -2 0 0 0 0 -2 0 2 0 2-4cylc.dat
1 16 0 6.55 -19.5 0 0 2 1.65 0 0 0 -2 0 box3u8p.dat

3 16 3 7 -11.5 3 8.2 -19.5 3 10.1 -10.35
3 16 3 11.05 -2.1 3 11.25 6 3 7 6
4 16 3 7 -11.5 3 10.1 -10.35 3 11.05 -2.1 3 7 6
4 16 3 4.9 -11.5 3 4.9 -19.5 3 8.2 -19.5 3 7 -11.5
3 16 -3 7 -11.5 -3 10.1 -10.35 -3 8.2 -19.5
3 16 -3 11.25 6 -3 11.05 -2.1 -3 7 6
4 16 -3 7 6 -3 11.05 -2.1 -3 10.1 -10.35 -3 7 -11.5
4 16 -3 4.9 -19.5 -3 4.9 -11.5 -3 7 -11.5 -3 8.2 -19.5

0 // Cover
1 16 0 11.25 6 3 0 0 0 -.2 3 0 -8.1 0 2-4cyli.dat
1 16 0 11.05 -2.1 3 0 0 0 -.95 3 0 -8.25 0 2-4cyli.dat
1 16 0 10.1 -10.35 3 0 0 0 -1.9 3 0 -9.15 0 2-4cyli.dat

5 24 2.7717 12.1981 -2.1 3 11.05 -2.1 2.7717 11.2481 -10.35 3 11.25 6
5 24 0 14.05 -2.1 1.1481 13.8217 -2.1 0 13.1 -10.35 1.1481 14.0217 6
5 24 -1.1481 13.8217 -2.1 0 14.05 -2.1 -1.1481 12.8717 -10.35 0 14.25 6
5 24 -2.7717 12.1981 -2.1 -2.1213 13.1713 -2.1 -2.7717 11.2481 -10.35 -2.1213 13.3713 6
5 24 1.1481 13.8217 -2.1 2.1213 13.1713 -2.1 1.1481 12.8717 -10.35 2.1213 13.3713 6
5 24 2.1213 13.1713 -2.1 2.7717 12.1981 -2.1 2.7717 12.3981 6 2.1213 12.2213 -10.35
5 24 -3 11.05 -2.1 -2.7717 12.1981 -2.1 -3 10.1 -10.35 -2.7717 12.3981 6
5 24 -2.1213 13.1713 -2.1 -1.1481 13.8217 -2.1 -2.1213 12.2213 -10.35 -1.1481 14.0217 6

5 24 0 13.1 -10.35 1.1481 12.8717 -10.35 1.1481 13.8217 -2.1 0 11.2 -19.5
5 24 -2.1213 12.2213 -10.35 -1.1481 12.8717 -10.35 -1.1481 13.8217 -2.1 -2.1213 10.3213 -19.5
5 24 2.1213 12.2213 -10.35 2.7717 11.2481 -10.35 2.7717 12.1981 -2.1 2.1213 10.3213 -19.5
5 24 2.7717 11.2481 -10.35 3 10.1 -10.35 3 11.05 -2.1 2.7717 9.3481 -19.5
5 24 -3 10.1 -10.35 -2.7717 11.2481 -10.35 -3 8.2 -19.5 -2.7717 12.1981 -2.1
5 24 -2.7717 11.2481 -10.35 -2.1213 12.2213 -10.35 -2.1213 13.1713 -2.1 -2.7717 9.3481 -19.5
5 24 1.1481 12.8717 -10.35 2.1213 12.2213 -10.35 2.1213 13.1713 -2.1 1.1481 10.9717 -19.5
5 24 -1.1481 12.8717 -10.35 0 13.1 -10.35 0 14.05 -2.1 -1.1481 10.9717 -19.5

0 // Handle intersection Top
1 16 0 6.94507 1.3 0 0 -4 0 -.83165 0 -3.91259 0 0 2-4cyls.dat
1 16 0 6.94507 1.3 0 0 4 0 -.83165 0 -3.91259 0 0 2-4cyls.dat
1 16 0 6.94507 1.3 0 0 4 0 2.8049 0 3.91259 0 0 4-4cyli.dat
1 16 0 9.75 1.3 0 0 4 0 -1 0 3.91259 0 0 4-4disc.dat
1 16 0 9.75 1.3 0 0 4 0 -1 0 3.91259 0 0 4-4edge.dat
2 24 3 7 3.815437 3 9.75 3.815437
2 24 3 9.75 -1.21544 3 7 -1.215437
2 24 3 9.75 -1.21544 3 9.75 3.815437
2 24 -3 7 -1.215437 -3 9.75 -1.21544
2 24 -3 9.75 -1.21544 -3 9.75 3.81544
2 24 -3 7 3.815437 -3 9.75 3.81544
1 16 0 7 1.3 0 0 4 0 1 0 3.91259 0 0 1-8edge.dat
1 16 0 7 1.3 0 0 -4 0 1 0 3.91259 0 0 1-8edge.dat
1 16 0 7 1.3 0 0 4 0 1 0 -3.91259 0 0 1-8edge.dat
1 16 0 7 1.3 0 0 -4 0 1 0 -3.91259 0 0 1-8edge.dat
2 24 -3 7 -1.215437 -2.8284 7 -1.46659
2 24 2.8284 7 -1.46659 3 7 -1.215437
2 24 2.8284 7 4.06659 3 7 3.815437
2 24 -2.8284 7 4.06659 -3 7 3.815437

0 // Bottom Part
1 16 0 -12.375 6 -3 0 0 0 0 -3 0 -1 0 2-4edge.dat
1 16 0 -12.375 7.25 0 0 1.85 -1.85 0 0 0 -1.25 0 4-4cylc.dat
1 16 0 -12.375 6 -3 0 0 0 0 -3 0 -1 0 2-4disc.dat
1 16 0 -9.6875 6 3 0 0 0 0 2.6875 0 -1 0 rect3.dat
1 16 0 -7 -3.625 0 0 -3 0 -1 0 9.625 0 0 rect2p.dat

1 16 0 -5.2 -11.4 -2 0 0 0 0 2 0 -1.85 0 2-4cylc.dat
1 16 0 -6.1 -13.25 0 0 2 .9 0 0 0 1.85 0 box3u8p.dat
1 16 0 -4.9 -13.25 -3 0 0 0 0 3 0 -1 0 2-4disc.dat
1 16 0 -5.95 -13.25 3 0 0 0 0 -1.05 0 -1 0 rect3.dat
2 24 -2 -7 -11.4 -2 -7 -13.25
2 24 -2 -7 -11.4 2 -7 -11.4
2 24 2 -7 -11.4 2 -7 -13.25

1 16 0 -8.4 -23.9 -3 0 0 0 0 -3 0 1 0 2-4disc.dat
1 16 0 -8.4 -23.9 -3 0 0 0 0 -3 0 1 0 2-4edge.dat
1 16 0 -6.65 -23.9 0 0 3 -1.75 0 0 0 1 0 rect2p.dat
1 16 0 -4.9 -23.9 -3 0 0 0 0 3 0 10.65 0 2-4cylc.dat
1 16 0 -4.9 -26.9 -2 0 0 0 0 2 0 3 0 2-4cylc.dat
1 16 0 -8.4 -26.9 -2 0 0 0 0 -2 0 3 0 2-4cylc.dat
1 16 0 -6.65 -23.9 0 0 2 1.75 0 0 0 -3 0 box3u8p.dat

0 // Cover
1 16 0 -12.375 6 3 0 0 0 .2 -3 0 -8.25 0 2-4cyli.dat
1 16 0 -12.175 -2.25 3 0 0 0 .9 -3 0 -8.45 0 2-4cyli.dat
1 16 0 -11.275 -10.7 3 0 0 0 1.7 -3 0 -9.2 0 2-4cyli.dat
1 16 0 -9.575 -19.9 3 0 0 0 1.175 -3 0 -4 0 2-4cyli.dat

3 16 3 -7 6 3 -12.375 6 3 -12.175 -2.25
4 16 3 -4.9 -23.9 3 -4.9 -13.25 3 -7 -13.25 3 -8.4 -23.9
4 16 3 -9.575 -19.9 3 -8.4 -23.9 3 -7 -13.25 3 -11.275 -10.7
4 16 3 -12.175 -2.25 3 -11.275 -10.7 3 -7 -13.25 3 -7 6
3 16 -3 -12.175 -2.25 -3 -12.375 6 -3 -7 6
4 16 -3 -11.275 -10.7 -3 -12.175 -2.25 -3 -7 6 -3 -7 -13.25
4 16 -3 -9.575 -19.9 -3 -11.275 -10.7 -3 -7 -13.25 -3 -8.4 -23.9
4 16 -3 -4.9 -23.9 -3 -8.4 -23.9 -3 -7 -13.25 -3 -4.9 -13.25

5 24 -1.1481 -14.9467 -2.25 -2.1213 -14.2963 -2.25 -1.1481 -14.0467 -10.7 -2.1213 -14.4963 6
5 24 3 -12.175 -2.25 2.7717 -13.3231 -2.25 3 -11.275 -10.7 2.7717 -13.5231 6
5 24 1.1481 -14.9467 -2.25 0 -15.175 -2.25 1.1481 -14.0467 -10.7 0 -15.375 6
5 24 -2.7717 -13.3231 -2.25 -3 -12.175 -2.25 -2.7717 -12.4231 -10.7 -3 -12.375 6
5 24 2.1213 -14.2963 -2.25 1.1481 -14.9467 -2.25 2.1213 -13.3963 -10.7 1.1481 -15.1467 6
5 24 -2.1213 -14.2963 -2.25 -2.7717 -13.3231 -2.25 -2.1213 -13.3963 -10.7 -2.7717 -13.5231 6
5 24 2.7717 -13.3231 -2.25 2.1213 -14.2963 -2.25 2.7717 -12.4231 -10.7 2.1213 -14.4963 6
5 24 0 -15.175 -2.25 -1.1481 -14.9467 -2.25 0 -14.275 -10.7 -1.1481 -15.1467 6

5 24 2.7717 -12.4231 -10.7 2.1213 -13.3963 -10.7 2.1213 -14.2963 -2.25 2.7717 -10.7231 -19.9
5 24 -1.1481 -14.0467 -10.7 -2.1213 -13.3963 -10.7 -2.1213 -14.2963 -2.25 -1.1481 -12.3467 -19.9
5 24 1.1481 -14.0467 -10.7 0 -14.275 -10.7 0 -15.175 -2.25 1.1481 -12.3467 -19.9
5 24 2.1213 -13.3963 -10.7 1.1481 -14.0467 -10.7 1.1481 -14.9467 -2.25 2.1213 -11.6963 -19.9
5 24 0 -14.275 -10.7 -1.1481 -14.0467 -10.7 -1.1481 -14.9467 -2.25 0 -12.575 -19.9
5 24 3 -11.275 -10.7 2.7717 -12.4231 -10.7 2.7717 -13.3231 -2.25 3 -9.575 -19.9
5 24 -2.1213 -13.3963 -10.7 -2.7717 -12.4231 -10.7 -2.7717 -13.3231 -2.25 -2.1213 -11.6963 -19.9
5 24 -2.7717 -12.4231 -10.7 -3 -11.275 -10.7 -3 -12.175 -2.25 -2.7717 -10.7231 -19.9

5 24 -2.7717 -10.7231 -19.9 -3 -9.575 -19.9 -2.7717 -9.5481 -23.9 -3 -11.275 -10.7
5 24 0 -12.575 -19.9 -1.1481 -12.3467 -19.9 0 -11.4 -23.9 -1.1481 -14.0467 -10.7
5 24 -1.1481 -12.3467 -19.9 -2.1213 -11.6963 -19.9 -1.1481 -11.1717 -23.9 -2.1213 -13.3963 -10.7
5 24 2.1213 -11.6963 -19.9 1.1481 -12.3467 -19.9 2.1213 -10.5213 -23.9 1.1481 -14.0467 -10.7
5 24 1.1481 -12.3467 -19.9 0 -12.575 -19.9 1.1481 -11.1717 -23.9 0 -14.275 -10.7
5 24 3 -9.575 -19.9 2.7717 -10.7231 -19.9 3 -8.4 -23.9 2.7717 -12.4231 -10.7
5 24 2.7717 -10.7231 -19.9 2.1213 -11.6963 -19.9 2.7717 -9.5481 -23.9 2.1213 -13.3963 -10.7
5 24 -2.1213 -11.6963 -19.9 -2.7717 -10.7231 -19.9 -2.1213 -10.5213 -23.9 -2.7717 -12.4231 -10.7

0 // Handle intersection Bottom
1 16 0 -6.94507 -1.3 0 0 -4 0 .83165 0 3.91259 0 0 2-4cyls.dat
1 16 0 -6.94507 -1.3 0 0 4 0 .83165 0 3.91259 0 0 2-4cyls.dat
1 16 0 -6.94507 -1.3 0 0 4 0 -2.8049 0 3.91259 0 0 4-4cyli.dat
1 16 0 -9.75 -1.3 0 0 4 0 1 0 3.91259 0 0 4-4disc.dat
1 16 0 -9.75 -1.3 0 0 4 0 1 0 3.91259 0 0 4-4edge.dat
2 24 3 -9.75 1.21544 3 -7 1.215437
2 24 3 -9.75 -3.81544 3 -7 -3.815437
2 24 -3 -7 -3.815437 -3 -9.75 -3.81544
2 24 -3 -7 1.215437 -3 -9.75 1.21544
2 24 -3 -9.75 -3.81544 -3 -9.75 1.21544
2 24 3 -9.75 -3.81544 3 -9.75 1.21544
1 16 0 -7 -1.3 0 0 4 0 1 0 3.91259 0 0 1-8edge.dat
1 16 0 -7 -1.3 0 0 -4 0 1 0 3.91259 0 0 1-8edge.dat
1 16 0 -7 -1.3 0 0 4 0 1 0 -3.91259 0 0 1-8edge.dat
1 16 0 -7 -1.3 0 0 -4 0 1 0 -3.91259 0 0 1-8edge.dat
2 24 3 -7 1.215437 2.8284 -7 1.466592
2 24 3 -7 -3.815437 2.8284 -7 -4.066592
2 24 -2.8284 -7 -4.066592 -3 -7 -3.815437
2 24 -2.8284 -7 1.466592 -3 -7 1.215437
