0 ~Sticker  0.8 x  1.8 with Black Number Plate "LS 16 128" on White Background - One Half Top Face
0 Name: s\6141875vs01.dat
0 Author: Massimo Maso [Sirio]
0 !LDRAW_ORG Subpart UPDATE 2023-06
0 !LICENSE Licensed under CC BY 4.0 : see CAreadme.txt

0 BFC CERTIFY CCW

0 !HISTORY 2023-11-19 [OrionP] Official Update 2023-06


0 // Primitives
1 0 36.5 0 6.5 1.5 0 0 0 1 0 0 0 1.5 1-4chrd.dat
1 71 36.5 0 -6.5 1.5 0 0 0 1 0 0 0 -1.5 1-4chrd.dat
1 0 13.7 0 4.96 1 0 0 0 1 0 0 0 1 1-4ndis.dat
1 15 13.7 0 4.96 1 0 0 0 1 0 0 0 1 1-4chrd.dat
1 15 13.7 0 -1.04 1 0 0 0 1 0 0 0 -1 1-4chrd.dat
1 0 13.7 0 -1.04 1 0 0 0 1 0 0 0 -1 1-4ndis.dat
0 // Faces
0 // Black faces
3 0 36.5 0 8 13.7 0 6.56 13.9088 0 6.5462
3 0 36.5 0 8 13.9088 0 6.5462 14.1141 0 6.5054
3 0 36.5 0 8 14.1141 0 6.5054 14.3123 0 6.4382
4 0 36.5 0 8 14.3123 0 6.4382 14.5 0 6.3456 18.2 0 6.4
3 0 36.5 0 8 18.2 0 6.4 33.1 0 6.4
3 0 36.5 0 8 33.1 0 6.4 36 0 -1.05
4 0 36.5 0 8 36 0 -1.05 38 0 -2 38 0 6.5
3 0 18.2 0 6.4 14.5 0 6.3456 14.6741 0 6.2294
3 0 18.2 0 6.4 14.6741 0 6.2294 14.8314 0 6.0914
4 0 18.2 0 6.4 14.8314 0 6.0914 14.9467 0 5.96 17.6 0 5.96
3 0 18.2 0 6.4 17.6 0 5.96 17.6 0 5.36
3 0 18.2 0 6.4 17.6 0 5.36 17.6 0 4.66
3 0 18.2 0 6.4 17.6 0 4.66 17.6 0 4.06
3 0 18.2 0 6.4 17.6 0 4.06 17.6 0 3.36
3 0 18.2 0 6.4 17.6 0 3.36 17.6 0 2.76
3 0 18.2 0 6.4 17.6 0 2.76 17.6 0 2.06
4 0 18.2 0 6.4 17.6 0 2.06 17.6 0 1.46 18.2 0 -2.55
4 0 13.7 0 5.96 13.8958 0 6.4471 13.7 0 6.46 13.6 0 5.96
4 0 13.7 0 5.96 14.2741 0 6.3459 14.0882 0 6.4089 13.8958 0 6.4471
4 0 13.7 0 5.96 14.6132 0 6.1501 14.45 0 6.259 14.2741 0 6.3459
4 0 13.7 0 5.96 14.7 0 5.96 14.7607 0 6.0207 14.6132 0 6.1501
4 0 14.7 0 4.96 14.8901 0 5.8732 14.7607 0 6.0207 14.7 0 5.96
4 0 14.7 0 4.96 15.0859 0 5.5341 14.999 0 5.71 14.8901 0 5.8732
4 0 14.7 0 4.96 15.2 0 4.66 15.1449 0 5.36 15.0859 0 5.5341
3 0 14.7 0 4.96 15.2 0 4.06 15.2 0 4.66
3 0 14.7 0 4.96 15.2 0 3.36 15.2 0 4.06
3 0 14.7 0 4.96 15.2 0 2.76 15.2 0 3.36
3 0 14.7 0 4.96 15.2 0 2.06 15.2 0 2.76
4 0 14.7 0 -1.04 15.2 0 1.46 15.2 0 2.06 14.7 0 4.96
4 0 17.6 0 5.36 15.1449 0 5.36 15.2 0 4.66 17.6 0 4.66
4 0 17.6 0 4.06 15.2 0 4.06 15.2 0 3.36 17.6 0 3.36
4 0 17.6 0 2.76 15.2 0 2.76 15.2 0 2.06 17.6 0 2.06
4 0 17.6 0 1.46 15.2 0 1.46 15.2 0 .76 17.6 0 .76
4 0 17.6 0 .16 15.2 0 .16 15.2 0 -.54 17.6 0 -.54
4 0 17.6 0 -1.84 17.6 0 -1.14 15.2 0 -1.14 14.9656 0 -1.84
3 0 14.7 0 -1.04 15.2 0 .76 15.2 0 1.46
3 0 14.7 0 -1.04 15.2 0 .16 15.2 0 .76
3 0 14.7 0 -1.04 15.2 0 -.54 15.2 0 .16
3 0 14.7 0 -1.04 15.2 0 -1.14 15.2 0 -.54
4 0 14.7 0 -1.04 14.8901 0 -1.9532 14.9656 0 -1.84 15.2 0 -1.14
4 0 14.7 0 -1.04 14.7 0 -2.04 14.7607 0 -2.1007 14.8901 0 -1.9532
3 0 13.6 0 -2.04 1.65 0 -2.54 4.95 0 -2.54
3 0 13.6 0 -2.04 4.95 0 -2.54 8.25 0 -2.54
3 0 13.6 0 -2.04 8.25 0 -2.54 11.55 0 -2.54
3 0 13.6 0 -2.04 11.55 0 -2.54 13.7 0 -2.54
4 0 13.7 0 -2.04 13.6 0 -2.04 13.7 0 -2.54 13.8958 0 -2.5271
4 0 13.7 0 -2.04 13.8958 0 -2.5271 14.0882 0 -2.4889 14.2741 0 -2.4259
4 0 13.7 0 -2.04 14.2741 0 -2.4259 14.45 0 -2.339 14.6132 0 -2.2301
4 0 13.7 0 -2.04 14.6132 0 -2.2301 14.7607 0 -2.1007 14.7 0 -2.04
3 0 18.2 0 -2.55 17.6 0 1.46 17.6 0 .76
3 0 18.2 0 -2.55 17.6 0 .76 17.6 0 .16
3 0 18.2 0 -2.55 17.6 0 .16 17.6 0 -.54
3 0 18.2 0 -2.55 17.6 0 -.54 17.6 0 -1.14
3 0 18.2 0 -2.55 17.6 0 -1.14 17.6 0 -1.84
3 0 18.2 0 -2.55 17.6 0 -1.84 17.6 0 -2.44
4 0 18.2 0 -2.55 17.6 0 -2.44 14.7528 0 -2.44 15.2 0 -2.9
4 0 18.2 0 -2.55 15.2 0 -2.9 15.2 0 -3.4 22.1833 0 -2.55
4 0 24.5 0 -2 38 0 -2 36 0 -1.05 24.1833 0 -1.05
4 0 24.5 0 -2 24.1833 0 -1.05 22.1833 0 -2.55 22.5 0 -3.5
4 0 2 0 -2.9 4.6 0 -2.9 4.95 0 -2.54 1.65 0 -2.54
4 0 2 0 -2.9 2 0 -3.4 4.6 0 -3.4 4.6 0 -2.9
4 0 5.5 0 -3 5.5 0 -3.4 7.7 0 -3.4 7.7 0 -3
4 0 8.6 0 -2.9 11.2 0 -2.9 11.55 0 -2.54 8.25 0 -2.54
4 0 8.6 0 -2.9 8.6 0 -3.4 11.2 0 -3.4 11.2 0 -2.9
4 0 12.1 0 -3 12.1 0 -3.4 14.3 0 -3.4 14.3 0 -3
3 0 10 0 -3.5 2 0 -3.4 1.1 0 -3.4
3 0 10 0 -3.5 4.6 0 -3.4 2 0 -3.4
3 0 10 0 -3.5 5.5 0 -3.4 4.6 0 -3.4
3 0 10 0 -3.5 7.7 0 -3.4 5.5 0 -3.4
3 0 10 0 -3.5 8.6 0 -3.4 7.7 0 -3.4
3 0 10 0 -3.5 11.2 0 -3.4 8.6 0 -3.4
3 0 10 0 -3.5 12.1 0 -3.4 11.2 0 -3.4
3 0 10 0 -3.5 14.3 0 -3.4 12.1 0 -3.4
3 0 10 0 -3.5 15.2 0 -3.4 14.3 0 -3.4
3 0 10 0 -3.5 22.5 0 -3.5 15.2 0 -3.4
3 0 22.5 0 -3.5 22.1833 0 -2.55 15.2 0 -3.4
0 // Dark grey faces
4 72 36 0 -1.05 33.1 0 6.4 18.2 0 6.4 24.1833 0 -1.05
4 72 22.1833 0 -2.55 24.1833 0 -1.05 18.2 0 6.4 18.2 0 -2.55
0 // Light grey faces
4 71 13.9088 0 6.5462 13.7 0 6.56 13.7 0 6.46 13.8958 0 6.4471
4 71 13.9088 0 6.5462 13.8958 0 6.4471 14.0882 0 6.4089 14.1141 0 6.5054
4 71 14.3123 0 6.4382 14.1141 0 6.5054 14.0882 0 6.4089 14.2741 0 6.3459
4 71 14.3123 0 6.4382 14.2741 0 6.3459 14.45 0 6.259 14.5 0 6.3456
4 71 14.6741 0 6.2294 14.5 0 6.3456 14.45 0 6.259 14.6132 0 6.1501
4 71 14.6741 0 6.2294 14.6132 0 6.1501 14.7607 0 6.0207 14.8314 0 6.0914
4 71 14.9467 0 5.96 14.8314 0 6.0914 14.7607 0 6.0207 14.8901 0 5.8732
4 71 17.6 0 5.96 14.9467 0 5.96 14.8901 0 5.8732 14.999 0 5.71
3 71 17.6 0 5.96 14.999 0 5.71 15.0859 0 5.5341
4 71 17.6 0 5.96 15.0859 0 5.5341 15.1449 0 5.36 17.6 0 5.36
4 71 17.6 0 4.06 17.6 0 4.66 15.2 0 4.66 15.2 0 4.06
4 71 17.6 0 2.76 17.6 0 3.36 15.2 0 3.36 15.2 0 2.76
4 71 17.6 0 1.46 17.6 0 2.06 15.2 0 2.06 15.2 0 1.46
4 71 17.6 0 .16 17.6 0 .76 15.2 0 .76 15.2 0 .16
4 71 17.6 0 -1.14 17.6 0 -.54 15.2 0 -.54 15.2 0 -1.14
4 71 17.6 0 -2.44 17.6 0 -1.84 14.9656 0 -1.84 14.8901 0 -1.9532
3 71 17.6 0 -2.44 14.8901 0 -1.9532 14.7607 0 -2.1007
3 71 17.6 0 -2.44 14.7607 0 -2.1007 14.6132 0 -2.2301
4 71 17.6 0 -2.44 14.6132 0 -2.2301 14.45 0 -2.339 14.7528 0 -2.44
3 71 1.1 0 -3 2 0 -2.9 1.65 0 -2.54
4 71 1.1 0 -3 1.1 0 -3.4 2 0 -3.4 2 0 -2.9
4 71 5.5 0 -3 4.6 0 -2.9 4.6 0 -3.4 5.5 0 -3.4
3 71 5.5 0 -3 4.95 0 -2.54 4.6 0 -2.9
4 71 5.5 0 -3 7.7 0 -3 8.25 0 -2.54 4.95 0 -2.54
3 71 7.7 0 -3 8.6 0 -2.9 8.25 0 -2.54
4 71 7.7 0 -3 7.7 0 -3.4 8.6 0 -3.4 8.6 0 -2.9
4 71 11.2 0 -3.4 12.1 0 -3.4 12.1 0 -3 11.2 0 -2.9
4 71 14.3 0 -3 11.55 0 -2.54 11.2 0 -2.9 12.1 0 -3
4 71 14.3 0 -3 15.2 0 -2.9 13.7 0 -2.54 11.55 0 -2.54
4 71 14.3 0 -3 14.3 0 -3.4 15.2 0 -3.4 15.2 0 -2.9
3 71 15.2 0 -2.9 13.8958 0 -2.5271 13.7 0 -2.54
3 71 15.2 0 -2.9 14.0882 0 -2.4889 13.8958 0 -2.5271
3 71 15.2 0 -2.9 14.2741 0 -2.4259 14.0882 0 -2.4889
4 71 15.2 0 -2.9 14.7528 0 -2.44 14.45 0 -2.339 14.2741 0 -2.4259
4 71 38 0 -6.5 38 0 -2 24.5 0 -2 22.5 0 -3.5
3 71 38 0 -6.5 22.5 0 -3.5 10 0 -3.5
0 // White faces
4 15 13.7 0 5.96 13.6 0 5.96 13.6 0 -2.04 13.7 0 -2.04
4 15 13.7 0 5.96 13.7 0 -2.04 14.7 0 -1.04 14.7 0 4.96
