0 ~Animal Dolphin - Half
0 Name: s\6228bs01.dat
0 Author: Willy Tschager [Holly-Wood]
0 !LDRAW_ORG Subpart UPDATE 2019-03
0 !LICENSE Licensed under CC BY 4.0 : see CAreadme.txt

0 BFC CERTIFY CCW

0 !HISTORY 2019-12-27 [PTadmin] Official Update 2019-03


2 24 6 -14.318 -14.477 6 0 -16.582
2 24 6 0 -16.582 0 0 -16.582
2 24 6 0 16 0 0 16
2 24 6 -9.612 17.421 0 -9.612 17.421
2 24 6 0 16 6 -9.612 17.421
2 24 6 -14.318 -14.477 6 -9.612 17.421
2 24 0 -14.318 -14.477 6 -14.318 -14.477
2 24 6 0 -16.582 6 0 16
2 24 15.059 0 -2.815 14.435 0 -21.368
2 24 12.018 0 24.27 15.188 0 7.266
2 24 7.274 -23.27 -52.512 6.47 -23.292 -50.889
2 24 6.47 -23.292 -50.889 7.878 -23.085 -48.655
2 24 10.25 -25.56 -48.955 9.405 -26.353 -50.805
2 24 8.963 -25.855 -52.35 8.949 -24.58 -53.293
2 24 22.283 -2.242 92.767 27.335 -2.33 92.28
2 24 27.335 -2.33 92.28 25.475 -1.135 89.075
2 24 13.783 -17.587 -42.59 11.365 -15.381 -53.18
2 24 7.453 -16.579 -66.959 9.166 -15.762 -60.626
2 24 7.274 -23.27 -52.512 9.352 -23.181 -53.058
2 24 11.014 -23.261 -48.108 7.878 -23.085 -48.655
2 24 9.352 -23.181 -53.058 11.014 -23.261 -48.108
2 24 11.014 -23.261 -48.108 10.25 -25.56 -48.955
2 24 9.405 -26.353 -50.805 8.963 -25.855 -52.35
2 24 8.949 -24.58 -53.293 9.352 -23.181 -53.058
2 24 25.475 -1.135 89.075 18.951 .697 84.486
2 24 11.524 -1.998 89.8 22.283 -2.242 92.767
2 24 0 -.736 86.919 11.524 -1.998 89.8
2 24 11.365 -15.381 -53.18 9.918 -15.295 -60.604
2 24 9.918 -15.295 -60.604 8.16 -16.3 -67.202
2 24 8.16 -16.3 -67.202 6.201 -17.305 -73.02
2 24 6.201 -17.305 -73.02 3.857 -18.031 -76.454
2 24 3.857 -18.031 -76.454 2.128 -18.324 -77.486
2 24 2.128 -18.324 -77.486 0 -18.234 -78.109
2 24 30.335 -4.935 -15.368 33.127 -3.875 -6.629
2 24 26.65 -5.254 -20.332 30.335 -4.935 -15.368
2 24 21.164 -5.204 -25.403 26.65 -5.254 -20.332
2 24 33.127 -3.875 -6.629 32.313 -3.557 -5.366
2 24 32.313 -3.557 -5.366 30.119 -3.611 -5.777
2 24 30.119 -3.611 -5.777 25.973 -3.681 -6.408
2 24 25.973 -3.681 -6.408 20.986 -3.602 -6.193
2 24 17.341 -5.618 -28.946 21.164 -5.204 -25.403
2 24 14.841 -5.655 -31.485 17.341 -5.618 -28.946
2 24 20.986 -3.602 -6.193 16.74 -3.544 -5.497
2 24 16.102 -4.079 -21.793 16.74 -3.544 -5.497
2 24 14.841 -5.655 -31.485 16.102 -4.079 -21.793
2 24 10.68 -15.779 -53.272 12.954 -17.479 -45.165
2 24 9.166 -15.762 -60.626 10.68 -15.779 -53.272
2 24 5.621 -17.523 -72.666 7.453 -16.579 -66.959
2 24 3.483 -18.139 -76.04 5.621 -17.523 -72.666
2 24 2.045 -18.345 -77.076 3.483 -18.139 -76.04
2 24 0 -18.444 -77.495 2.045 -18.345 -77.076
2 24 12.954 -17.479 -45.165 13.783 -17.587 -42.59
2 24 .94 -56.826 30.747 1.3 -56.481 31.926
2 24 1.238 -39.342 4.071 1.238 -45.4 13.047
2 24 1.238 -45.4 13.047 1.124 -50.733 18.951
2 24 1.124 -50.733 18.951 .971 -55.296 25.008
2 24 .971 -55.296 25.008 .94 -56.826 30.747
2 24 2.021 -36.847 18.591 2.545 -35.637 22.497
2 24 2.57 -38.95 2.662 2.021 -36.847 18.591
2 24 0 -39.114 2.662 2.57 -38.95 2.662
2 24 2.545 -35.637 22.497 3.389 -35.102 23.923
2 24 6.673 -31.824 33.156 3.75 -31.517 35.794
2 24 7.585 -32.808 29.428 6.673 -31.824 33.156
2 24 6.231 -34.081 26.025 7.585 -32.808 29.428
2 24 3.389 -35.102 23.923 6.231 -34.081 26.025
2 24 3.75 -31.517 35.794 0 -31.936 36.479
2 24 6 0 -16.582 5.969 -14.318 -14.477
2 24 5.969 -14.318 -14.477 0 -14.318 -14.477
2 24 2 -36.49 -35.167 1.848 -36.63 -34.341
2 24 2 -33 -36.06 1.848 -33 -35.27
2 24 1.848 -36.402 -35.979 2 -36.49 -35.167
2 24 2 -33 -36.06 1.848 -33 -36.85
2 24 1.848 -36.402 -35.979 1.414 -36.4 -36.655
2 24 1.414 -33 -37.52 1.848 -33 -36.85
2 24 .765 -36.423 -37.091 1.414 -36.4 -36.655
2 24 .765 -33 -37.968 1.414 -33 -37.52
2 24 .765 -36.974 -33.135 0 -36.975 -32.939
2 24 0 -33 -33.996 .765 -33 -34.153
2 24 1.414 -36.82 -33.628 .765 -36.974 -33.135
2 24 .765 -33 -34.153 1.414 -33 -34.6
2 24 1.414 -36.82 -33.628 1.848 -36.63 -34.341
2 24 1.848 -33 -35.27 1.414 -33 -34.6
2 24 .765 -36.423 -37.091 0 -36.423 -37.221
2 24 .765 -33 -37.968 0 -33 -38.125
2 24 11.352 -5.795 -41.29 9.406 -8.697 -52.287
2 24 17.223 -11.842 -16.251 17.276 -9.222 1.445
2 24 32.223 -.704 94.686 30.153 .047 86.795
2 24 30.153 .047 86.795 23.989 1.659 80.598
2 24 8.532 -10.62 -60.286 7.111 -12.247 -67.291
2 24 24.352 -2.375 81.691 17.586 -1.259 76.225
2 24 0 .414 94.69 9.028 -1.279 96.778
2 24 30.51 -7.704 97.983 19.752 -7.606 98.564
2 24 13.494 3.02 74.879 22.407 2.817 82.711
2 24 8.961 -5.78 96.702 0 -3.638 94.761
2 24 29.91 -1.981 98.676 32.223 -.704 94.686
2 24 17.276 -9.222 1.445 16.373 -4.199 5.275
2 24 4 -37.38 30.437 3.464 -36.949 32.39
2 24 20.539 -2.542 99.382 29.91 -1.981 98.676
2 24 31.524 -7.091 94.31 30.51 -7.704 97.983
2 24 30.046 .17 91.711 30.129 -.427 94.358
2 24 3.464 -36.949 32.39 2 -36.633 33.819
2 24 18.329 -9.562 -31.754 23.117 -8.721 -27.928
2 24 13.069 -4.411 -32.975 12.688 -5.516 -36.944
2 24 38.303 -5.559 4.194 38.12 -1.441 3.506
2 24 22.974 -5.946 -28.159 18.351 -7.038 -32.383
2 24 18.351 -7.038 -32.383 15.693 -8.198 -35.681
2 24 19.928 -1.169 1.668 25.015 -1.358 .919
2 24 7.111 -12.247 -67.291 5.45 -13.93 -73.109
2 24 16.326 -.314 4.049 19.928 -1.169 1.668
2 24 38.801 -3.586 -6.5 35.262 -4.967 -15.168
2 24 2 -36.633 33.819 0 -36.518 34.343
2 24 14.435 0 -21.368 13.069 -4.411 -32.975
2 24 0 -54.998 37.009 1.409 -55.151 36.668
2 24 3.464 -37.811 28.484 4 -37.38 30.437
2 24 2 -38.126 27.054 1.238 -38.271 15.028
2 24 15.966 -10.88 -35.509 18.329 -9.562 -31.754
2 24 16.637 -11.509 -32.882 15.966 -10.88 -35.509
2 24 21.203 -.61 96.284 10.728 .393 93.197
2 24 23.989 1.659 80.598 15.97 1.826 74.311
2 24 25.015 -1.358 .919 30.951 -1.621 2.404
2 24 16.74 -3.544 -5.497 15.059 0 -2.815
2 24 30.127 -4.561 87.695 31.524 -7.091 94.31
2 24 27.813 1.613 86.849 30.046 .17 91.711
2 24 1.695 -14.882 -77.656 0 -14.741 -77.737
2 24 30.129 -.427 94.358 26.749 -.759 96.252
2 24 34.727 -7.542 -15.043 38.329 -7.253 -6.173
2 24 10.728 .393 93.197 0 2.155 90.394
2 24 30.127 -4.561 87.695 24.352 -2.375 81.691
2 24 15.188 0 7.266 16.326 -.314 4.049
2 24 26.749 -.759 96.252 21.203 -.61 96.284
2 24 19.127 -4.513 2.736 16.373 -4.199 5.275
2 24 24.891 -5.492 1.739 30.918 -5.626 3.043
2 24 3.64 -14.593 -76.116 1.695 -14.882 -77.656
2 24 35.262 -4.967 -15.168 30.54 -5.724 -21.697
2 24 5.45 -13.93 -73.109 3.64 -14.593 -76.116
2 24 24.891 -5.492 1.739 19.127 -4.513 2.736
2 24 2 -38.126 27.054 3.464 -37.811 28.484
2 24 9.406 -8.697 -52.287 8.532 -10.62 -60.286
2 24 1.238 -38.271 15.028 1.238 -39.342 4.071
2 24 22.407 2.817 82.711 27.813 1.613 86.849
2 24 38.329 -7.253 -6.173 39.218 -5.355 2.096
2 24 16.373 -4.199 5.275 16.326 -.314 4.049
2 24 2.57 -38.95 2.662 1.238 -39.342 4.071
2 24 38.12 -1.441 3.506 30.951 -1.621 2.404
2 24 12.688 -5.516 -36.944 11.352 -5.795 -41.29
2 24 34.727 -7.542 -15.043 30.479 -8.214 -21.034
2 24 19.752 -7.606 98.564 8.961 -5.78 96.702
2 24 23.117 -8.721 -27.928 30.479 -8.214 -21.034
2 24 38.12 -1.441 3.506 39.447 -1.845 .803
2 24 39.447 -1.845 .803 38.801 -3.586 -6.5
2 24 30.54 -5.724 -21.697 22.974 -5.946 -28.159
2 24 17.223 -11.842 -16.251 16.637 -11.509 -32.882
2 24 2.627 -55.738 34.24 1.3 -56.481 31.926
2 24 2.605 -55.454 35.843 2.627 -55.738 34.24
2 24 30.918 -5.626 3.043 38.303 -5.559 4.194
2 24 2.605 -55.454 35.843 1.409 -55.151 36.668
2 24 39.218 -5.355 2.096 38.303 -5.559 4.194
2 24 10.31 -5.009 80.389 15.063 -3.28 78.736
5 24 15.97 1.826 74.311 17.586 -1.259 76.225 8.065 -.695 65.822 23.989 1.659 80.598
2 24 0 -7.789 78.265 10.31 -5.009 80.389
2 24 15.063 -3.28 78.736 17.586 -1.259 76.225
2 24 7.878 -23.085 -48.655 7.011 -24.455 -49.22
2 24 6.571 -24.7 -50.57 7.011 -24.455 -49.22
2 24 30.51 -7.704 97.983 29.91 -1.981 98.676
2 24 6.73 -24.56 -51.699 7.274 -23.27 -52.512
2 24 9.028 -1.279 96.778 20.539 -2.542 99.382
2 24 6.571 -24.7 -50.57 6.73 -24.56 -51.699
2 24 8.644 -3.192 38.284 12.018 0 24.27
2 24 6.762 -3.718 48.444 4.068 -.767 59.471
2 24 6.762 -3.718 48.444 8.644 -3.192 38.284
2 24 4.068 -.767 59.471 5.894 .814 64.637
2 24 13.494 3.02 74.879 5.894 .814 64.637
2 24 15.059 0 -2.815 15.188 0 7.266
2 24 1.5 -9.6118 17.42248 1.5 -9.97666 14.94924

0 // Box
4 16 6 -9.612 17.421 6 0 16 6 0 -16.582 6 -14.318 -14.477
1 16 3 -7.159 -15.5295 3 0 0 0 -1 7.159 0 0 -1.0525 rect2a.dat
1 16 3 -4.806 16.7105 0 0 3 4.806 1 0 -.7105 0 0 rect3.dat
1 16 3 -11.965 1.472 0 0 3 -2.353 -1 0 -15.949 0 0 rect2a.dat

1 16 .75 -10.247 -14.974 0 0 .75 -.01454 4.05643 0 -.09894 -.59611 0 box2-9.dat
1 16 0 -6.176 -15.471 1.5 0 0 0 -8.11287 .21809 0 1.19222 1.48406 1-4cylc.dat

1 16 5 -12.737 -3.762 -1 0 0 0 6.23306 .21809 0 -.91597 1.48406 box3u5p.dat
1 16 4 -6.505 -4.681 0 0 -1.5 .21891 -6.23254 0 1.48394 .91944 0 2-4cylc.dat

1 16 5 -11.499 4.631 -1 0 0 0 4.94641 .21899 0 -.72997 1.48393 box3u5p.dat
1 16 4 -6.553 3.901 0 0 -1.5 .21899 -4.94641 0 1.48393 .72997 0 2-4cylc.dat

1 16 .75 -7.321 15.821 0 .75 0 .18243 0 2.47323 1.23662 0 -.36486 box2-9.dat
1 16 0 -5.029 14.221 0 0 1.5 -.21809 -4.94687 0 -1.48406 .72696 0 1-4cylc.dat

0 // Eye
3 16 9.405 -26.353 -50.805 6.571 -24.7 -50.57 7.011 -24.455 -49.22
3 16 7.274 -23.27 -52.512 6.47 -23.292 -50.889 6.73 -24.56 -51.699
3 16 7.878 -23.085 -48.655 7.011 -24.455 -49.22 6.47 -23.292 -50.889
3 16 7.274 -23.27 -52.512 7.878 -23.085 -48.655 6.47 -23.292 -50.889
3 16 10.25 -25.56 -48.955 9.405 -26.353 -50.805 7.011 -24.455 -49.22
3 16 8.963 -25.855 -52.35 8.949 -24.58 -53.293 6.73 -24.56 -51.699
3 16 6.571 -24.7 -50.57 6.73 -24.56 -51.699 6.47 -23.292 -50.889
3 16 7.011 -24.455 -49.22 6.571 -24.7 -50.57 6.47 -23.292 -50.889
3 16 7.878 -23.085 -48.655 7.274 -23.27 -52.512 9.352 -23.181 -53.058
3 16 11.014 -23.261 -48.108 7.878 -23.085 -48.655 9.352 -23.181 -53.058
4 16 7.878 -23.085 -48.655 11.014 -23.261 -48.108 10.25 -25.56 -48.955 7.011 -24.455 -49.22
3 16 8.963 -25.855 -52.35 6.73 -24.56 -51.699 6.571 -24.7 -50.57
3 16 9.405 -26.353 -50.805 8.963 -25.855 -52.35 6.571 -24.7 -50.57
3 16 8.949 -24.58 -53.293 9.352 -23.181 -53.058 7.274 -23.27 -52.512
3 16 6.73 -24.56 -51.699 8.949 -24.58 -53.293 7.274 -23.27 -52.512

0 // Blow hole
3 16 0 -33 -33.996 .765 -33 -34.153 .765 -36.974 -33.135
3 16 .765 -36.974 -33.135 0 -36.975 -32.939 0 -33 -33.996
4 16 .765 -33 -34.153 1.414 -33 -34.6 1.414 -36.82 -33.628 .765 -36.974 -33.135
4 16 1.414 -33 -34.6 1.848 -33 -35.27 1.848 -36.63 -34.341 1.414 -36.82 -33.628
4 16 1.848 -33 -35.27 2 -33 -36.06 2 -36.49 -35.167 1.848 -36.63 -34.341
4 16 2 -33 -36.06 1.848 -33 -36.85 1.848 -36.402 -35.979 2 -36.49 -35.167
4 16 1.848 -33 -36.85 1.414 -33 -37.52 1.414 -36.4 -36.655 1.848 -36.402 -35.979
4 16 1.414 -33 -37.52 .765 -33 -37.968 .765 -36.423 -37.091 1.414 -36.4 -36.655
3 16 .765 -33 -37.968 0 -33 -38.125 0 -36.423 -37.221
3 16 0 -36.423 -37.221 .765 -36.423 -37.091 .765 -33 -37.968
3 16 2 -33 -36.06 1.848 -33 -35.27 1.848 -33 -36.85
4 16 1.848 -33 -36.85 1.848 -33 -35.27 1.414 -33 -34.6 1.414 -33 -37.52
4 16 1.414 -33 -37.52 1.414 -33 -34.6 .765 -33 -34.153 .765 -33 -37.968
4 16 .765 -33 -37.968 .765 -33 -34.153 0 -33 -33.996 0 -33 -38.125

0 // Fin
3 16 1.3 -56.481 31.926 0 -57.077 32.065 .94 -56.826 30.747
3 16 1.3 -56.481 31.926 .867 -56.643 34.345 0 -57.077 32.065
3 16 .867 -56.643 34.345 0 -56.767 34.188 0 -57.077 32.065
3 16 3.464 -53.863 32.026 1.3 -56.481 31.926 2 -54.179 30.597
3 16 2 -54.179 30.597 1.3 -56.481 31.926 .94 -56.826 30.747
3 16 .867 -56.643 34.345 2.605 -55.454 35.843 0 -56.327 35.547
3 16 2.605 -55.454 35.843 1.409 -55.151 36.668 0 -56.327 35.547
3 16 3.464 -53.001 35.932 2 -52.686 37.362 2.605 -55.454 35.843
3 16 2 -52.686 37.362 1.409 -55.151 36.668 2.605 -55.454 35.843
3 16 4 -53.432 33.979 3.464 -53.001 35.932 2.627 -55.738 34.24
3 16 3.464 -53.001 35.932 2.605 -55.454 35.843 2.627 -55.738 34.24
3 16 1.3 -56.481 31.926 3.464 -53.863 32.026 2.627 -55.738 34.24
3 16 3.464 -53.863 32.026 4 -53.432 33.979 2.627 -55.738 34.24
3 16 0 -52.57 37.885 0 -54.998 37.009 2 -52.686 37.362
3 16 0 -54.998 37.009 1.409 -55.151 36.668 2 -52.686 37.362
3 16 1.238 -38.271 15.028 2.021 -36.847 18.591 2 -38.126 27.054
3 16 2.021 -36.847 18.591 2.545 -35.637 22.497 2 -38.126 27.054
3 16 2.57 -38.95 2.662 2.021 -36.847 18.591 1.238 -39.342 4.071
3 16 2.021 -36.847 18.591 1.238 -38.271 15.028 1.238 -39.342 4.071
3 16 .94 -56.826 30.747 .971 -55.296 25.008 2 -54.179 30.597
3 16 .971 -55.296 25.008 2 -38.126 27.054 2 -54.179 30.597
3 16 .971 -55.296 25.008 1.124 -50.733 18.951 2 -38.126 27.054
3 16 2 -38.126 27.054 1.124 -50.733 18.951 1.238 -38.271 15.028
3 16 1.124 -50.733 18.951 1.238 -45.4 13.047 1.238 -38.271 15.028
3 16 .867 -56.643 34.345 0 -56.327 35.547 0 -56.767 34.188
3 16 2.627 -55.738 34.24 .867 -56.643 34.345 1.3 -56.481 31.926
3 16 2.627 -55.738 34.24 2.605 -55.454 35.843 .867 -56.643 34.345
3 16 1.409 -55.151 36.668 0 -54.998 37.009 0 -56.327 35.547
3 16 2.545 -35.637 22.497 3.389 -35.102 23.923 2 -38.126 27.054
3 16 1.238 -39.342 4.071 1.238 -38.271 15.028 1.238 -45.4 13.047
4 16 3.464 -36.949 32.39 2 -36.633 33.819 2 -52.686 37.362 3.464 -53.001 35.932
4 16 3.464 -53.001 35.932 4 -53.432 33.979 4 -37.38 30.437 3.464 -36.949 32.39
4 16 3.464 -37.811 28.484 4 -37.38 30.437 4 -53.432 33.979 3.464 -53.863 32.026
4 16 3.464 -53.863 32.026 2 -54.179 30.597 2 -38.126 27.054 3.464 -37.811 28.484
4 16 2 -36.633 33.819 0 -36.518 34.343 0 -52.57 37.885 2 -52.686 37.362
4 16 6.673 -31.824 33.156 3.75 -31.517 35.794 2 -36.633 33.819 3.464 -36.949 32.39
4 16 4 -37.38 30.437 7.585 -32.808 29.428 6.673 -31.824 33.156 3.464 -36.949 32.39
4 16 7.585 -32.808 29.428 4 -37.38 30.437 3.464 -37.811 28.484 6.231 -34.081 26.025
4 16 2 -38.126 27.054 3.389 -35.102 23.923 6.231 -34.081 26.025 3.464 -37.811 28.484
4 16 3.75 -31.517 35.794 0 -31.936 36.479 0 -36.518 34.343 2 -36.633 33.819
3 16 .94 -56.826 30.747 0 -57.077 32.065 0 -56.826 30.747
4 16 .971 -55.296 25.008 0 -55.296 25.008 0 -50.733 18.951 1.124 -50.733 18.951
4 16 0 -55.296 25.008 .971 -55.296 25.008 .94 -56.826 30.747 0 -56.826 30.747
4 16 1.238 -45.4 13.047 0 -45.4 13.047 0 -39.342 4.071 1.238 -39.342 4.071
4 16 1.124 -50.733 18.951 0 -50.733 18.951 0 -45.4 13.047 1.238 -45.4 13.047
3 16 0 -31.688 37.332 0 -31.936 36.479 3.75 -31.517 35.794
3 16 0 -31.688 37.332 3.75 -31.517 35.794 8.493 -30.214 36.046
3 16 8.493 -30.214 36.046 3.75 -31.517 35.794 6.673 -31.824 33.156
3 16 8.493 -30.214 36.046 6.673 -31.824 33.156 7.585 -32.808 29.428
3 16 8.493 -30.214 36.046 7.585 -32.808 29.428 10.185 -35.762 18.317
3 16 10.185 -35.762 18.317 7.585 -32.808 29.428 6.231 -34.081 26.025
4 16 6.231 -34.081 26.025 3.389 -35.102 23.923 2.545 -35.637 22.497 10.185 -35.762 18.317
3 16 10.185 -35.762 18.317 2.545 -35.637 22.497 2.021 -36.847 18.591
3 16 10.316 -37.712 .988 10.185 -35.762 18.317 2.021 -36.847 18.591
3 16 2.021 -36.847 18.591 2.57 -38.95 2.662 10.316 -37.712 .988
3 16 10.316 -37.712 .988 2.57 -38.95 2.662 0 -39.112 1.511
3 16 0 -39.112 1.511 2.57 -38.95 2.662 0 -39.114 2.662

4 16 14.435 0 -21.368 6 0 -16.582 6 0 16 15.059 0 -2.815
4 16 15.059 0 -2.815 6 0 16 12.018 0 24.27 15.188 0 7.266
3 16 15.059 0 -2.815 15.188 0 7.266 16.326 -.314 4.049
3 16 25.475 -1.135 89.075 22.283 -2.242 92.767 27.335 -2.33 92.28
3 16 3.736 .046 65.493 1.715 -.732 59.412 0 -.047 65.073
3 16 30.51 -7.704 97.983 19.752 -7.606 98.564 28.715 -7.645 93.501
3 16 30.51 -7.704 97.983 28.715 -7.645 93.501 31.524 -7.091 94.31
3 16 6.009 -2.746 60.056 6.762 -3.718 48.444 4.068 -.767 59.471
3 16 1.715 -.732 59.412 0 -2.186 48.39 0 -.047 65.073
3 16 7.006 -6.583 91.463 14.244 -5.167 87.245 18.722 -8.305 93.694
3 16 7.006 -6.583 91.463 18.722 -8.305 93.694 7.079 -6.706 94.039
3 16 13.069 -4.411 -32.975 12.688 -5.516 -36.944 0 -1.429 -32.935
3 16 11.365 -15.381 -53.18 13.563 -14.475 -44.696 13.783 -17.587 -42.59
3 16 16.74 -3.544 -5.497 15.059 0 -2.815 17.98 -.79 -4.026
3 16 15.571 -12.369 1.063 17.276 -9.222 1.445 14.177 -8.35 21.889
3 16 9.524 -9.561 50.628 12.322 -9.906 35.01 10.585 -6.594 38.665
3 16 32.729 -.981 -2.993 37.457 -.515 .898 34.8 -1.478 -3.765
3 16 34.8 -1.478 -3.765 37.457 -.515 .898 36.998 -2.34 -7.283
3 16 32.729 -.981 -2.993 31.838 -.335 .894 37.457 -.515 .898
3 16 39.447 -1.845 .803 37.457 -.515 .898 38.12 -1.441 3.506
3 16 18.329 -9.562 -31.754 16.637 -11.509 -32.882 15.966 -10.88 -35.509
3 16 38.303 -5.559 4.194 37.705 -7.247 2.391 39.218 -5.355 2.096
3 16 24.891 -5.492 1.739 19.127 -4.513 2.736 19.176 -7.683 1.757
4 16 38.303 -5.559 4.194 38.12 -1.441 3.506 30.951 -1.621 2.404 30.918 -5.626 3.043
3 16 4.484 -17.018 65.111 6.447 -15.946 63.644 5.722 -8.774 74.179
3 16 11.199 -32.799 -37.942 10.338 -29.451 -46.031 12.75 -30.312 -36.535
3 16 10.338 -29.451 -46.031 12.032 -26.241 -43.564 12.75 -30.312 -36.535
3 16 12.954 -17.479 -45.165 12.897 -23.396 -42.53 12.11 -20.523 -46.44
4 16 12.11 -20.523 -46.44 12.897 -23.396 -42.53 12.032 -26.241 -43.564 11.014 -23.261 -48.108
3 16 10.338 -29.451 -46.031 9.405 -26.353 -50.805 10.25 -25.56 -48.955
3 16 7.679 -18.827 -63.073 7.453 -16.579 -66.959 9.166 -15.762 -60.626
3 16 18.722 -8.305 93.694 19.752 -7.606 98.564 7.079 -6.706 94.039
3 16 0 -.401 79.842 0 -1.373 84.776 15.093 -1.739 87.298
3 16 11.524 -1.998 89.8 22.283 -2.242 92.767 15.093 -1.739 87.298
3 16 0 -1.373 84.776 0 -.736 86.919 11.524 -1.998 89.8
3 16 15.093 -1.739 87.298 0 -1.373 84.776 11.524 -1.998 89.8
3 16 0 .333 73.576 3.736 .046 65.493 0 -.047 65.073
3 16 10.025 1.995 75.901 3.736 .046 65.493 0 .333 73.576
3 16 10.025 1.995 75.901 0 .333 73.576 0 -.401 79.842
3 16 30.127 -4.561 87.695 31.524 -7.091 94.31 28.715 -7.645 93.501
3 16 24.011 -6.06 89.483 30.127 -4.561 87.695 28.715 -7.645 93.501
3 16 18.722 -8.305 93.694 24.011 -6.06 89.483 28.715 -7.645 93.501
3 16 19.752 -7.606 98.564 18.722 -8.305 93.694 28.715 -7.645 93.501
4 16 19.752 -7.606 98.564 8.961 -5.78 96.702 0 -5.58 92.698 7.079 -6.706 94.039
3 16 0 -3.638 94.761 0 -5.58 92.698 8.961 -5.78 96.702
3 16 30.153 .047 86.795 22.407 2.817 82.711 27.813 1.613 86.849
3 16 23.989 1.659 80.598 22.407 2.817 82.711 30.153 .047 86.795
3 16 15.97 1.826 74.311 22.407 2.817 82.711 23.989 1.659 80.598
3 16 13.494 3.02 74.879 22.407 2.817 82.711 15.97 1.826 74.311
3 16 30.046 .17 91.711 30.153 .047 86.795 27.813 1.613 86.849
3 16 30.153 .047 86.795 30.046 .17 91.711 32.223 -.704 94.686
3 16 30.046 .17 91.711 30.129 -.427 94.358 32.223 -.704 94.686
3 16 21.203 -.61 96.284 29.91 -1.981 98.676 26.749 -.759 96.252
3 16 20.539 -2.542 99.382 29.91 -1.981 98.676 21.203 -.61 96.284
3 16 9.028 -1.279 96.778 20.539 -2.542 99.382 21.203 -.61 96.284
3 16 10.728 .393 93.197 9.028 -1.279 96.778 21.203 -.61 96.284
3 16 6.009 -2.746 60.056 5.894 .814 64.637 8.065 -.695 65.822
3 16 4.068 -.767 59.471 5.894 .814 64.637 6.009 -2.746 60.056
3 16 0 2.155 90.394 0 .414 94.69 9.028 -1.279 96.778
3 16 10.728 .393 93.197 0 2.155 90.394 9.028 -1.279 96.778
3 16 0 2.155 90.394 10.728 .393 93.197 11.524 -1.998 89.8
3 16 0 -.736 86.919 0 2.155 90.394 11.524 -1.998 89.8
3 16 11.524 -1.998 89.8 10.728 .393 93.197 21.203 -.61 96.284
3 16 22.283 -2.242 92.767 11.524 -1.998 89.8 21.203 -.61 96.284
3 16 26.749 -.759 96.252 27.335 -2.33 92.28 22.283 -2.242 92.767
3 16 21.203 -.61 96.284 26.749 -.759 96.252 22.283 -2.242 92.767
3 16 9.028 -1.279 96.778 0 .414 94.69 0 -3.638 94.761
3 16 8.961 -5.78 96.702 9.028 -1.279 96.778 0 -3.638 94.761
3 16 8.961 -5.78 96.702 19.752 -7.606 98.564 20.539 -2.542 99.382
3 16 9.028 -1.279 96.778 8.961 -5.78 96.702 20.539 -2.542 99.382
3 16 19.752 -7.606 98.564 30.51 -7.704 97.983 29.91 -1.981 98.676
3 16 20.539 -2.542 99.382 19.752 -7.606 98.564 29.91 -1.981 98.676
3 16 30.129 -.427 94.358 30.046 .17 91.711 27.335 -2.33 92.28
3 16 26.749 -.759 96.252 30.129 -.427 94.358 27.335 -2.33 92.28
3 16 30.51 -7.704 97.983 31.524 -7.091 94.31 32.223 -.704 94.686
3 16 29.91 -1.981 98.676 30.51 -7.704 97.983 32.223 -.704 94.686
3 16 30.046 .17 91.711 25.475 -1.135 89.075 27.335 -2.33 92.28
3 16 27.813 1.613 86.849 25.475 -1.135 89.075 30.046 .17 91.711
3 16 31.524 -7.091 94.31 30.127 -4.561 87.695 30.153 .047 86.795
3 16 32.223 -.704 94.686 31.524 -7.091 94.31 30.153 .047 86.795
3 16 25.475 -1.135 89.075 27.813 1.613 86.849 22.407 2.817 82.711
3 16 18.951 .697 84.486 25.475 -1.135 89.075 22.407 2.817 82.711
3 16 22.407 2.817 82.711 13.494 3.02 74.879 10.025 1.995 75.901
3 16 18.951 .697 84.486 22.407 2.817 82.711 10.025 1.995 75.901
3 16 13.494 3.02 74.879 5.894 .814 64.637 3.736 .046 65.493
3 16 10.025 1.995 75.901 13.494 3.02 74.879 3.736 .046 65.493
3 16 5.894 .814 64.637 4.068 -.767 59.471 1.715 -.732 59.412
3 16 3.736 .046 65.493 5.894 .814 64.637 1.715 -.732 59.412
3 16 4.068 -.767 59.471 6.762 -3.718 48.444 0 -2.186 48.39
3 16 1.715 -.732 59.412 4.068 -.767 59.471 0 -2.186 48.39
3 16 0 -1.331 36.592 6.762 -3.718 48.444 8.644 -3.192 38.284
3 16 0 -2.186 48.39 6.762 -3.718 48.444 0 -1.331 36.592
3 16 14.244 -5.167 87.245 18.827 -3.615 83.129 24.011 -6.06 89.483
3 16 18.722 -8.305 93.694 14.244 -5.167 87.245 24.011 -6.06 89.483
4 16 24.352 -2.375 81.691 23.989 1.659 80.598 30.153 .047 86.795 30.127 -4.561 87.695
4 16 18.827 -3.615 83.129 24.352 -2.375 81.691 30.127 -4.561 87.695 24.011 -6.06 89.483
3 16 7.079 -6.706 94.039 0 -5.58 92.698 0 -5.904 90.83
3 16 7.006 -6.583 91.463 7.079 -6.706 94.039 0 -5.904 90.83
3 16 14.244 -5.167 87.245 15.063 -3.28 78.736 18.827 -3.615 83.129
3 16 10.31 -5.009 80.389 15.063 -3.28 78.736 14.244 -5.167 87.245
4 16 23.989 1.659 80.598 24.352 -2.375 81.691 17.586 -1.259 76.225 15.97 1.826 74.311
3 16 15.063 -3.28 78.736 17.586 -1.259 76.225 24.352 -2.375 81.691
3 16 18.827 -3.615 83.129 15.063 -3.28 78.736 24.352 -2.375 81.691
3 16 14.244 -5.167 87.245 7.006 -6.583 91.463 6.185 -5.586 86.037
3 16 10.31 -5.009 80.389 14.244 -5.167 87.245 6.185 -5.586 86.037
3 16 0 -6.372 86.206 6.185 -5.586 86.037 7.006 -6.583 91.463
3 16 0 -5.904 90.83 0 -6.372 86.206 7.006 -6.583 91.463
3 16 17.586 -1.259 76.225 9.541 -4.108 68.047 8.065 -.695 65.822
3 16 15.97 1.826 74.311 17.586 -1.259 76.225 8.065 -.695 65.822
3 16 9.146 -7.145 71.146 9.541 -4.108 68.047 17.586 -1.259 76.225
3 16 15.063 -3.28 78.736 9.146 -7.145 71.146 17.586 -1.259 76.225
3 16 15.063 -3.28 78.736 10.31 -5.009 80.389 5.722 -8.774 74.179
3 16 9.146 -7.145 71.146 15.063 -3.28 78.736 5.722 -8.774 74.179
3 16 6.185 -5.586 86.037 0 -6.372 86.206 0 -7.789 78.265
3 16 1.695 -14.882 -77.656 0 -14.741 -77.737 0 -13.217 -74.946
3 16 3.64 -14.593 -76.116 1.695 -14.882 -77.656 0 -13.217 -74.946
3 16 5.45 -13.93 -73.109 3.64 -14.593 -76.116 0 -13.217 -74.946
3 16 0 -11.959 -71.237 5.45 -13.93 -73.109 0 -13.217 -74.946
3 16 12.688 -5.516 -36.944 11.352 -5.795 -41.29 0 -2.593 -39.98
3 16 0 -1.429 -32.935 12.688 -5.516 -36.944 0 -2.593 -39.98
3 16 14.435 0 -21.368 13.069 -4.411 -32.975 0 -1.429 -32.935
3 16 11.352 -5.795 -41.29 9.406 -8.697 -52.287 0 -5.299 -50.653
3 16 0 -2.593 -39.98 11.352 -5.795 -41.29 0 -5.299 -50.653
3 16 9.406 -8.697 -52.287 8.532 -10.62 -60.286 0 -7.839 -58.15
3 16 0 -5.299 -50.653 9.406 -8.697 -52.287 0 -7.839 -58.15
3 16 8.532 -10.62 -60.286 7.111 -12.247 -67.291 0 -10.068 -65.13
3 16 0 -7.839 -58.15 8.532 -10.62 -60.286 0 -10.068 -65.13
3 16 7.111 -12.247 -67.291 5.45 -13.93 -73.109 0 -11.959 -71.237
3 16 0 -10.068 -65.13 7.111 -12.247 -67.291 0 -11.959 -71.237
3 16 12.46 -9.016 -44.944 11.352 -5.795 -41.29 12.688 -5.516 -36.944
3 16 14.42 -8.705 -38.223 12.46 -9.016 -44.944 12.688 -5.516 -36.944
3 16 12.46 -9.016 -44.944 10.741 -10.485 -52.727 9.406 -8.697 -52.287
3 16 11.352 -5.795 -41.29 12.46 -9.016 -44.944 9.406 -8.697 -52.287
3 16 10.741 -10.485 -52.727 9.67 -12.154 -60.47 8.532 -10.62 -60.286
3 16 9.406 -8.697 -52.287 10.741 -10.485 -52.727 8.532 -10.62 -60.286
3 16 7.111 -12.247 -67.291 8.532 -10.62 -60.286 9.67 -12.154 -60.47
3 16 7.999 -13.634 -67.615 7.111 -12.247 -67.291 9.67 -12.154 -60.47
3 16 5.45 -13.93 -73.109 7.111 -12.247 -67.291 7.999 -13.634 -67.615
3 16 5.908 -15.123 -73.717 5.45 -13.93 -73.109 7.999 -13.634 -67.615
3 16 3.64 -14.593 -76.116 5.45 -13.93 -73.109 5.908 -15.123 -73.717
3 16 3.867 -16.137 -76.817 3.64 -14.593 -76.116 5.908 -15.123 -73.717
3 16 3.867 -16.137 -76.817 2.054 -16.404 -78.097 1.695 -14.882 -77.656
3 16 3.64 -14.593 -76.116 3.867 -16.137 -76.817 1.695 -14.882 -77.656
3 16 2.054 -16.404 -78.097 0 -16.543 -78.496 0 -14.741 -77.737
3 16 1.695 -14.882 -77.656 2.054 -16.404 -78.097 0 -14.741 -77.737
3 16 13.783 -17.587 -42.59 13.563 -14.475 -44.696 15.086 -13.426 -37.191
3 16 13.563 -14.475 -44.696 11.365 -15.381 -53.18 10.741 -10.485 -52.727
3 16 12.46 -9.016 -44.944 13.563 -14.475 -44.696 10.741 -10.485 -52.727
3 16 13.563 -14.475 -44.696 12.46 -9.016 -44.944 14.42 -8.705 -38.223
3 16 15.086 -13.426 -37.191 13.563 -14.475 -44.696 14.42 -8.705 -38.223
3 16 11.365 -15.381 -53.18 9.918 -15.295 -60.604 9.67 -12.154 -60.47
3 16 10.741 -10.485 -52.727 11.365 -15.381 -53.18 9.67 -12.154 -60.47
3 16 9.918 -15.295 -60.604 8.16 -16.3 -67.202 7.999 -13.634 -67.615
3 16 9.67 -12.154 -60.47 9.918 -15.295 -60.604 7.999 -13.634 -67.615
3 16 8.16 -16.3 -67.202 6.201 -17.305 -73.02 5.908 -15.123 -73.717
3 16 7.999 -13.634 -67.615 8.16 -16.3 -67.202 5.908 -15.123 -73.717
3 16 3.867 -16.137 -76.817 5.908 -15.123 -73.717 6.201 -17.305 -73.02
3 16 3.857 -18.031 -76.454 3.867 -16.137 -76.817 6.201 -17.305 -73.02
3 16 3.857 -18.031 -76.454 2.128 -18.324 -77.486 2.054 -16.404 -78.097
3 16 3.867 -16.137 -76.817 3.857 -18.031 -76.454 2.054 -16.404 -78.097
3 16 2.128 -18.324 -77.486 0 -18.234 -78.109 0 -16.543 -78.496
3 16 2.054 -16.404 -78.097 2.128 -18.324 -77.486 0 -16.543 -78.496
4 16 14.177 -8.35 21.889 13.265 -5.813 22.565 10.585 -6.594 38.665 12.322 -9.906 35.01
3 16 10.585 -6.594 38.665 8.644 -3.192 38.284 6.762 -3.718 48.444
3 16 9.524 -9.561 50.628 10.585 -6.594 38.665 6.762 -3.718 48.444
3 16 12.018 0 24.27 8.644 -3.192 38.284 10.585 -6.594 38.665
3 16 13.265 -5.813 22.565 12.018 0 24.27 10.585 -6.594 38.665
3 16 13.265 -5.813 22.565 15.188 0 7.266 12.018 0 24.27
3 16 16.373 -4.199 5.275 16.326 -.314 4.049 15.188 0 7.266
3 16 13.265 -5.813 22.565 16.373 -4.199 5.275 15.188 0 7.266
3 16 25.201 -7.696 -.011 24.891 -5.492 1.739 19.176 -7.683 1.757
3 16 33.873 -3.959 -14.228 33.127 -3.875 -6.629 36.998 -2.34 -7.283
3 16 30.335 -4.935 -15.368 33.127 -3.875 -6.629 33.873 -3.959 -14.228
3 16 29.195 -4.925 -21.025 30.335 -4.935 -15.368 33.873 -3.959 -14.228
3 16 26.65 -5.254 -20.332 30.335 -4.935 -15.368 29.195 -4.925 -21.025
3 16 22.536 -5.02 -26.653 26.65 -5.254 -20.332 29.195 -4.925 -21.025
3 16 21.164 -5.204 -25.403 26.65 -5.254 -20.332 22.536 -5.02 -26.653
4 16 36.998 -2.34 -7.283 33.127 -3.875 -6.629 32.313 -3.557 -5.366 34.8 -1.478 -3.765
3 16 32.729 -.981 -2.993 34.8 -1.478 -3.765 32.313 -3.557 -5.366
3 16 30.119 -3.611 -5.777 32.729 -.981 -2.993 32.313 -3.557 -5.366
3 16 26.224 -1.31 -4.807 32.729 -.981 -2.993 30.119 -3.611 -5.777
3 16 25.973 -3.681 -6.408 26.224 -1.31 -4.807 30.119 -3.611 -5.777
4 16 26.224 -1.31 -4.807 25.973 -3.681 -6.408 20.986 -3.602 -6.193 20.814 -1.062 -4.498
3 16 17.341 -5.618 -28.946 21.164 -5.204 -25.403 22.536 -5.02 -26.653
3 16 18.41 -5.695 -30.375 17.341 -5.618 -28.946 22.536 -5.02 -26.653
3 16 14.841 -5.655 -31.485 17.341 -5.618 -28.946 18.41 -5.695 -30.375
3 16 14.306 -6.336 -34.535 14.841 -5.655 -31.485 18.41 -5.695 -30.375
3 16 18.351 -7.038 -32.383 15.693 -8.198 -35.681 14.306 -6.336 -34.535
3 16 18.41 -5.695 -30.375 18.351 -7.038 -32.383 14.306 -6.336 -34.535
3 16 17.98 -.79 -4.026 20.814 -1.062 -4.498 20.986 -3.602 -6.193
3 16 16.74 -3.544 -5.497 17.98 -.79 -4.026 20.986 -3.602 -6.193
3 16 33.873 -3.959 -14.228 35.262 -4.967 -15.168 30.54 -5.724 -21.697
3 16 29.195 -4.925 -21.025 33.873 -3.959 -14.228 30.54 -5.724 -21.697
3 16 20.814 -1.062 -4.498 17.98 -.79 -4.026 19.609 0 -.139
4 16 26.224 -1.31 -4.807 20.814 -1.062 -4.498 19.609 0 -.139 25.287 -.267 -.643
3 16 25.287 -.267 -.643 31.838 -.335 .894 32.729 -.981 -2.993
3 16 26.224 -1.31 -4.807 25.287 -.267 -.643 32.729 -.981 -2.993
3 16 38.12 -1.441 3.506 37.457 -.515 .898 31.838 -.335 .894
3 16 30.951 -1.621 2.404 38.12 -1.441 3.506 31.838 -.335 .894
3 16 19.928 -1.169 1.668 19.609 0 -.139 16.326 -.314 4.049
3 16 19.928 -1.169 1.668 25.015 -1.358 .919 25.287 -.267 -.643
3 16 19.609 0 -.139 19.928 -1.169 1.668 25.287 -.267 -.643
3 16 25.287 -.267 -.643 25.015 -1.358 .919 30.951 -1.621 2.404
3 16 31.838 -.335 .894 25.287 -.267 -.643 30.951 -1.621 2.404
3 16 36.998 -2.34 -7.283 39.447 -1.845 .803 38.801 -3.586 -6.5
3 16 37.457 -.515 .898 39.447 -1.845 .803 36.998 -2.34 -7.283
3 16 18.41 -5.695 -30.375 22.536 -5.02 -26.653 22.974 -5.946 -28.159
3 16 18.351 -7.038 -32.383 18.41 -5.695 -30.375 22.974 -5.946 -28.159
3 16 35.262 -4.967 -15.168 33.873 -3.959 -14.228 36.998 -2.34 -7.283
3 16 38.801 -3.586 -6.5 35.262 -4.967 -15.168 36.998 -2.34 -7.283
3 16 22.974 -5.946 -28.159 22.536 -5.02 -26.653 29.195 -4.925 -21.025
3 16 30.54 -5.724 -21.697 22.974 -5.946 -28.159 29.195 -4.925 -21.025
3 16 32.313 -3.557 -5.366 33.127 -3.875 -6.629 30.335 -4.935 -15.368
3 16 30.119 -3.611 -5.777 32.313 -3.557 -5.366 30.335 -4.935 -15.368
3 16 25.973 -3.681 -6.408 30.119 -3.611 -5.777 30.335 -4.935 -15.368
3 16 26.65 -5.254 -20.332 25.973 -3.681 -6.408 30.335 -4.935 -15.368
3 16 20.986 -3.602 -6.193 25.973 -3.681 -6.408 26.65 -5.254 -20.332
3 16 21.164 -5.204 -25.403 20.986 -3.602 -6.193 26.65 -5.254 -20.332
3 16 20.986 -3.602 -6.193 16.102 -4.079 -21.793 16.74 -3.544 -5.497
3 16 21.164 -5.204 -25.403 16.102 -4.079 -21.793 20.986 -3.602 -6.193
3 16 16.102 -4.079 -21.793 21.164 -5.204 -25.403 17.341 -5.618 -28.946
3 16 14.841 -5.655 -31.485 16.102 -4.079 -21.793 17.341 -5.618 -28.946
3 16 18.329 -9.562 -31.754 15.693 -8.198 -35.681 18.351 -7.038 -32.383
3 16 15.966 -10.88 -35.509 15.693 -8.198 -35.681 18.329 -9.562 -31.754
3 16 37.193 -8.38 -6.501 38.329 -7.253 -6.173 39.218 -5.355 2.096
3 16 37.705 -7.247 2.391 37.193 -8.38 -6.501 39.218 -5.355 2.096
3 16 25.201 -7.696 -.011 30.712 -7.801 .723 30.918 -5.626 3.043
3 16 24.891 -5.492 1.739 25.201 -7.696 -.011 30.918 -5.626 3.043
3 16 16.373 -4.199 5.275 19.127 -4.513 2.736 19.928 -1.169 1.668
3 16 16.326 -.314 4.049 16.373 -4.199 5.275 19.928 -1.169 1.668
3 16 25.015 -1.358 .919 19.928 -1.169 1.668 19.127 -4.513 2.736
3 16 24.891 -5.492 1.739 25.015 -1.358 .919 19.127 -4.513 2.736
3 16 30.951 -1.621 2.404 25.015 -1.358 .919 24.891 -5.492 1.739
3 16 30.918 -5.626 3.043 30.951 -1.621 2.404 24.891 -5.492 1.739
3 16 39.447 -1.845 .803 38.303 -5.559 4.194 39.218 -5.355 2.096
3 16 38.12 -1.441 3.506 38.303 -5.559 4.194 39.447 -1.845 .803
3 16 38.801 -3.586 -6.5 39.447 -1.845 .803 39.218 -5.355 2.096
3 16 38.329 -7.253 -6.173 38.801 -3.586 -6.5 39.218 -5.355 2.096
3 16 22.836 -9.256 -26.66 30.479 -8.214 -21.034 29.944 -8.885 -20.214
3 16 23.117 -8.721 -27.928 30.479 -8.214 -21.034 22.836 -9.256 -26.66
3 16 18.329 -9.562 -31.754 23.117 -8.721 -27.928 22.836 -9.256 -26.66
3 16 18.264 -10.237 -30.251 16.637 -11.509 -32.882 18.329 -9.562 -31.754
3 16 22.836 -9.256 -26.66 18.264 -10.237 -30.251 18.329 -9.562 -31.754
3 16 34.055 -8.336 -14.901 29.944 -8.885 -20.214 30.479 -8.214 -21.034
3 16 34.727 -7.542 -15.043 34.055 -8.336 -14.901 30.479 -8.214 -21.034
4 16 37.193 -8.38 -6.501 34.055 -8.336 -14.901 34.727 -7.542 -15.043 38.329 -7.253 -6.173
3 16 38.329 -7.253 -6.173 34.727 -7.542 -15.043 35.262 -4.967 -15.168
3 16 38.801 -3.586 -6.5 38.329 -7.253 -6.173 35.262 -4.967 -15.168
3 16 30.54 -5.724 -21.697 35.262 -4.967 -15.168 34.727 -7.542 -15.043
3 16 30.479 -8.214 -21.034 30.54 -5.724 -21.697 34.727 -7.542 -15.043
3 16 30.479 -8.214 -21.034 23.117 -8.721 -27.928 22.974 -5.946 -28.159
3 16 30.54 -5.724 -21.697 30.479 -8.214 -21.034 22.974 -5.946 -28.159
3 16 18.351 -7.038 -32.383 23.117 -8.721 -27.928 18.329 -9.562 -31.754
3 16 22.974 -5.946 -28.159 23.117 -8.721 -27.928 18.351 -7.038 -32.383
3 16 16.74 -3.544 -5.497 16.102 -4.079 -21.793 14.435 0 -21.368
3 16 15.059 0 -2.815 16.74 -3.544 -5.497 14.435 0 -21.368
3 16 14.435 0 -21.368 16.102 -4.079 -21.793 14.841 -5.655 -31.485
3 16 13.069 -4.411 -32.975 14.435 0 -21.368 14.841 -5.655 -31.485
3 16 13.069 -4.411 -32.975 14.841 -5.655 -31.485 14.306 -6.336 -34.535
3 16 12.688 -5.516 -36.944 13.069 -4.411 -32.975 14.306 -6.336 -34.535
3 16 12.688 -5.516 -36.944 14.306 -6.336 -34.535 15.693 -8.198 -35.681
3 16 14.42 -8.705 -38.223 12.688 -5.516 -36.944 15.693 -8.198 -35.681
3 16 15.086 -13.426 -37.191 15.693 -8.198 -35.681 15.966 -10.88 -35.509
3 16 14.42 -8.705 -38.223 15.693 -8.198 -35.681 15.086 -13.426 -37.191
3 16 34.055 -8.336 -14.901 37.193 -8.38 -6.501 30.257 -9.092 -10.829
3 16 29.944 -8.885 -20.214 34.055 -8.336 -14.901 30.257 -9.092 -10.829
3 16 30.257 -9.092 -10.829 37.193 -8.38 -6.501 37.705 -7.247 2.391
3 16 30.712 -7.801 .723 30.257 -9.092 -10.829 37.705 -7.247 2.391
3 16 29.944 -8.885 -20.214 30.257 -9.092 -10.829 22.911 -9.254 -13.508
3 16 22.836 -9.256 -26.66 29.944 -8.885 -20.214 22.911 -9.254 -13.508
3 16 25.201 -7.696 -.011 30.257 -9.092 -10.829 30.712 -7.801 .723
3 16 22.911 -9.254 -13.508 30.257 -9.092 -10.829 25.201 -7.696 -.011
3 16 22.836 -9.256 -26.66 22.911 -9.254 -13.508 17.223 -11.842 -16.251
3 16 18.264 -10.237 -30.251 22.836 -9.256 -26.66 17.223 -11.842 -16.251
3 16 16.637 -11.509 -32.882 18.264 -10.237 -30.251 17.223 -11.842 -16.251
3 16 17.223 -11.842 -16.251 22.911 -9.254 -13.508 25.201 -7.696 -.011
3 16 16.008 -14.38 -17.014 15.395 -15.24 -32.458 16.637 -11.509 -32.882
3 16 17.223 -11.842 -16.251 16.008 -14.38 -17.014 16.637 -11.509 -32.882
3 16 15.571 -12.369 1.063 16.008 -14.38 -17.014 17.223 -11.842 -16.251
3 16 17.276 -9.222 1.445 15.571 -12.369 1.063 17.223 -11.842 -16.251
3 16 12.365 -24.822 34.078 12.322 -9.906 35.01 9.524 -9.561 50.628
3 16 8.531 -17.855 55.007 12.365 -24.822 34.078 9.524 -9.561 50.628
3 16 6.009 -2.746 60.056 8.065 -.695 65.822 9.541 -4.108 68.047
3 16 7.4 -6.539 61.072 6.009 -2.746 60.056 9.541 -4.108 68.047
3 16 6.762 -3.718 48.444 6.009 -2.746 60.056 7.4 -6.539 61.072
3 16 9.524 -9.561 50.628 6.762 -3.718 48.444 7.4 -6.539 61.072
3 16 7.4 -6.539 61.072 7.494 -12.848 61.111 8.531 -17.855 55.007
3 16 9.524 -9.561 50.628 7.4 -6.539 61.072 8.531 -17.855 55.007
3 16 14.177 -8.35 21.889 14.129 -30.053 19.572 14.565 -32.731 2.265
3 16 15.571 -12.369 1.063 14.177 -8.35 21.889 14.565 -32.731 2.265
3 16 12.75 -30.312 -36.535 15.395 -15.24 -32.458 16.008 -14.38 -17.014
3 16 13.668 -31.708 -18.035 12.75 -30.312 -36.535 16.008 -14.38 -17.014
3 16 14.129 -30.053 19.572 14.177 -8.35 21.889 12.322 -9.906 35.01
3 16 12.365 -24.822 34.078 14.129 -30.053 19.572 12.322 -9.906 35.01
3 16 13.668 -31.708 -18.035 16.008 -14.38 -17.014 15.571 -12.369 1.063
3 16 14.565 -32.731 2.265 13.668 -31.708 -18.035 15.571 -12.369 1.063
3 16 12.897 -23.396 -42.53 15.395 -15.24 -32.458 12.75 -30.312 -36.535
3 16 12.032 -26.241 -43.564 12.897 -23.396 -42.53 12.75 -30.312 -36.535
3 16 6.447 -15.946 63.644 7.494 -12.848 61.111 9.146 -7.145 71.146
3 16 5.722 -8.774 74.179 6.447 -15.946 63.644 9.146 -7.145 71.146
3 16 5.722 -8.774 74.179 0 -7.789 78.265 0 -15.965 67.757
3 16 4.484 -17.018 65.111 5.722 -8.774 74.179 0 -15.965 67.757
4 16 7.536 -20.701 55.837 6.447 -15.946 63.644 4.484 -17.018 65.111 5.954 -22.473 55.879
3 16 7.536 -20.701 55.837 8.531 -17.855 55.007 7.494 -12.848 61.111
3 16 6.447 -15.946 63.644 7.536 -20.701 55.837 7.494 -12.848 61.111
3 16 4.484 -17.018 65.111 0 -22.586 57.431 5.954 -22.473 55.879
3 16 0 -15.965 67.757 0 -22.586 57.431 4.484 -17.018 65.111
3 16 13.013 -35.602 .744 14.565 -32.731 2.265 14.129 -30.053 19.572
3 16 12.855 -33.68 18.487 13.013 -35.602 .744 14.129 -30.053 19.572
4 16 10.185 -35.762 18.317 10.316 -37.712 .988 13.013 -35.602 .744 12.855 -33.68 18.487
3 16 8.493 -30.214 36.046 11.232 -28.368 35.303 7.536 -20.701 55.837
3 16 5.954 -22.473 55.879 8.493 -30.214 36.046 7.536 -20.701 55.837
3 16 11.232 -28.368 35.303 8.531 -17.855 55.007 7.536 -20.701 55.837
3 16 12.365 -24.822 34.078 8.531 -17.855 55.007 11.232 -28.368 35.303
3 16 0 -31.688 37.332 8.493 -30.214 36.046 5.954 -22.473 55.879
3 16 0 -22.586 57.431 0 -31.688 37.332 5.954 -22.473 55.879
3 16 11.232 -28.368 35.303 8.493 -30.214 36.046 10.185 -35.762 18.317
3 16 12.855 -33.68 18.487 11.232 -28.368 35.303 10.185 -35.762 18.317
3 16 12.855 -33.68 18.487 14.129 -30.053 19.572 12.365 -24.822 34.078
3 16 11.232 -28.368 35.303 12.855 -33.68 18.487 12.365 -24.822 34.078
3 16 8.355 -34.62 -39.677 11.199 -32.799 -37.942 12.156 -35.289 -20.124
3 16 9.736 -37.302 -20.663 8.355 -34.62 -39.677 12.156 -35.289 -20.124
3 16 13.013 -35.602 .744 9.736 -37.302 -20.663 12.156 -35.289 -20.124
3 16 10.316 -37.712 .988 9.736 -37.302 -20.663 13.013 -35.602 .744
3 16 12.156 -35.289 -20.124 13.668 -31.708 -18.035 14.565 -32.731 2.265
3 16 13.013 -35.602 .744 12.156 -35.289 -20.124 14.565 -32.731 2.265
3 16 13.668 -31.708 -18.035 12.156 -35.289 -20.124 11.199 -32.799 -37.942
3 16 12.75 -30.312 -36.535 13.668 -31.708 -18.035 11.199 -32.799 -37.942
3 16 12.032 -26.241 -43.564 10.25 -25.56 -48.955 11.014 -23.261 -48.108
3 16 10.338 -29.451 -46.031 10.25 -25.56 -48.955 12.032 -26.241 -43.564
3 16 10.316 -37.712 .988 0 -39.112 1.511 0 -38.958 -19.795
3 16 9.736 -37.302 -20.663 10.316 -37.712 .988 0 -38.958 -19.795
3 16 5.927 -29.522 -50.495 8.355 -34.62 -39.677 0 -33.815 -48.128
3 16 11.014 -23.261 -48.108 9.352 -23.181 -53.058 10.126 -19.531 -53.181
3 16 12.11 -20.523 -46.44 11.014 -23.261 -48.108 10.126 -19.531 -53.181
4 16 12.954 -17.479 -45.165 12.11 -20.523 -46.44 10.126 -19.531 -53.181 10.68 -15.779 -53.272
3 16 10.126 -19.531 -53.181 9.166 -15.762 -60.626 10.68 -15.779 -53.272
3 16 7.679 -18.827 -63.073 9.166 -15.762 -60.626 10.126 -19.531 -53.181
3 16 9.405 -26.353 -50.805 10.338 -29.451 -46.031 5.927 -29.522 -50.495
3 16 8.963 -25.855 -52.35 9.405 -26.353 -50.805 5.927 -29.522 -50.495
3 16 6.175 -28.736 -54.901 8.949 -24.58 -53.293 8.963 -25.855 -52.35
3 16 5.927 -29.522 -50.495 6.175 -28.736 -54.901 8.963 -25.855 -52.35
3 16 0 -29.317 -56.482 6.175 -28.736 -54.901 5.927 -29.522 -50.495
3 16 0 -33.815 -48.128 0 -29.317 -56.482 5.927 -29.522 -50.495
3 16 8.949 -24.58 -53.293 6.175 -28.736 -54.901 5.864 -25.569 -58.58
3 16 9.352 -23.181 -53.058 8.949 -24.58 -53.293 5.864 -25.569 -58.58
4 16 0 -26.284 -59.915 5.864 -25.569 -58.58 6.175 -28.736 -54.901 0 -29.317 -56.482
3 16 7.679 -18.827 -63.073 10.126 -19.531 -53.181 9.352 -23.181 -53.058
3 16 5.741 -21.057 -64.474 7.679 -18.827 -63.073 9.352 -23.181 -53.058
3 16 5.864 -25.569 -58.58 3.698 -22.397 -65.646 5.741 -21.057 -64.474
3 16 9.352 -23.181 -53.058 5.864 -25.569 -58.58 5.741 -21.057 -64.474
3 16 0 -26.284 -59.915 0 -22.975 -66.578 3.698 -22.397 -65.646
3 16 5.864 -25.569 -58.58 0 -26.284 -59.915 3.698 -22.397 -65.646
3 16 7.453 -16.579 -66.959 7.679 -18.827 -63.073 6.052 -18.307 -70.333
3 16 5.621 -17.523 -72.666 7.453 -16.579 -66.959 6.052 -18.307 -70.333
3 16 6.052 -18.307 -70.333 7.679 -18.827 -63.073 5.741 -21.057 -64.474
3 16 4.327 -19.203 -73.286 6.052 -18.307 -70.333 5.741 -21.057 -64.474
3 16 4.327 -19.203 -73.286 5.741 -21.057 -64.474 3.698 -22.397 -65.646
3 16 2.17 -20.091 -74.688 4.327 -19.203 -73.286 3.698 -22.397 -65.646
3 16 2.17 -20.091 -74.688 3.698 -22.397 -65.646 0 -22.975 -66.578
3 16 0 -20.002 -75.767 2.17 -20.091 -74.688 0 -22.975 -66.578
3 16 5.621 -17.523 -72.666 6.052 -18.307 -70.333 4.327 -19.203 -73.286
3 16 3.483 -18.139 -76.04 5.621 -17.523 -72.666 4.327 -19.203 -73.286
3 16 2.17 -20.091 -74.688 2.045 -18.345 -77.076 3.483 -18.139 -76.04
3 16 4.327 -19.203 -73.286 2.17 -20.091 -74.688 3.483 -18.139 -76.04
3 16 0 -20.002 -75.767 0 -18.444 -77.495 2.045 -18.345 -77.076
3 16 2.17 -20.091 -74.688 0 -20.002 -75.767 2.045 -18.345 -77.076
4 16 15.086 -13.426 -37.191 15.395 -15.24 -32.458 12.897 -23.396 -42.53 13.783 -17.587 -42.59
3 16 12.954 -17.479 -45.165 13.783 -17.587 -42.59 12.897 -23.396 -42.53
3 16 12.954 -17.479 -45.165 10.68 -15.779 -53.272 11.365 -15.381 -53.18
3 16 13.783 -17.587 -42.59 12.954 -17.479 -45.165 11.365 -15.381 -53.18
3 16 10.68 -15.779 -53.272 9.166 -15.762 -60.626 9.918 -15.295 -60.604
3 16 11.365 -15.381 -53.18 10.68 -15.779 -53.272 9.918 -15.295 -60.604
3 16 9.166 -15.762 -60.626 7.453 -16.579 -66.959 8.16 -16.3 -67.202
3 16 9.918 -15.295 -60.604 9.166 -15.762 -60.626 8.16 -16.3 -67.202
4 16 7.453 -16.579 -66.959 5.621 -17.523 -72.666 6.201 -17.305 -73.02 8.16 -16.3 -67.202
3 16 6.201 -17.305 -73.02 5.621 -17.523 -72.666 3.483 -18.139 -76.04
3 16 3.857 -18.031 -76.454 6.201 -17.305 -73.02 3.483 -18.139 -76.04
3 16 3.857 -18.031 -76.454 3.483 -18.139 -76.04 2.045 -18.345 -77.076
3 16 2.128 -18.324 -77.486 3.857 -18.031 -76.454 2.045 -18.345 -77.076
3 16 2.128 -18.324 -77.486 2.045 -18.345 -77.076 0 -18.444 -77.495
3 16 0 -18.234 -78.109 2.128 -18.324 -77.486 0 -18.444 -77.495
3 16 0 -1.429 -32.935 0 0 -21.368 14.435 0 -21.368
4 16 6 0 16 0 0 16 0 0 24.27 12.018 0 24.27
4 16 6 0 -16.582 14.435 0 -21.368 0 0 -21.368 0 0 -16.582
3 16 15.395 -15.24 -32.458 15.086 -13.426 -37.191 16.637 -11.509 -32.882
3 16 16.637 -11.509 -32.882 15.086 -13.426 -37.191 15.966 -10.88 -35.509
3 16 22.283 -2.242 92.767 25.475 -1.135 89.075 15.093 -1.739 87.298
3 16 15.093 -1.739 87.298 25.475 -1.135 89.075 18.951 .697 84.486
3 16 15.093 -1.739 87.298 18.951 .697 84.486 10.025 1.995 75.901
3 16 15.093 -1.739 87.298 10.025 1.995 75.901 0 -.401 79.842
3 16 6.185 -5.586 86.037 0 -7.789 78.265 10.31 -5.009 80.389
3 16 10.31 -5.009 80.389 0 -7.789 78.265 5.722 -8.774 74.179
3 16 1.414 -36.4 -36.655 8.355 -34.62 -39.677 1.848 -36.402 -35.979
3 16 1.848 -36.402 -35.979 8.355 -34.62 -39.677 2 -36.49 -35.167
3 16 2 -36.49 -35.167 8.355 -34.62 -39.677 1.848 -36.63 -34.341
3 16 29.91 -1.981 98.676 32.223 -.704 94.686 30.129 -.427 94.358
3 16 29.91 -1.981 98.676 30.129 -.427 94.358 26.749 -.759 96.252
3 16 17.276 -9.222 1.445 17.223 -11.842 -16.251 19.176 -7.683 1.757
3 16 19.176 -7.683 1.757 17.223 -11.842 -16.251 25.201 -7.696 -.011
3 16 19.176 -7.683 1.757 19.127 -4.513 2.736 16.373 -4.199 5.275
3 16 19.176 -7.683 1.757 16.373 -4.199 5.275 17.276 -9.222 1.445
3 16 30.712 -7.801 .723 37.705 -7.247 2.391 30.918 -5.626 3.043
3 16 30.918 -5.626 3.043 37.705 -7.247 2.391 38.303 -5.559 4.194
3 16 7.494 -12.848 61.111 7.4 -6.539 61.072 9.146 -7.145 71.146
3 16 9.146 -7.145 71.146 7.4 -6.539 61.072 9.541 -4.108 68.047
3 16 13.494 3.02 74.879 15.97 1.826 74.311 5.894 .814 64.637
3 16 5.894 .814 64.637 15.97 1.826 74.311 8.065 -.695 65.822
3 16 11.199 -32.799 -37.942 8.355 -34.62 -39.677 10.338 -29.451 -46.031
3 16 10.338 -29.451 -46.031 8.355 -34.62 -39.677 5.927 -29.522 -50.495
3 16 1.238 -39.342 4.071 0 -39.114 2.662 2.57 -38.95 2.662
3 16 0 -39.114 2.662 1.238 -39.342 4.071 0 -39.342 4.071
3 16 9.736 -37.302 -20.663 1.414 -36.82 -33.628 1.848 -36.63 -34.341
3 16 9.736 -37.302 -20.663 1.848 -36.63 -34.341 8.355 -34.62 -39.677
3 16 .765 -36.974 -33.135 0 -38.958 -19.795 0 -36.975 -32.939
3 16 8.644 -3.192 38.284 12.018 0 24.27 0 -1.331 36.592
3 16 0 -1.331 36.592 12.018 0 24.27 0 0 24.27
3 16 16.373 -4.199 5.275 13.265 -5.813 22.565 14.177 -8.35 21.889
3 16 16.373 -4.199 5.275 14.177 -8.35 21.889 17.276 -9.222 1.445
3 16 15.059 0 -2.815 16.326 -.314 4.049 19.609 0 -.139
3 16 15.059 0 -2.815 19.609 0 -.139 17.98 -.79 -4.026
3 16 .765 -36.423 -37.091 0 -36.423 -37.221 0 -33.815 -48.128
3 16 .765 -36.423 -37.091 0 -33.815 -48.128 1.414 -36.4 -36.655
3 16 1.414 -36.4 -36.655 0 -33.815 -48.128 8.355 -34.62 -39.677
3 16 0 -38.958 -19.795 .765 -36.974 -33.135 1.414 -36.82 -33.628
3 16 0 -38.958 -19.795 1.414 -36.82 -33.628 9.736 -37.302 -20.663

0 // Cond. lines
5 24 30.257 -9.092 -10.829 29.944 -8.885 -20.214 34.055 -8.336 -14.901 22.911 -9.254 -13.508
5 24 35.262 -4.967 -15.168 34.727 -7.542 -15.043 38.329 -7.253 -6.173 30.54 -5.724 -21.697
5 24 19.176 -7.683 1.757 17.223 -11.842 -16.251 25.201 -7.696 -.011 17.276 -9.222 1.445
5 24 0 -1.373 84.776 11.524 -1.998 89.8 0 -.736 86.919 15.093 -1.739 87.298
5 24 17.276 -9.222 1.445 15.571 -12.369 1.063 17.223 -11.842 -16.251 14.177 -8.35 21.889
5 24 14.177 -8.35 21.889 14.129 -30.053 19.572 14.565 -32.731 2.265 12.322 -9.906 35.01
5 24 23.117 -8.721 -27.928 18.351 -7.038 -32.383 18.329 -9.562 -31.754 22.974 -5.946 -28.159
5 24 8.961 -5.78 96.702 9.028 -1.279 96.778 20.539 -2.542 99.382 0 -3.638 94.761
5 24 6.447 -15.946 63.644 7.536 -20.701 55.837 4.484 -17.018 65.111 7.494 -12.848 61.111
5 24 25.475 -1.135 89.075 22.283 -2.242 92.767 27.335 -2.33 92.28 15.093 -1.739 87.298
5 24 12.032 -26.241 -43.564 12.75 -30.312 -36.535 12.897 -23.396 -42.53 10.338 -29.451 -46.031
5 24 38.303 -5.559 4.194 39.447 -1.845 .803 38.12 -1.441 3.506 39.218 -5.355 2.096
5 24 10.728 .393 93.197 11.524 -1.998 89.8 21.203 -.61 96.284 0 2.155 90.394
5 24 3.75 -31.517 35.794 0 -31.688 37.332 8.493 -30.214 36.046 0 -31.936 36.479
5 24 22.974 -5.946 -28.159 29.195 -4.925 -21.025 22.536 -5.02 -26.653 30.54 -5.724 -21.697
5 24 26.224 -1.31 -4.807 25.287 -.267 -.643 20.814 -1.062 -4.498 32.729 -.981 -2.993
5 24 39.218 -5.355 2.096 37.193 -8.38 -6.501 38.329 -7.253 -6.173 37.705 -7.247 2.391
5 24 2.17 -20.091 -74.688 2.045 -18.345 -77.076 0 -20.002 -75.767 3.483 -18.139 -76.04
5 24 12.46 -9.016 -44.944 14.42 -8.705 -38.223 13.563 -14.475 -44.696 12.688 -5.516 -36.944
5 24 18.264 -10.237 -30.251 17.223 -11.842 -16.251 16.637 -11.509 -32.882 22.836 -9.256 -26.66
5 24 27.335 -2.33 92.28 30.046 .17 91.711 25.475 -1.135 89.075 30.129 -.427 94.358
5 24 9.028 -1.279 96.778 10.728 .393 93.197 21.203 -.61 96.284 0 2.155 90.394
5 24 2.17 -20.091 -74.688 0 -22.975 -66.578 3.698 -22.397 -65.646 0 -20.002 -75.767
5 24 32.223 -.704 94.686 31.524 -7.091 94.31 30.51 -7.704 97.983 30.153 .047 86.795
5 24 9.67 -12.154 -60.47 9.918 -15.295 -60.604 7.999 -13.634 -67.615 11.365 -15.381 -53.18
5 24 0 -57.077 32.065 .867 -56.643 34.345 1.3 -56.481 31.926 0 -56.767 34.188
5 24 2.128 -18.324 -77.486 0 -18.444 -77.495 0 -18.234 -78.109 2.045 -18.345 -77.076
5 24 6.47 -23.292 -50.889 6.571 -24.7 -50.57 6.73 -24.56 -51.699 7.011 -24.455 -49.22
5 24 16.373 -4.199 5.275 14.177 -8.35 21.889 13.265 -5.813 22.565 17.276 -9.222 1.445
5 24 18.722 -8.305 93.694 19.752 -7.606 98.564 7.079 -6.706 94.039 28.715 -7.645 93.501
5 24 1.848 -33 -36.85 1.848 -36.402 -35.979 2 -36.49 -35.167 1.414 -33 -37.52
5 24 14.129 -30.053 19.572 12.365 -24.822 34.078 12.855 -33.68 18.487 12.322 -9.906 35.01
5 24 1.695 -14.882 -77.656 2.054 -16.404 -78.097 0 -14.741 -77.737 3.867 -16.137 -76.817
5 24 5.927 -29.522 -50.495 0 -29.317 -56.482 6.175 -28.736 -54.901 0 -33.815 -48.128
5 24 37.193 -8.38 -6.501 30.257 -9.092 -10.829 34.055 -8.336 -14.901 37.705 -7.247 2.391
5 24 25.973 -3.681 -6.408 30.335 -4.935 -15.368 30.119 -3.611 -5.777 26.65 -5.254 -20.332
5 24 16.74 -3.544 -5.497 17.98 -.79 -4.026 15.059 0 -2.815 20.986 -3.602 -6.193
5 24 7.006 -6.583 91.463 0 -5.904 90.83 0 -6.372 86.206 7.079 -6.706 94.039
5 24 7.079 -6.706 94.039 0 -5.904 90.83 0 -5.58 92.698 7.006 -6.583 91.463
5 24 9.352 -23.181 -53.058 7.878 -23.085 -48.655 7.274 -23.27 -52.512 11.014 -23.261 -48.108
5 24 0 -2.186 48.39 1.715 -.732 59.412 4.068 -.767 59.471 0 -.047 65.073
5 24 10.338 -29.451 -46.031 11.199 -32.799 -37.942 8.355 -34.62 -39.677 12.75 -30.312 -36.535
5 24 10.31 -5.009 80.389 6.185 -5.586 86.037 0 -7.789 78.265 14.244 -5.167 87.245
5 24 .867 -56.643 34.345 0 -56.767 34.188 0 -57.077 32.065 0 -56.327 35.547
5 24 2.17 -20.091 -74.688 0 -20.002 -75.767 0 -22.975 -66.578 2.045 -18.345 -77.076
5 24 5.741 -21.057 -64.474 5.864 -25.569 -58.58 3.698 -22.397 -65.646 9.352 -23.181 -53.058
5 24 9.524 -9.561 50.628 12.365 -24.822 34.078 8.531 -17.855 55.007 12.322 -9.906 35.01
5 24 2 -54.179 30.597 .971 -55.296 25.008 2 -38.126 27.054 .94 -56.826 30.747
5 24 26.224 -1.31 -4.807 32.729 -.981 -2.993 30.119 -3.611 -5.777 25.287 -.267 -.643
5 24 0 -.401 79.842 10.025 1.995 75.901 15.093 -1.739 87.298 0 .333 73.576
5 24 8.355 -34.62 -39.677 1.414 -36.4 -36.655 1.848 -36.402 -35.979 0 -33.815 -48.128
5 24 0 -1.429 -32.935 13.069 -4.411 -32.975 12.688 -5.516 -36.944 14.435 0 -21.368
5 24 21.203 -.61 96.284 29.91 -1.981 98.676 20.539 -2.542 99.382 26.749 -.759 96.252
5 24 14.244 -5.167 87.245 15.063 -3.28 78.736 10.31 -5.009 80.389 18.827 -3.615 83.129
5 24 19.127 -4.513 2.736 25.015 -1.358 .919 19.928 -1.169 1.668 24.891 -5.492 1.739
5 24 17.98 -.79 -4.026 20.814 -1.062 -4.498 19.609 0 -.139 20.986 -3.602 -6.193
5 24 5.927 -29.522 -50.495 6.175 -28.736 -54.901 0 -29.317 -56.482 8.963 -25.855 -52.35
5 24 25.475 -1.135 89.075 30.046 .17 91.711 27.335 -2.33 92.28 27.813 1.613 86.849
5 24 12.897 -23.396 -42.53 12.75 -30.312 -36.535 12.032 -26.241 -43.564 15.395 -15.24 -32.458
5 24 12.018 0 24.27 13.265 -5.813 22.565 15.188 0 7.266 10.585 -6.594 38.665
5 24 36.998 -2.34 -7.283 34.8 -1.478 -3.765 37.457 -.515 .898 33.127 -3.875 -6.629
5 24 9.146 -7.145 71.146 7.4 -6.539 61.072 9.541 -4.108 68.047 7.494 -12.848 61.111
5 24 28.715 -7.645 93.501 24.011 -6.06 89.483 30.127 -4.561 87.695 18.722 -8.305 93.694
5 24 10.126 -19.531 -53.181 9.166 -15.762 -60.626 7.679 -18.827 -63.073 10.68 -15.779 -53.272
5 24 8.532 -10.62 -60.286 10.741 -10.485 -52.727 9.406 -8.697 -52.287 9.67 -12.154 -60.47
5 24 18.41 -5.695 -30.375 22.974 -5.946 -28.159 22.536 -5.02 -26.653 18.351 -7.038 -32.383
5 24 21.203 -.61 96.284 20.539 -2.542 99.382 29.91 -1.981 98.676 9.028 -1.279 96.778
5 24 1.238 -39.342 4.071 0 -39.114 2.662 2.57 -38.95 2.662 0 -39.342 4.071
5 24 23.117 -8.721 -27.928 22.836 -9.256 -26.66 30.479 -8.214 -21.034 18.329 -9.562 -31.754
5 24 18.827 -3.615 83.129 15.063 -3.28 78.736 24.352 -2.375 81.691 14.244 -5.167 87.245
5 24 10.316 -37.712 .988 0 -38.958 -19.795 9.736 -37.302 -20.663 0 -39.112 1.511
5 24 38.12 -1.441 3.506 31.838 -.335 .894 37.457 -.515 .898 30.951 -1.621 2.404
5 24 15.693 -8.198 -35.681 15.086 -13.426 -37.191 14.42 -8.705 -38.223 15.966 -10.88 -35.509
5 24 30.127 -4.561 87.695 30.153 .047 86.795 31.524 -7.091 94.31 24.352 -2.375 81.691
5 24 11.524 -1.998 89.8 21.203 -.61 96.284 10.728 .393 93.197 22.283 -2.242 92.767
5 24 16.008 -14.38 -17.014 15.395 -15.24 -32.458 16.637 -11.509 -32.882 12.75 -30.312 -36.535
5 24 37.457 -.515 .898 39.447 -1.845 .803 38.12 -1.441 3.506 36.998 -2.34 -7.283
5 24 22.536 -5.02 -26.653 22.974 -5.946 -28.159 18.41 -5.695 -30.375 29.195 -4.925 -21.025
5 24 10.025 1.995 75.901 22.407 2.817 82.711 18.951 .697 84.486 13.494 3.02 74.879
5 24 2 -52.686 37.362 2 -36.633 33.819 3.464 -53.001 35.932 0 -36.518 34.343
5 24 0 -33.815 -48.128 1.414 -36.4 -36.655 .765 -36.423 -37.091 8.355 -34.62 -39.677
5 24 11.365 -15.381 -53.18 12.954 -17.479 -45.165 13.783 -17.587 -42.59 10.68 -15.779 -53.272
5 24 36.998 -2.34 -7.283 38.801 -3.586 -6.5 39.447 -1.845 .803 35.262 -4.967 -15.168
5 24 2 -54.179 30.597 .94 -56.826 30.747 1.3 -56.481 31.926 .971 -55.296 25.008
5 24 39.218 -5.355 2.096 38.801 -3.586 -6.5 39.447 -1.845 .803 38.329 -7.253 -6.173
5 24 0 -38.958 -19.795 9.736 -37.302 -20.663 10.316 -37.712 .988 1.414 -36.82 -33.628
5 24 13.668 -31.708 -18.035 16.008 -14.38 -17.014 12.75 -30.312 -36.535 15.571 -12.369 1.063
5 24 19.176 -7.683 1.757 25.201 -7.696 -.011 24.891 -5.492 1.739 17.223 -11.842 -16.251
5 24 25.201 -7.696 -.011 24.891 -5.492 1.739 30.918 -5.626 3.043 19.176 -7.683 1.757
5 24 0 -1.373 84.776 15.093 -1.739 87.298 11.524 -1.998 89.8 0 -.401 79.842
5 24 14.244 -5.167 87.245 7.006 -6.583 91.463 6.185 -5.586 86.037 18.722 -8.305 93.694
5 24 34.727 -7.542 -15.043 30.54 -5.724 -21.697 30.479 -8.214 -21.034 35.262 -4.967 -15.168
5 24 33.127 -3.875 -6.629 36.998 -2.34 -7.283 33.873 -3.959 -14.228 32.313 -3.557 -5.366
5 24 5.864 -25.569 -58.58 8.949 -24.58 -53.293 9.352 -23.181 -53.058 6.175 -28.736 -54.901
5 24 15.97 1.826 74.311 22.407 2.817 82.711 23.989 1.659 80.598 13.494 3.02 74.879
5 24 5.908 -15.123 -73.717 6.201 -17.305 -73.02 3.867 -16.137 -76.817 8.16 -16.3 -67.202
5 24 .867 -56.643 34.345 2.605 -55.454 35.843 2.627 -55.738 34.24 0 -56.327 35.547
5 24 10.741 -10.485 -52.727 11.365 -15.381 -53.18 9.67 -12.154 -60.47 13.563 -14.475 -44.696
5 24 10.338 -29.451 -46.031 5.927 -29.522 -50.495 8.355 -34.62 -39.677 9.405 -26.353 -50.805
5 24 15.395 -15.24 -32.458 15.086 -13.426 -37.191 12.897 -23.396 -42.53 16.637 -11.509 -32.882
5 24 1.848 -33 -35.27 1.848 -36.63 -34.341 2 -33 -36.06 1.414 -36.82 -33.628
5 24 34.055 -8.336 -14.901 37.193 -8.38 -6.501 30.257 -9.092 -10.829 34.727 -7.542 -15.043
5 24 5.908 -15.123 -73.717 3.867 -16.137 -76.817 3.64 -14.593 -76.116 6.201 -17.305 -73.02
5 24 25.475 -1.135 89.075 22.407 2.817 82.711 27.813 1.613 86.849 18.951 .697 84.486
5 24 24.011 -6.06 89.483 18.722 -8.305 93.694 14.244 -5.167 87.245 28.715 -7.645 93.501
5 24 16.637 -11.509 -32.882 16.008 -14.38 -17.014 17.223 -11.842 -16.251 15.395 -15.24 -32.458
5 24 2.627 -55.738 34.24 .867 -56.643 34.345 1.3 -56.481 31.926 2.605 -55.454 35.843
5 24 5.894 .814 64.637 6.009 -2.746 60.056 4.068 -.767 59.471 8.065 -.695 65.822
5 24 12.75 -30.312 -36.535 11.199 -32.799 -37.942 13.668 -31.708 -18.035 10.338 -29.451 -46.031
5 24 1.715 -.732 59.412 5.894 .814 64.637 3.736 .046 65.493 4.068 -.767 59.471
5 24 30.046 .17 91.711 30.153 .047 86.795 27.813 1.613 86.849 32.223 -.704 94.686
5 24 0 -13.217 -74.946 5.45 -13.93 -73.109 0 -11.959 -71.237 3.64 -14.593 -76.116
5 24 10.68 -15.779 -53.272 10.126 -19.531 -53.181 9.166 -15.762 -60.626 12.954 -17.479 -45.165
5 24 9.736 -37.302 -20.663 12.156 -35.289 -20.124 8.355 -34.62 -39.677 13.013 -35.602 .744
5 24 .765 -36.423 -37.091 .765 -33 -37.968 1.414 -36.4 -36.655 0 -36.423 -37.221
5 24 6.762 -3.718 48.444 9.524 -9.561 50.628 7.4 -6.539 61.072 10.585 -6.594 38.665
5 24 10.316 -37.712 .988 2.021 -36.847 18.591 2.57 -38.95 2.662 10.185 -35.762 18.317
5 24 11.199 -32.799 -37.942 13.668 -31.708 -18.035 12.156 -35.289 -20.124 12.75 -30.312 -36.535
5 24 24.352 -2.375 81.691 15.063 -3.28 78.736 18.827 -3.615 83.129 17.586 -1.259 76.225
5 24 1.124 -50.733 18.951 0 -50.733 18.951 0 -45.4 13.047 .971 -55.296 25.008
5 24 18.329 -9.562 -31.754 18.264 -10.237 -30.251 16.637 -11.509 -32.882 22.836 -9.256 -26.66
5 24 11.232 -28.368 35.303 10.185 -35.762 18.317 8.493 -30.214 36.046 12.855 -33.68 18.487
5 24 1.848 -36.402 -35.979 8.355 -34.62 -39.677 2 -36.49 -35.167 1.414 -36.4 -36.655
5 24 13.563 -14.475 -44.696 11.365 -15.381 -53.18 13.783 -17.587 -42.59 10.741 -10.485 -52.727
5 24 5.894 .814 64.637 8.065 -.695 65.822 6.009 -2.746 60.056 15.97 1.826 74.311
5 24 14.841 -5.655 -31.485 14.306 -6.336 -34.535 13.069 -4.411 -32.975 18.41 -5.695 -30.375
5 24 10.185 -35.762 18.317 2.021 -36.847 18.591 2.545 -35.637 22.497 10.316 -37.712 .988
5 24 17.276 -9.222 1.445 14.177 -8.35 21.889 15.571 -12.369 1.063 16.373 -4.199 5.275
5 24 0 -5.299 -50.653 9.406 -8.697 -52.287 11.352 -5.795 -41.29 0 -7.839 -58.15
5 24 10.126 -19.531 -53.181 7.679 -18.827 -63.073 9.166 -15.762 -60.626 9.352 -23.181 -53.058
5 24 30.712 -7.801 .723 25.201 -7.696 -.011 30.257 -9.092 -10.829 30.918 -5.626 3.043
5 24 16.102 -4.079 -21.793 14.435 0 -21.368 14.841 -5.655 -31.485 16.74 -3.544 -5.497
5 24 15.059 0 -2.815 19.609 0 -.139 17.98 -.79 -4.026 16.326 -.314 4.049
5 24 2 -38.126 27.054 2.021 -36.847 18.591 2.545 -35.637 22.497 1.238 -38.271 15.028
5 24 7.585 -32.808 29.428 4 -37.38 30.437 3.464 -37.811 28.484 6.673 -31.824 33.156
5 24 10.585 -6.594 38.665 13.265 -5.813 22.565 12.018 0 24.27 12.322 -9.906 35.01
5 24 18.951 .697 84.486 22.407 2.817 82.711 10.025 1.995 75.901 25.475 -1.135 89.075
5 24 1.238 -39.342 4.071 2.021 -36.847 18.591 1.238 -38.271 15.028 2.57 -38.95 2.662
5 24 22.836 -9.256 -26.66 18.264 -10.237 -30.251 18.329 -9.562 -31.754 17.223 -11.842 -16.251
5 24 0 -31.688 37.332 5.954 -22.473 55.879 8.493 -30.214 36.046 0 -22.586 57.431
5 24 9.028 -1.279 96.778 0 2.155 90.394 0 .414 94.69 10.728 .393 93.197
5 24 12.688 -5.516 -36.944 15.693 -8.198 -35.681 14.42 -8.705 -38.223 14.306 -6.336 -34.535
5 24 8.355 -34.62 -39.677 1.848 -36.63 -34.341 2 -36.49 -35.167 9.736 -37.302 -20.663
5 24 0 -10.068 -65.13 8.532 -10.62 -60.286 7.111 -12.247 -67.291 0 -7.839 -58.15
5 24 39.447 -1.845 .803 39.218 -5.355 2.096 38.303 -5.559 4.194 38.801 -3.586 -6.5
5 24 13.069 -4.411 -32.975 14.306 -6.336 -34.535 14.841 -5.655 -31.485 12.688 -5.516 -36.944
5 24 32.223 -.704 94.686 30.51 -7.704 97.983 31.524 -7.091 94.31 29.91 -1.981 98.676
5 24 14.129 -30.053 19.572 13.013 -35.602 .744 14.565 -32.731 2.265 12.855 -33.68 18.487
5 24 12.156 -35.289 -20.124 13.668 -31.708 -18.035 14.565 -32.731 2.265 11.199 -32.799 -37.942
5 24 34.8 -1.478 -3.765 32.313 -3.557 -5.366 32.729 -.981 -2.993 36.998 -2.34 -7.283
5 24 16.373 -4.199 5.275 13.265 -5.813 22.565 15.188 0 7.266 14.177 -8.35 21.889
5 24 15.093 -1.739 87.298 18.951 .697 84.486 10.025 1.995 75.901 25.475 -1.135 89.075
5 24 11.524 -1.998 89.8 15.093 -1.739 87.298 0 -1.373 84.776 22.283 -2.242 92.767
5 24 2 -33 -36.06 2 -36.49 -35.167 1.848 -36.63 -34.341 1.848 -33 -36.85
5 24 17.586 -1.259 76.225 8.065 -.695 65.822 9.541 -4.108 68.047 15.97 1.826 74.311
5 24 8.644 -3.192 38.284 10.585 -6.594 38.665 6.762 -3.718 48.444 12.018 0 24.27
5 24 9.406 -8.697 -52.287 10.741 -10.485 -52.727 8.532 -10.62 -60.286 12.46 -9.016 -44.944
5 24 3.867 -16.137 -76.817 3.857 -18.031 -76.454 6.201 -17.305 -73.02 2.054 -16.404 -78.097
5 24 3.857 -18.031 -76.454 2.045 -18.345 -77.076 3.483 -18.139 -76.04 2.128 -18.324 -77.486
5 24 0 -2.186 48.39 6.762 -3.718 48.444 0 -1.331 36.592 4.068 -.767 59.471
5 24 12.11 -20.523 -46.44 12.954 -17.479 -45.165 12.897 -23.396 -42.53 10.126 -19.531 -53.181
5 24 37.457 -.515 .898 34.8 -1.478 -3.765 32.729 -.981 -2.993 36.998 -2.34 -7.283
5 24 15.966 -10.88 -35.509 15.086 -13.426 -37.191 16.637 -11.509 -32.882 15.693 -8.198 -35.681
5 24 8.961 -5.78 96.702 20.539 -2.542 99.382 19.752 -7.606 98.564 9.028 -1.279 96.778
5 24 37.705 -7.247 2.391 38.303 -5.559 4.194 30.918 -5.626 3.043 39.218 -5.355 2.096
5 24 19.609 0 -.139 19.928 -1.169 1.668 25.287 -.267 -.643 16.326 -.314 4.049
5 24 32.313 -3.557 -5.366 30.335 -4.935 -15.368 33.127 -3.875 -6.629 30.119 -3.611 -5.777
5 24 22.911 -9.254 -13.508 17.223 -11.842 -16.251 25.201 -7.696 -.011 22.836 -9.256 -26.66
5 24 12.46 -9.016 -44.944 13.563 -14.475 -44.696 14.42 -8.705 -38.223 10.741 -10.485 -52.727
5 24 7.4 -6.539 61.072 8.531 -17.855 55.007 9.524 -9.561 50.628 7.494 -12.848 61.111
5 24 30.119 -3.611 -5.777 30.335 -4.935 -15.368 25.973 -3.681 -6.408 32.313 -3.557 -5.366
5 24 2 -52.686 37.362 0 -54.998 37.009 0 -52.57 37.885 1.409 -55.151 36.668
5 24 30.335 -4.935 -15.368 33.873 -3.959 -14.228 33.127 -3.875 -6.629 29.195 -4.925 -21.025
5 24 34.727 -7.542 -15.043 34.055 -8.336 -14.901 30.479 -8.214 -21.034 38.329 -7.253 -6.173
5 24 10.25 -25.56 -48.955 10.338 -29.451 -46.031 12.032 -26.241 -43.564 9.405 -26.353 -50.805
5 24 26.65 -5.254 -20.332 29.195 -4.925 -21.025 22.536 -5.02 -26.653 30.335 -4.935 -15.368
5 24 9.524 -9.561 50.628 10.585 -6.594 38.665 12.322 -9.906 35.01 6.762 -3.718 48.444
5 24 8.949 -24.58 -53.293 6.175 -28.736 -54.901 5.864 -25.569 -58.58 8.963 -25.855 -52.35
5 24 2 -38.126 27.054 .971 -55.296 25.008 2 -54.179 30.597 1.124 -50.733 18.951
5 24 9.918 -15.295 -60.604 10.68 -15.779 -53.272 9.166 -15.762 -60.626 11.365 -15.381 -53.18
5 24 4 -53.432 33.979 2.627 -55.738 34.24 3.464 -53.001 35.932 3.464 -53.863 32.026
5 24 3.483 -18.139 -76.04 6.201 -17.305 -73.02 5.621 -17.523 -72.666 3.857 -18.031 -76.454
5 24 0 -33.815 -48.128 .765 -36.423 -37.091 0 -36.423 -37.221 1.414 -36.4 -36.655
5 24 7.679 -18.827 -63.073 6.052 -18.307 -70.333 5.741 -21.057 -64.474 7.453 -16.579 -66.959
5 24 8.16 -16.3 -67.202 9.166 -15.762 -60.626 7.453 -16.579 -66.959 9.918 -15.295 -60.604
5 24 2 -54.179 30.597 1.3 -56.481 31.926 .94 -56.826 30.747 3.464 -53.863 32.026
5 24 24.891 -5.492 1.739 30.951 -1.621 2.404 25.015 -1.358 .919 30.918 -5.626 3.043
5 24 7.453 -16.579 -66.959 6.052 -18.307 -70.333 5.621 -17.523 -72.666 7.679 -18.827 -63.073
5 24 9.406 -8.697 -52.287 12.46 -9.016 -44.944 10.741 -10.485 -52.727 11.352 -5.795 -41.29
5 24 30.951 -1.621 2.404 31.838 -.335 .894 25.287 -.267 -.643 38.12 -1.441 3.506
5 24 38.801 -3.586 -6.5 38.329 -7.253 -6.173 39.218 -5.355 2.096 35.262 -4.967 -15.168
5 24 26.224 -1.31 -4.807 30.119 -3.611 -5.777 32.729 -.981 -2.993 25.973 -3.681 -6.408
5 24 36.998 -2.34 -7.283 37.457 -.515 .898 39.447 -1.845 .803 34.8 -1.478 -3.765
5 24 31.838 -.335 .894 32.729 -.981 -2.993 25.287 -.267 -.643 37.457 -.515 .898
5 24 9.405 -26.353 -50.805 6.571 -24.7 -50.57 7.011 -24.455 -49.22 8.963 -25.855 -52.35
5 24 2.605 -55.454 35.843 2 -52.686 37.362 3.464 -53.001 35.932 1.409 -55.151 36.668
5 24 14.42 -8.705 -38.223 15.086 -13.426 -37.191 13.563 -14.475 -44.696 15.693 -8.198 -35.681
5 24 14.244 -5.167 87.245 18.722 -8.305 93.694 24.011 -6.06 89.483 7.006 -6.583 91.463
5 24 8.532 -10.62 -60.286 9.67 -12.154 -60.47 7.111 -12.247 -67.291 10.741 -10.485 -52.727
5 24 9.352 -23.181 -53.058 7.679 -18.827 -63.073 5.741 -21.057 -64.474 10.126 -19.531 -53.181
5 24 3.464 -53.863 32.026 2.627 -55.738 34.24 1.3 -56.481 31.926 4 -53.432 33.979
5 24 10.585 -6.594 38.665 12.018 0 24.27 8.644 -3.192 38.284 13.265 -5.813 22.565
5 24 15.693 -8.198 -35.681 18.329 -9.562 -31.754 18.351 -7.038 -32.383 15.966 -10.88 -35.509
5 24 1.238 -38.271 15.028 1.238 -45.4 13.047 1.238 -39.342 4.071 1.124 -50.733 18.951
5 24 10.741 -10.485 -52.727 13.563 -14.475 -44.696 11.365 -15.381 -53.18 12.46 -9.016 -44.944
5 24 32.729 -.981 -2.993 37.457 -.515 .898 31.838 -.335 .894 34.8 -1.478 -3.765
5 24 12.46 -9.016 -44.944 10.741 -10.485 -52.727 9.406 -8.697 -52.287 13.563 -14.475 -44.696
5 24 9.736 -37.302 -20.663 1.414 -36.82 -33.628 0 -38.958 -19.795 1.848 -36.63 -34.341
5 24 12.032 -26.241 -43.564 10.338 -29.451 -46.031 10.25 -25.56 -48.955 12.75 -30.312 -36.535
5 24 17.223 -11.842 -16.251 15.571 -12.369 1.063 16.008 -14.38 -17.014 17.276 -9.222 1.445
5 24 .765 -33 -34.153 .765 -36.974 -33.135 0 -33 -33.996 1.414 -33 -34.6
5 24 18.41 -5.695 -30.375 14.306 -6.336 -34.535 14.841 -5.655 -31.485 18.351 -7.038 -32.383
5 24 7.111 -12.247 -67.291 9.67 -12.154 -60.47 7.999 -13.634 -67.615 8.532 -10.62 -60.286
5 24 2.054 -16.404 -78.097 2.128 -18.324 -77.486 3.857 -18.031 -76.454 0 -16.543 -78.496
5 24 0 -11.959 -71.237 7.111 -12.247 -67.291 0 -10.068 -65.13 5.45 -13.93 -73.109
5 24 22.536 -5.02 -26.653 29.195 -4.925 -21.025 22.974 -5.946 -28.159 26.65 -5.254 -20.332
5 24 8.355 -34.62 -39.677 9.736 -37.302 -20.663 12.156 -35.289 -20.124 1.848 -36.63 -34.341
5 24 30.479 -8.214 -21.034 22.836 -9.256 -26.66 23.117 -8.721 -27.928 29.944 -8.885 -20.214
5 24 7.4 -6.539 61.072 6.762 -3.718 48.444 6.009 -2.746 60.056 9.524 -9.561 50.628
5 24 3.736 .046 65.493 10.025 1.995 75.901 13.494 3.02 74.879 0 .333 73.576
5 24 16.008 -14.38 -17.014 12.75 -30.312 -36.535 13.668 -31.708 -18.035 15.395 -15.24 -32.458
5 24 3.75 -31.517 35.794 2 -36.633 33.819 3.464 -36.949 32.39 0 -31.936 36.479
5 24 14.177 -8.35 21.889 14.565 -32.731 2.265 14.129 -30.053 19.572 15.571 -12.369 1.063
5 24 18.827 -3.615 83.129 24.011 -6.06 89.483 14.244 -5.167 87.245 24.352 -2.375 81.691
5 24 6.009 -2.746 60.056 7.4 -6.539 61.072 9.541 -4.108 68.047 6.762 -3.718 48.444
5 24 10.185 -35.762 18.317 12.855 -33.68 18.487 10.316 -37.712 .988 11.232 -28.368 35.303
5 24 30.257 -9.092 -10.829 30.712 -7.801 .723 37.705 -7.247 2.391 25.201 -7.696 -.011
5 24 8.949 -24.58 -53.293 6.73 -24.56 -51.699 8.963 -25.855 -52.35 7.274 -23.27 -52.512
5 24 2 -54.179 30.597 3.464 -53.863 32.026 1.3 -56.481 31.926 2 -38.126 27.054
5 24 12.032 -26.241 -43.564 10.25 -25.56 -48.955 11.014 -23.261 -48.108 10.338 -29.451 -46.031
5 24 3.464 -53.001 35.932 2.605 -55.454 35.843 2.627 -55.738 34.24 2 -52.686 37.362
5 24 4.327 -19.203 -73.286 2.17 -20.091 -74.688 3.483 -18.139 -76.04 3.698 -22.397 -65.646
5 24 0 -13.217 -74.946 3.64 -14.593 -76.116 1.695 -14.882 -77.656 5.45 -13.93 -73.109
5 24 12.322 -9.906 35.01 14.129 -30.053 19.572 14.177 -8.35 21.889 12.365 -24.822 34.078
5 24 2.128 -18.324 -77.486 2.045 -18.345 -77.076 3.857 -18.031 -76.454 0 -18.444 -77.495
5 24 0 -6.372 86.206 7.006 -6.583 91.463 6.185 -5.586 86.037 0 -5.904 90.83
5 24 16.008 -14.38 -17.014 15.571 -12.369 1.063 13.668 -31.708 -18.035 17.223 -11.842 -16.251
5 24 14.42 -8.705 -38.223 13.563 -14.475 -44.696 15.086 -13.426 -37.191 12.46 -9.016 -44.944
5 24 8.16 -16.3 -67.202 5.908 -15.123 -73.717 6.201 -17.305 -73.02 7.999 -13.634 -67.615
5 24 24.352 -2.375 81.691 18.827 -3.615 83.129 30.127 -4.561 87.695 15.063 -3.28 78.736
5 24 5.741 -21.057 -64.474 3.698 -22.397 -65.646 5.864 -25.569 -58.58 4.327 -19.203 -73.286
5 24 29.944 -8.885 -20.214 22.911 -9.254 -13.508 30.257 -9.092 -10.829 22.836 -9.256 -26.66
5 24 17.223 -11.842 -16.251 22.836 -9.256 -26.66 18.264 -10.237 -30.251 22.911 -9.254 -13.508
5 24 20.986 -3.602 -6.193 21.164 -5.204 -25.403 16.102 -4.079 -21.793 26.65 -5.254 -20.332
5 24 14.565 -32.731 2.265 14.129 -30.053 19.572 13.013 -35.602 .744 14.177 -8.35 21.889
5 24 3.698 -22.397 -65.646 0 -22.975 -66.578 2.17 -20.091 -74.688 0 -26.284 -59.915
5 24 7.585 -32.808 29.428 8.493 -30.214 36.046 6.673 -31.824 33.156 10.185 -35.762 18.317
5 24 12.322 -9.906 35.01 12.365 -24.822 34.078 14.129 -30.053 19.572 9.524 -9.561 50.628
5 24 8.065 -.695 65.822 6.009 -2.746 60.056 9.541 -4.108 68.047 5.894 .814 64.637
5 24 18.41 -5.695 -30.375 18.351 -7.038 -32.383 14.306 -6.336 -34.535 22.974 -5.946 -28.159
5 24 3.64 -14.593 -76.116 5.908 -15.123 -73.717 3.867 -16.137 -76.817 5.45 -13.93 -73.109
5 24 24.011 -6.06 89.483 30.127 -4.561 87.695 28.715 -7.645 93.501 18.827 -3.615 83.129
5 24 5.927 -29.522 -50.495 8.963 -25.855 -52.35 6.175 -28.736 -54.901 9.405 -26.353 -50.805
5 24 15.395 -15.24 -32.458 12.75 -30.312 -36.535 12.897 -23.396 -42.53 16.008 -14.38 -17.014
5 24 12.855 -33.68 18.487 11.232 -28.368 35.303 12.365 -24.822 34.078 10.185 -35.762 18.317
5 24 2.545 -35.637 22.497 2 -38.126 27.054 3.389 -35.102 23.923 2.021 -36.847 18.591
5 24 32.729 -.981 -2.993 34.8 -1.478 -3.765 32.313 -3.557 -5.366 37.457 -.515 .898
5 24 6.73 -24.56 -51.699 8.963 -25.855 -52.35 8.949 -24.58 -53.293 6.571 -24.7 -50.57
5 24 3.464 -53.001 35.932 3.464 -36.949 32.39 4 -53.432 33.979 2 -36.633 33.819
5 24 3.464 -37.811 28.484 3.464 -53.863 32.026 2 -54.179 30.597 4 -37.38 30.437
5 24 6.201 -17.305 -73.02 5.621 -17.523 -72.666 8.16 -16.3 -67.202 3.483 -18.139 -76.04
5 24 0 -11.959 -71.237 5.45 -13.93 -73.109 0 -13.217 -74.946 7.111 -12.247 -67.291
5 24 1.409 -55.151 36.668 2 -52.686 37.362 2.605 -55.454 35.843 0 -54.998 37.009
5 24 6.762 -3.718 48.444 0 -1.331 36.592 0 -2.186 48.39 8.644 -3.192 38.284
5 24 0 -38.958 -19.795 .765 -36.974 -33.135 0 -36.975 -32.939 1.414 -36.82 -33.628
5 24 30.257 -9.092 -10.829 22.911 -9.254 -13.508 29.944 -8.885 -20.214 25.201 -7.696 -.011
5 24 37.193 -8.38 -6.501 38.329 -7.253 -6.173 34.055 -8.336 -14.901 39.218 -5.355 2.096
5 24 22.283 -2.242 92.767 26.749 -.759 96.252 27.335 -2.33 92.28 21.203 -.61 96.284
5 24 1.238 -45.4 13.047 0 -45.4 13.047 1.124 -50.733 18.951 0 -39.342 4.071
5 24 23.989 1.659 80.598 24.352 -2.375 81.691 30.153 .047 86.795 17.586 -1.259 76.225
5 24 0 -5.299 -50.653 11.352 -5.795 -41.29 0 -2.593 -39.98 9.406 -8.697 -52.287
5 24 16.637 -11.509 -32.882 15.086 -13.426 -37.191 15.395 -15.24 -32.458 15.966 -10.88 -35.509
5 24 3.483 -18.139 -76.04 2.17 -20.091 -74.688 4.327 -19.203 -73.286 2.045 -18.345 -77.076
5 24 10.585 -6.594 38.665 6.762 -3.718 48.444 8.644 -3.192 38.284 9.524 -9.561 50.628
5 24 27.813 1.613 86.849 30.153 .047 86.795 30.046 .17 91.711 22.407 2.817 82.711
5 24 7.494 -12.848 61.111 7.536 -20.701 55.837 6.447 -15.946 63.644 8.531 -17.855 55.007
5 24 22.407 2.817 82.711 30.153 .047 86.795 27.813 1.613 86.849 23.989 1.659 80.598
5 24 0 .333 73.576 10.025 1.995 75.901 3.736 .046 65.493 0 -.401 79.842
5 24 0 -56.826 30.747 .94 -56.826 30.747 0 -55.296 25.008 0 -57.077 32.065
5 24 25.475 -1.135 89.075 27.813 1.613 86.849 22.407 2.817 82.711 30.046 .17 91.711
5 24 7.679 -18.827 -63.073 5.741 -21.057 -64.474 9.352 -23.181 -53.058 6.052 -18.307 -70.333
5 24 6.201 -17.305 -73.02 3.867 -16.137 -76.817 3.857 -18.031 -76.454 5.908 -15.123 -73.717
5 24 20.814 -1.062 -4.498 26.224 -1.31 -4.807 19.609 0 -.139 25.973 -3.681 -6.408
5 24 0 -13.217 -74.946 1.695 -14.882 -77.656 3.64 -14.593 -76.116 0 -14.741 -77.737
5 24 12.156 -35.289 -20.124 13.013 -35.602 .744 9.736 -37.302 -20.663 14.565 -32.731 2.265
5 24 9.541 -4.108 68.047 7.4 -6.539 61.072 6.009 -2.746 60.056 9.146 -7.145 71.146
5 24 17.341 -5.618 -28.946 18.41 -5.695 -30.375 14.841 -5.655 -31.485 22.536 -5.02 -26.653
5 24 10.185 -35.762 18.317 8.493 -30.214 36.046 7.585 -32.808 29.428 11.232 -28.368 35.303
5 24 9.524 -9.561 50.628 7.4 -6.539 61.072 6.762 -3.718 48.444 8.531 -17.855 55.007
5 24 0 -.047 65.073 3.736 .046 65.493 0 .333 73.576 1.715 -.732 59.412
5 24 10.126 -19.531 -53.181 9.352 -23.181 -53.058 7.679 -18.827 -63.073 11.014 -23.261 -48.108
5 24 30.479 -8.214 -21.034 22.974 -5.946 -28.159 30.54 -5.724 -21.697 23.117 -8.721 -27.928
5 24 15.571 -12.369 1.063 14.565 -32.731 2.265 13.668 -31.708 -18.035 14.177 -8.35 21.889
5 24 6.052 -18.307 -70.333 5.741 -21.057 -64.474 4.327 -19.203 -73.286 7.679 -18.827 -63.073
5 24 25.015 -1.358 .919 24.891 -5.492 1.739 30.951 -1.621 2.404 19.127 -4.513 2.736
5 24 29.195 -4.925 -21.025 33.873 -3.959 -14.228 30.335 -4.935 -15.368 30.54 -5.724 -21.697
5 24 12.688 -5.516 -36.944 14.42 -8.705 -38.223 15.693 -8.198 -35.681 12.46 -9.016 -44.944
5 24 15.693 -8.198 -35.681 15.966 -10.88 -35.509 15.086 -13.426 -37.191 18.329 -9.562 -31.754
5 24 0 2.155 90.394 11.524 -1.998 89.8 10.728 .393 93.197 0 -.736 86.919
5 24 3.464 -53.001 35.932 2.627 -55.738 34.24 2.605 -55.454 35.843 4 -53.432 33.979
5 24 7.536 -20.701 55.837 11.232 -28.368 35.303 8.531 -17.855 55.007 8.493 -30.214 36.046
5 24 4.484 -17.018 65.111 0 -15.965 67.757 0 -22.586 57.431 5.722 -8.774 74.179
5 24 0 -2.593 -39.98 11.352 -5.795 -41.29 0 -5.299 -50.653 12.688 -5.516 -36.944
5 24 10.338 -29.451 -46.031 12.75 -30.312 -36.535 12.032 -26.241 -43.564 11.199 -32.799 -37.942
5 24 7.999 -13.634 -67.615 9.67 -12.154 -60.47 9.918 -15.295 -60.604 7.111 -12.247 -67.291
5 24 18.722 -8.305 93.694 7.006 -6.583 91.463 14.244 -5.167 87.245 7.079 -6.706 94.039
5 24 15.97 1.826 74.311 8.065 -.695 65.822 5.894 .814 64.637 17.586 -1.259 76.225
5 24 6.185 -5.586 86.037 0 -6.372 86.206 0 -7.789 78.265 7.006 -6.583 91.463
5 24 2.128 -18.324 -77.486 0 -16.543 -78.496 2.054 -16.404 -78.097 0 -18.234 -78.109
5 24 8.065 -.695 65.822 9.541 -4.108 68.047 6.009 -2.746 60.056 17.586 -1.259 76.225
5 24 13.013 -35.602 .744 10.316 -37.712 .988 9.736 -37.302 -20.663 12.855 -33.68 18.487
5 24 25.287 -.267 -.643 19.928 -1.169 1.668 25.015 -1.358 .919 19.609 0 -.139
5 24 8.355 -34.62 -39.677 2 -36.49 -35.167 1.848 -36.402 -35.979 1.848 -36.63 -34.341
5 24 14.565 -32.731 2.265 13.013 -35.602 .744 14.129 -30.053 19.572 12.156 -35.289 -20.124
5 24 2.605 -55.454 35.843 0 -56.327 35.547 1.409 -55.151 36.668 .867 -56.643 34.345
5 24 4.327 -19.203 -73.286 3.698 -22.397 -65.646 2.17 -20.091 -74.688 5.741 -21.057 -64.474
5 24 0 -5.58 92.698 8.961 -5.78 96.702 0 -3.638 94.761 7.079 -6.706 94.039
5 24 37.193 -8.38 -6.501 37.705 -7.247 2.391 39.218 -5.355 2.096 30.257 -9.092 -10.829
5 24 7.011 -24.455 -49.22 9.405 -26.353 -50.805 10.25 -25.56 -48.955 6.571 -24.7 -50.57
5 24 8.531 -17.855 55.007 7.494 -12.848 61.111 7.536 -20.701 55.837 7.4 -6.539 61.072
5 24 13.069 -4.411 -32.975 14.841 -5.655 -31.485 14.306 -6.336 -34.535 14.435 0 -21.368
5 24 19.752 -7.606 98.564 28.715 -7.645 93.501 30.51 -7.704 97.983 18.722 -8.305 93.694
5 24 38.12 -1.441 3.506 37.457 -.515 .898 31.838 -.335 .894 39.447 -1.845 .803
5 24 2.045 -18.345 -77.076 0 -20.002 -75.767 0 -18.444 -77.495 2.17 -20.091 -74.688
5 24 0 -7.839 -58.15 8.532 -10.62 -60.286 9.406 -8.697 -52.287 0 -10.068 -65.13
5 24 4.484 -17.018 65.111 0 -22.586 57.431 0 -15.965 67.757 5.954 -22.473 55.879
5 24 14.435 0 -21.368 0 -1.429 -32.935 13.069 -4.411 -32.975 0 0 -21.368
5 24 30.127 -4.561 87.695 28.715 -7.645 93.501 24.011 -6.06 89.483 31.524 -7.091 94.31
5 24 8.963 -25.855 -52.35 6.175 -28.736 -54.901 8.949 -24.58 -53.293 5.927 -29.522 -50.495
5 24 1.695 -14.882 -77.656 3.867 -16.137 -76.817 3.64 -14.593 -76.116 2.054 -16.404 -78.097
5 24 12.897 -23.396 -42.53 15.395 -15.24 -32.458 12.75 -30.312 -36.535 13.783 -17.587 -42.59
5 24 30.918 -5.626 3.043 25.201 -7.696 -.011 24.891 -5.492 1.739 30.712 -7.801 .723
5 24 9.736 -37.302 -20.663 10.316 -37.712 .988 0 -38.958 -19.795 13.013 -35.602 .744
5 24 21.164 -5.204 -25.403 16.102 -4.079 -21.793 17.341 -5.618 -28.946 20.986 -3.602 -6.193
5 24 11.365 -15.381 -53.18 10.68 -15.779 -53.272 12.954 -17.479 -45.165 9.918 -15.295 -60.604
5 24 10.126 -19.531 -53.181 11.014 -23.261 -48.108 12.11 -20.523 -46.44 9.352 -23.181 -53.058
5 24 13.783 -17.587 -42.59 12.897 -23.396 -42.53 12.954 -17.479 -45.165 15.086 -13.426 -37.191
5 24 27.335 -2.33 92.28 26.749 -.759 96.252 22.283 -2.242 92.767 30.129 -.427 94.358
5 24 25.287 -.267 -.643 32.729 -.981 -2.993 26.224 -1.31 -4.807 31.838 -.335 .894
5 24 0 -57.077 32.065 .94 -56.826 30.747 1.3 -56.481 31.926 0 -56.826 30.747
5 24 5.722 -8.774 74.179 0 -15.965 67.757 0 -7.789 78.265 4.484 -17.018 65.111
5 24 10.316 -37.712 .988 2.57 -38.95 2.662 0 -39.112 1.511 2.021 -36.847 18.591
5 24 1.414 -36.82 -33.628 1.414 -33 -34.6 .765 -36.974 -33.135 1.848 -33 -35.27
5 24 5.864 -25.569 -58.58 3.698 -22.397 -65.646 0 -26.284 -59.915 5.741 -21.057 -64.474
5 24 29.91 -1.981 98.676 30.129 -.427 94.358 32.223 -.704 94.686 26.749 -.759 96.252
5 24 15.059 0 -2.815 17.98 -.79 -4.026 19.609 0 -.139 16.74 -3.544 -5.497
5 24 30.479 -8.214 -21.034 30.54 -5.724 -21.697 34.727 -7.542 -15.043 22.974 -5.946 -28.159
5 24 11.232 -28.368 35.303 8.493 -30.214 36.046 10.185 -35.762 18.317 7.536 -20.701 55.837
5 24 1.414 -36.82 -33.628 0 -38.958 -19.795 .765 -36.974 -33.135 9.736 -37.302 -20.663
5 24 2.054 -16.404 -78.097 0 -16.543 -78.496 2.128 -18.324 -77.486 0 -14.741 -77.737
5 24 14.244 -5.167 87.245 10.31 -5.009 80.389 15.063 -3.28 78.736 6.185 -5.586 86.037
5 24 15.059 0 -2.815 16.326 -.314 4.049 19.609 0 -.139 15.188 0 7.266
5 24 3.464 -53.863 32.026 1.3 -56.481 31.926 2 -54.179 30.597 2.627 -55.738 34.24
5 24 8.355 -34.62 -39.677 5.927 -29.522 -50.495 10.338 -29.451 -46.031 0 -33.815 -48.128
5 24 25.973 -3.681 -6.408 26.224 -1.31 -4.807 30.119 -3.611 -5.777 20.986 -3.602 -6.193
5 24 3.857 -18.031 -76.454 3.483 -18.139 -76.04 2.045 -18.345 -77.076 6.201 -17.305 -73.02
5 24 30.51 -7.704 97.983 28.715 -7.645 93.501 19.752 -7.606 98.564 31.524 -7.091 94.31
5 24 12.897 -23.396 -42.53 12.954 -17.479 -45.165 13.783 -17.587 -42.59 12.11 -20.523 -46.44
5 24 18.827 -3.615 83.129 14.244 -5.167 87.245 24.011 -6.06 89.483 15.063 -3.28 78.736
5 24 1.238 -39.342 4.071 0 -39.342 4.071 0 -39.114 2.662 1.238 -45.4 13.047
5 24 30.479 -8.214 -21.034 34.055 -8.336 -14.901 29.944 -8.885 -20.214 34.727 -7.542 -15.043
5 24 30.54 -5.724 -21.697 29.195 -4.925 -21.025 33.873 -3.959 -14.228 22.974 -5.946 -28.159
5 24 19.609 0 -.139 16.326 -.314 4.049 19.928 -1.169 1.668 15.059 0 -2.815
5 24 3.464 -53.863 32.026 4 -53.432 33.979 3.464 -37.811 28.484 2.627 -55.738 34.24
5 24 7.999 -13.634 -67.615 5.908 -15.123 -73.717 5.45 -13.93 -73.109 8.16 -16.3 -67.202
5 24 14.177 -8.35 21.889 12.322 -9.906 35.01 13.265 -5.813 22.565 14.129 -30.053 19.572
5 24 3.867 -16.137 -76.817 2.054 -16.404 -78.097 3.857 -18.031 -76.454 1.695 -14.882 -77.656
5 24 7.453 -16.579 -66.959 8.16 -16.3 -67.202 5.621 -17.523 -72.666 9.166 -15.762 -60.626
5 24 .765 -36.974 -33.135 0 -33 -33.996 0 -36.975 -32.939 .765 -33 -34.153
5 24 30.046 .17 91.711 32.223 -.704 94.686 30.129 -.427 94.358 30.153 .047 86.795
5 24 0 -10.068 -65.13 7.111 -12.247 -67.291 8.532 -10.62 -60.286 0 -11.959 -71.237
5 24 15.093 -1.739 87.298 0 -.401 79.842 0 -1.373 84.776 10.025 1.995 75.901
5 24 3.483 -18.139 -76.04 4.327 -19.203 -73.286 2.17 -20.091 -74.688 5.621 -17.523 -72.666
5 24 12.897 -23.396 -42.53 12.11 -20.523 -46.44 12.032 -26.241 -43.564 12.954 -17.479 -45.165
5 24 10.316 -37.712 .988 0 -39.112 1.511 2.57 -38.95 2.662 0 -38.958 -19.795
5 24 8.493 -30.214 36.046 3.75 -31.517 35.794 6.673 -31.824 33.156 0 -31.688 37.332
5 24 0 -7.839 -58.15 9.406 -8.697 -52.287 8.532 -10.62 -60.286 0 -5.299 -50.653
5 24 7.274 -23.27 -52.512 7.878 -23.085 -48.655 9.352 -23.181 -53.058 6.47 -23.292 -50.889
5 24 5.722 -8.774 74.179 4.484 -17.018 65.111 6.447 -15.946 63.644 0 -15.965 67.757
5 24 17.341 -5.618 -28.946 22.536 -5.02 -26.653 21.164 -5.204 -25.403 18.41 -5.695 -30.375
5 24 13.494 3.02 74.879 15.97 1.826 74.311 5.894 .814 64.637 22.407 2.817 82.711
5 24 5.621 -17.523 -72.666 4.327 -19.203 -73.286 6.052 -18.307 -70.333 3.483 -18.139 -76.04
5 24 7.111 -12.247 -67.291 7.999 -13.634 -67.615 9.67 -12.154 -60.47 5.45 -13.93 -73.109
5 24 19.609 0 -.139 20.814 -1.062 -4.498 17.98 -.79 -4.026 25.287 -.267 -.643
5 24 16.008 -14.38 -17.014 17.223 -11.842 -16.251 16.637 -11.509 -32.882 15.571 -12.369 1.063
5 24 19.176 -7.683 1.757 16.373 -4.199 5.275 19.127 -4.513 2.736 17.276 -9.222 1.445
5 24 24.011 -6.06 89.483 14.244 -5.167 87.245 18.827 -3.615 83.129 18.722 -8.305 93.694
5 24 10.025 1.995 75.901 15.093 -1.739 87.298 0 -.401 79.842 18.951 .697 84.486
5 24 7.011 -24.455 -49.22 10.25 -25.56 -48.955 7.878 -23.085 -48.655 9.405 -26.353 -50.805
5 24 3.464 -37.811 28.484 6.231 -34.081 26.025 7.585 -32.808 29.428 2 -38.126 27.054
5 24 7.006 -6.583 91.463 7.079 -6.706 94.039 18.722 -8.305 93.694 0 -5.904 90.83
5 24 4 -37.38 30.437 4 -53.432 33.979 3.464 -36.949 32.39 3.464 -53.863 32.026
5 24 22.836 -9.256 -26.66 18.329 -9.562 -31.754 23.117 -8.721 -27.928 18.264 -10.237 -30.251
5 24 9.166 -15.762 -60.626 7.679 -18.827 -63.073 10.126 -19.531 -53.181 7.453 -16.579 -66.959
5 24 6.175 -28.736 -54.901 5.864 -25.569 -58.58 8.949 -24.58 -53.293 0 -29.317 -56.482
5 24 11.199 -32.799 -37.942 12.156 -35.289 -20.124 13.668 -31.708 -18.035 8.355 -34.62 -39.677
5 24 5.45 -13.93 -73.109 5.908 -15.123 -73.717 3.64 -14.593 -76.116 7.999 -13.634 -67.615
5 24 33.873 -3.959 -14.228 36.998 -2.34 -7.283 33.127 -3.875 -6.629 35.262 -4.967 -15.168
5 24 26.65 -5.254 -20.332 20.986 -3.602 -6.193 25.973 -3.681 -6.408 21.164 -5.204 -25.403
5 24 15.188 0 7.266 16.373 -4.199 5.275 13.265 -5.813 22.565 16.326 -.314 4.049
5 24 0 .333 73.576 3.736 .046 65.493 0 -.047 65.073 10.025 1.995 75.901
5 24 31.524 -7.091 94.31 28.715 -7.645 93.501 30.127 -4.561 87.695 30.51 -7.704 97.983
5 24 7.274 -23.27 -52.512 8.949 -24.58 -53.293 6.73 -24.56 -51.699 9.352 -23.181 -53.058
5 24 2 -52.686 37.362 0 -52.57 37.885 0 -54.998 37.009 2 -36.633 33.819
2 24 5.894 .814 64.637 15.97 1.826 74.311
5 24 10.126 -19.531 -53.181 12.11 -20.523 -46.44 11.014 -23.261 -48.108 10.68 -15.779 -53.272
5 24 14.244 -5.167 87.245 6.185 -5.586 86.037 10.31 -5.009 80.389 7.006 -6.583 91.463
5 24 3.698 -22.397 -65.646 0 -26.284 -59.915 0 -22.975 -66.578 5.864 -25.569 -58.58
5 24 16.102 -4.079 -21.793 17.341 -5.618 -28.946 21.164 -5.204 -25.403 14.841 -5.655 -31.485
5 24 10.338 -29.451 -46.031 9.405 -26.353 -50.805 10.25 -25.56 -48.955 5.927 -29.522 -50.495
5 24 39.218 -5.355 2.096 37.705 -7.247 2.391 38.303 -5.559 4.194 37.193 -8.38 -6.501
5 24 3.64 -14.593 -76.116 3.867 -16.137 -76.817 5.908 -15.123 -73.717 1.695 -14.882 -77.656
5 24 6.009 -2.746 60.056 9.541 -4.108 68.047 7.4 -6.539 61.072 8.065 -.695 65.822
5 24 11.352 -5.795 -41.29 12.46 -9.016 -44.944 12.688 -5.516 -36.944 9.406 -8.697 -52.287
5 24 14.841 -5.655 -31.485 18.41 -5.695 -30.375 14.306 -6.336 -34.535 17.341 -5.618 -28.946
5 24 14.306 -6.336 -34.535 15.693 -8.198 -35.681 18.351 -7.038 -32.383 12.688 -5.516 -36.944
5 24 5.954 -22.473 55.879 8.493 -30.214 36.046 0 -31.688 37.332 7.536 -20.701 55.837
5 24 29.91 -1.981 98.676 26.749 -.759 96.252 21.203 -.61 96.284 30.129 -.427 94.358
5 24 25.015 -1.358 .919 25.287 -.267 -.643 30.951 -1.621 2.404 19.928 -1.169 1.668
5 24 12.156 -35.289 -20.124 14.565 -32.731 2.265 13.013 -35.602 .744 13.668 -31.708 -18.035
5 24 0 -1.331 36.592 8.644 -3.192 38.284 12.018 0 24.27 6.762 -3.718 48.444
5 24 0 -2.593 -39.98 12.688 -5.516 -36.944 0 -1.429 -32.935 11.352 -5.795 -41.29
5 24 12.156 -35.289 -20.124 8.355 -34.62 -39.677 11.199 -32.799 -37.942 9.736 -37.302 -20.663
5 24 0 0 -21.368 14.435 0 -21.368 0 0 -16.582 0 -1.429 -32.935
5 24 9.524 -9.561 50.628 8.531 -17.855 55.007 12.365 -24.822 34.078 7.4 -6.539 61.072
5 24 7.453 -16.579 -66.959 7.679 -18.827 -63.073 9.166 -15.762 -60.626 6.052 -18.307 -70.333
5 24 9.146 -7.145 71.146 5.722 -8.774 74.179 6.447 -15.946 63.644 15.063 -3.28 78.736
5 24 7.999 -13.634 -67.615 8.16 -16.3 -67.202 5.908 -15.123 -73.717 9.918 -15.295 -60.604
5 24 1.124 -50.733 18.951 2 -38.126 27.054 1.238 -38.271 15.028 .971 -55.296 25.008
5 24 4.484 -17.018 65.111 6.447 -15.946 63.644 5.954 -22.473 55.879 5.722 -8.774 74.179
5 24 5.45 -13.93 -73.109 7.999 -13.634 -67.615 5.908 -15.123 -73.717 7.111 -12.247 -67.291
5 24 15.093 -1.739 87.298 25.475 -1.135 89.075 22.283 -2.242 92.767 18.951 .697 84.486
5 24 18.41 -5.695 -30.375 22.536 -5.02 -26.653 17.341 -5.618 -28.946 22.974 -5.946 -28.159
5 24 11.199 -32.799 -37.942 8.355 -34.62 -39.677 10.338 -29.451 -46.031 12.156 -35.289 -20.124
5 24 34.055 -8.336 -14.901 30.257 -9.092 -10.829 29.944 -8.885 -20.214 37.193 -8.38 -6.501
5 24 16.102 -4.079 -21.793 20.986 -3.602 -6.193 21.164 -5.204 -25.403 16.74 -3.544 -5.497
5 24 9.028 -1.279 96.778 21.203 -.61 96.284 20.539 -2.542 99.382 10.728 .393 93.197
5 24 14.435 0 -21.368 14.841 -5.655 -31.485 13.069 -4.411 -32.975 16.102 -4.079 -21.793
5 24 36.998 -2.34 -7.283 39.447 -1.845 .803 38.801 -3.586 -6.5 37.457 -.515 .898
5 24 6.231 -34.081 26.025 10.185 -35.762 18.317 3.389 -35.102 23.923 7.585 -32.808 29.428
5 24 9.524 -9.561 50.628 12.322 -9.906 35.01 10.585 -6.594 38.665 12.365 -24.822 34.078
5 24 3.698 -22.397 -65.646 2.17 -20.091 -74.688 0 -22.975 -66.578 4.327 -19.203 -73.286
5 24 3.389 -35.102 23.923 2 -38.126 27.054 2.545 -35.637 22.497 6.231 -34.081 26.025
5 24 12.365 -24.822 34.078 8.531 -17.855 55.007 9.524 -9.561 50.628 11.232 -28.368 35.303
5 24 5.864 -25.569 -58.58 9.352 -23.181 -53.058 8.949 -24.58 -53.293 5.741 -21.057 -64.474
5 24 12.032 -26.241 -43.564 12.897 -23.396 -42.53 12.75 -30.312 -36.535 11.014 -23.261 -48.108
5 24 22.974 -5.946 -28.159 23.117 -8.721 -27.928 18.351 -7.038 -32.383 30.479 -8.214 -21.034
5 24 30.918 -5.626 3.043 30.951 -1.621 2.404 38.303 -5.559 4.194 24.891 -5.492 1.739
5 24 33.127 -3.875 -6.629 33.873 -3.959 -14.228 30.335 -4.935 -15.368 36.998 -2.34 -7.283
5 24 13.265 -5.813 22.565 14.177 -8.35 21.889 16.373 -4.199 5.275 10.585 -6.594 38.665
5 24 9.146 -7.145 71.146 15.063 -3.28 78.736 5.722 -8.774 74.179 17.586 -1.259 76.225
5 24 1.409 -55.151 36.668 0 -56.327 35.547 0 -54.998 37.009 2.605 -55.454 35.843
5 24 18.329 -9.562 -31.754 16.637 -11.509 -32.882 15.966 -10.88 -35.509 18.264 -10.237 -30.251
5 24 37.705 -7.247 2.391 30.918 -5.626 3.043 30.712 -7.801 .723 38.303 -5.559 4.194
5 24 9.67 -12.154 -60.47 11.365 -15.381 -53.18 9.918 -15.295 -60.604 10.741 -10.485 -52.727
5 24 5.954 -22.473 55.879 0 -22.586 57.431 4.484 -17.018 65.111 0 -31.688 37.332
5 24 13.563 -14.475 -44.696 15.086 -13.426 -37.191 13.783 -17.587 -42.59 14.42 -8.705 -38.223
5 24 14.435 0 -21.368 16.74 -3.544 -5.497 16.102 -4.079 -21.793 15.059 0 -2.815
5 24 10.31 -5.009 80.389 5.722 -8.774 74.179 0 -7.789 78.265 15.063 -3.28 78.736
5 24 9.028 -1.279 96.778 0 -3.638 94.761 8.961 -5.78 96.702 0 .414 94.69
5 24 15.571 -12.369 1.063 14.177 -8.35 21.889 14.565 -32.731 2.265 17.276 -9.222 1.445
5 24 4.068 -.767 59.471 6.009 -2.746 60.056 6.762 -3.718 48.444 5.894 .814 64.637
5 24 25.287 -.267 -.643 19.609 0 -.139 26.224 -1.31 -4.807 19.928 -1.169 1.668
5 24 37.705 -7.247 2.391 30.712 -7.801 .723 30.918 -5.626 3.043 30.257 -9.092 -10.829
5 24 17.98 -.79 -4.026 19.609 0 -.139 20.814 -1.062 -4.498 15.059 0 -2.815
5 24 36.998 -2.34 -7.283 35.262 -4.967 -15.168 38.801 -3.586 -6.5 33.873 -3.959 -14.228
5 24 29.195 -4.925 -21.025 30.335 -4.935 -15.368 33.873 -3.959 -14.228 26.65 -5.254 -20.332
5 24 18.264 -10.237 -30.251 16.637 -11.509 -32.882 18.329 -9.562 -31.754 17.223 -11.842 -16.251
5 24 7.4 -6.539 61.072 7.494 -12.848 61.111 8.531 -17.855 55.007 9.146 -7.145 71.146
5 24 26.65 -5.254 -20.332 25.973 -3.681 -6.408 20.986 -3.602 -6.193 30.335 -4.935 -15.368
5 24 32.729 -.981 -2.993 30.119 -3.611 -5.777 26.224 -1.31 -4.807 32.313 -3.557 -5.366
5 24 30.129 -.427 94.358 32.223 -.704 94.686 30.046 .17 91.711 29.91 -1.981 98.676
5 24 0 -1.331 36.592 12.018 0 24.27 0 0 24.27 8.644 -3.192 38.284
5 24 33.873 -3.959 -14.228 30.54 -5.724 -21.697 29.195 -4.925 -21.025 35.262 -4.967 -15.168
5 24 27.335 -2.33 92.28 30.129 -.427 94.358 26.749 -.759 96.252 30.046 .17 91.711
5 24 9.541 -4.108 68.047 9.146 -7.145 71.146 7.4 -6.539 61.072 17.586 -1.259 76.225
5 24 18.722 -8.305 93.694 7.079 -6.706 94.039 19.752 -7.606 98.564 7.006 -6.583 91.463
5 24 6.009 -2.746 60.056 6.762 -3.718 48.444 7.4 -6.539 61.072 4.068 -.767 59.471
5 24 7.999 -13.634 -67.615 9.918 -15.295 -60.604 9.67 -12.154 -60.47 8.16 -16.3 -67.202
5 24 12.855 -33.68 18.487 13.013 -35.602 .744 14.129 -30.053 19.572 10.185 -35.762 18.317
5 24 10.185 -35.762 18.317 7.585 -32.808 29.428 6.231 -34.081 26.025 8.493 -30.214 36.046
5 24 12.322 -9.906 35.01 10.585 -6.594 38.665 9.524 -9.561 50.628 14.177 -8.35 21.889
5 24 12.018 0 24.27 0 0 24.27 6 0 16 0 -1.331 36.592
5 24 14.306 -6.336 -34.535 18.351 -7.038 -32.383 18.41 -5.695 -30.375 15.693 -8.198 -35.681
5 24 21.203 -.61 96.284 22.283 -2.242 92.767 26.749 -.759 96.252 11.524 -1.998 89.8
5 24 7.079 -6.706 94.039 0 -5.58 92.698 19.752 -7.606 98.564 0 -5.904 90.83
5 24 10.025 1.995 75.901 13.494 3.02 74.879 3.736 .046 65.493 22.407 2.817 82.711
5 24 22.283 -2.242 92.767 15.093 -1.739 87.298 11.524 -1.998 89.8 25.475 -1.135 89.075
5 24 16.637 -11.509 -32.882 15.395 -15.24 -32.458 15.086 -13.426 -37.191 16.008 -14.38 -17.014
5 24 19.928 -1.169 1.668 19.127 -4.513 2.736 25.015 -1.358 .919 16.373 -4.199 5.275
5 24 2.054 -16.404 -78.097 3.857 -18.031 -76.454 2.128 -18.324 -77.486 3.867 -16.137 -76.817
5 24 22.407 2.817 82.711 23.989 1.659 80.598 15.97 1.826 74.311 30.153 .047 86.795
5 24 12.688 -5.516 -36.944 14.306 -6.336 -34.535 13.069 -4.411 -32.975 15.693 -8.198 -35.681
5 24 6.447 -15.946 63.644 5.722 -8.774 74.179 9.146 -7.145 71.146 4.484 -17.018 65.111
5 24 8.355 -34.62 -39.677 0 -33.815 -48.128 5.927 -29.522 -50.495 1.414 -36.4 -36.655
5 24 18.351 -7.038 -32.383 18.329 -9.562 -31.754 23.117 -8.721 -27.928 15.693 -8.198 -35.681
5 24 0 -.047 65.073 1.715 -.732 59.412 3.736 .046 65.493 0 -2.186 48.39
5 24 10.741 -10.485 -52.727 9.67 -12.154 -60.47 11.365 -15.381 -53.18 8.532 -10.62 -60.286
5 24 15.063 -3.28 78.736 5.722 -8.774 74.179 9.146 -7.145 71.146 10.31 -5.009 80.389
5 24 14.129 -30.053 19.572 12.855 -33.68 18.487 13.013 -35.602 .744 12.365 -24.822 34.078
5 24 19.928 -1.169 1.668 16.373 -4.199 5.275 16.326 -.314 4.049 19.127 -4.513 2.736
5 24 10.316 -37.712 .988 10.185 -35.762 18.317 13.013 -35.602 .744 2.021 -36.847 18.591
5 24 5.722 -8.774 74.179 0 -7.789 78.265 0 -15.965 67.757 10.31 -5.009 80.389
5 24 5.927 -29.522 -50.495 0 -33.815 -48.128 0 -29.317 -56.482 8.355 -34.62 -39.677
5 24 28.715 -7.645 93.501 18.722 -8.305 93.694 19.752 -7.606 98.564 24.011 -6.06 89.483
5 24 1.715 -.732 59.412 4.068 -.767 59.471 5.894 .814 64.637 0 -2.186 48.39
5 24 22.836 -9.256 -26.66 29.944 -8.885 -20.214 30.479 -8.214 -21.034 22.911 -9.254 -13.508
5 24 35.262 -4.967 -15.168 38.329 -7.253 -6.173 34.727 -7.542 -15.043 38.801 -3.586 -6.5
5 24 30.257 -9.092 -10.829 25.201 -7.696 -.011 30.712 -7.801 .723 22.911 -9.254 -13.508
5 24 15.571 -12.369 1.063 13.668 -31.708 -18.035 16.008 -14.38 -17.014 14.565 -32.731 2.265
5 24 8.531 -17.855 55.007 7.536 -20.701 55.837 11.232 -28.368 35.303 7.494 -12.848 61.111
5 24 5.741 -21.057 -64.474 4.327 -19.203 -73.286 6.052 -18.307 -70.333 3.698 -22.397 -65.646
5 24 15.693 -8.198 -35.681 14.42 -8.705 -38.223 12.688 -5.516 -36.944 15.086 -13.426 -37.191
5 24 12.365 -24.822 34.078 11.232 -28.368 35.303 8.531 -17.855 55.007 12.855 -33.68 18.487
5 24 7.536 -20.701 55.837 5.954 -22.473 55.879 6.447 -15.946 63.644 8.493 -30.214 36.046
5 24 7.536 -20.701 55.837 8.493 -30.214 36.046 11.232 -28.368 35.303 5.954 -22.473 55.879
5 24 6.185 -5.586 86.037 7.006 -6.583 91.463 0 -6.372 86.206 14.244 -5.167 87.245
5 24 21.164 -5.204 -25.403 22.536 -5.02 -26.653 26.65 -5.254 -20.332 17.341 -5.618 -28.946
5 24 0 -36.423 -37.221 .765 -33 -37.968 0 -33 -38.125 .765 -36.423 -37.091
5 24 2 -38.126 27.054 2 -54.179 30.597 .971 -55.296 25.008 3.464 -37.811 28.484
5 24 6.052 -18.307 -70.333 4.327 -19.203 -73.286 5.621 -17.523 -72.666 5.741 -21.057 -64.474
5 24 25.201 -7.696 -.011 17.223 -11.842 -16.251 22.911 -9.254 -13.508 19.176 -7.683 1.757
5 24 7.494 -12.848 61.111 6.447 -15.946 63.644 7.536 -20.701 55.837 9.146 -7.145 71.146
5 24 3.736 .046 65.493 13.494 3.02 74.879 5.894 .814 64.637 10.025 1.995 75.901
5 24 12.75 -30.312 -36.535 13.668 -31.708 -18.035 16.008 -14.38 -17.014 11.199 -32.799 -37.942
5 24 1.3 -56.481 31.926 .867 -56.643 34.345 2.627 -55.738 34.24 0 -57.077 32.065
5 24 17.586 -1.259 76.225 9.146 -7.145 71.146 15.063 -3.28 78.736 9.541 -4.108 68.047
5 24 32.729 -.981 -2.993 32.313 -3.557 -5.366 34.8 -1.478 -3.765 30.119 -3.611 -5.777
5 24 24.891 -5.492 1.739 19.176 -7.683 1.757 25.201 -7.696 -.011 19.127 -4.513 2.736
5 24 20.814 -1.062 -4.498 20.986 -3.602 -6.193 26.224 -1.31 -4.807 17.98 -.79 -4.026
5 24 20.986 -3.602 -6.193 17.98 -.79 -4.026 20.814 -1.062 -4.498 16.74 -3.544 -5.497
5 24 13.668 -31.708 -18.035 14.565 -32.731 2.265 15.571 -12.369 1.063 12.156 -35.289 -20.124
5 24 1.414 -36.4 -36.655 1.414 -33 -37.52 1.848 -36.402 -35.979 .765 -33 -37.968
5 24 12.11 -20.523 -46.44 11.014 -23.261 -48.108 10.126 -19.531 -53.181 12.897 -23.396 -42.53
5 24 19.752 -7.606 98.564 7.079 -6.706 94.039 18.722 -8.305 93.694 8.961 -5.78 96.702
5 24 9.541 -4.108 68.047 17.586 -1.259 76.225 9.146 -7.145 71.146 8.065 -.695 65.822
5 24 6.47 -23.292 -50.889 6.73 -24.56 -51.699 6.571 -24.7 -50.57 7.274 -23.27 -52.512
5 24 8.963 -25.855 -52.35 6.571 -24.7 -50.57 6.73 -24.56 -51.699 9.405 -26.353 -50.805
5 24 26.65 -5.254 -20.332 22.536 -5.02 -26.653 21.164 -5.204 -25.403 29.195 -4.925 -21.025
5 24 2.021 -36.847 18.591 1.238 -38.271 15.028 2 -38.126 27.054 1.238 -39.342 4.071
5 24 15.086 -13.426 -37.191 13.783 -17.587 -42.59 13.563 -14.475 -44.696 15.395 -15.24 -32.458
5 24 0 -29.317 -56.482 6.175 -28.736 -54.901 5.927 -29.522 -50.495 0 -26.284 -59.915
5 24 11.014 -23.261 -48.108 12.032 -26.241 -43.564 12.11 -20.523 -46.44 10.25 -25.56 -48.955
5 24 8.493 -30.214 36.046 0 -31.688 37.332 5.954 -22.473 55.879 3.75 -31.517 35.794
5 24 6.185 -5.586 86.037 0 -7.789 78.265 10.31 -5.009 80.389 0 -6.372 86.206
5 24 5.864 -25.569 -58.58 0 -26.284 -59.915 3.698 -22.397 -65.646 6.175 -28.736 -54.901
5 24 25.287 -.267 -.643 30.951 -1.621 2.404 25.015 -1.358 .919 31.838 -.335 .894
5 24 15.188 0 7.266 13.265 -5.813 22.565 16.373 -4.199 5.275 12.018 0 24.27
5 24 5.621 -17.523 -72.666 6.052 -18.307 -70.333 4.327 -19.203 -73.286 7.453 -16.579 -66.959
5 24 22.911 -9.254 -13.508 22.836 -9.256 -26.66 29.944 -8.885 -20.214 17.223 -11.842 -16.251
5 24 29.944 -8.885 -20.214 30.479 -8.214 -21.034 34.055 -8.336 -14.901 22.836 -9.256 -26.66
5 24 34.055 -8.336 -14.901 29.944 -8.885 -20.214 30.479 -8.214 -21.034 30.257 -9.092 -10.829
5 24 9.918 -15.295 -60.604 9.166 -15.762 -60.626 10.68 -15.779 -53.272 8.16 -16.3 -67.202
5 24 1.715 -.732 59.412 3.736 .046 65.493 5.894 .814 64.637 0 -.047 65.073
5 24 12.365 -24.822 34.078 12.855 -33.68 18.487 11.232 -28.368 35.303 14.129 -30.053 19.572
5 24 9.405 -26.353 -50.805 5.927 -29.522 -50.495 10.338 -29.451 -46.031 8.963 -25.855 -52.35
5 24 19.176 -7.683 1.757 17.276 -9.222 1.445 17.223 -11.842 -16.251 16.373 -4.199 5.275
5 24 2.57 -38.95 2.662 0 -39.112 1.511 0 -39.114 2.662 10.316 -37.712 .988
5 24 3.464 -53.001 35.932 2 -52.686 37.362 3.464 -36.949 32.39 2.605 -55.454 35.843
5 24 13.563 -14.475 -44.696 13.783 -17.587 -42.59 11.365 -15.381 -53.18 15.086 -13.426 -37.191
5 24 7.011 -24.455 -49.22 6.47 -23.292 -50.889 6.571 -24.7 -50.57 7.878 -23.085 -48.655
5 24 25.201 -7.696 -.011 22.911 -9.254 -13.508 17.223 -11.842 -16.251 30.257 -9.092 -10.829
5 24 19.127 -4.513 2.736 19.176 -7.683 1.757 24.891 -5.492 1.739 16.373 -4.199 5.275
5 24 7.494 -12.848 61.111 9.146 -7.145 71.146 6.447 -15.946 63.644 7.4 -6.539 61.072
5 24 2.054 -16.404 -78.097 0 -14.741 -77.737 0 -16.543 -78.496 1.695 -14.882 -77.656
5 24 6.673 -31.824 33.156 3.464 -36.949 32.39 3.75 -31.517 35.794 4 -37.38 30.437
5 24 8.531 -17.855 55.007 11.232 -28.368 35.303 7.536 -20.701 55.837 12.365 -24.822 34.078
5 24 37.705 -7.247 2.391 30.257 -9.092 -10.829 37.193 -8.38 -6.501 30.712 -7.801 .723
5 24 4.068 -.767 59.471 0 -2.186 48.39 1.715 -.732 59.412 6.762 -3.718 48.444
5 24 5.954 -22.473 55.879 4.484 -17.018 65.111 0 -22.586 57.431 7.536 -20.701 55.837
5 24 9.146 -7.145 71.146 6.447 -15.946 63.644 5.722 -8.774 74.179 7.494 -12.848 61.111
5 24 12.46 -9.016 -44.944 12.688 -5.516 -36.944 14.42 -8.705 -38.223 11.352 -5.795 -41.29
5 24 3.736 .046 65.493 5.894 .814 64.637 1.715 -.732 59.412 13.494 3.02 74.879
5 24 4 -53.432 33.979 3.464 -53.001 35.932 4 -37.38 30.437 2.627 -55.738 34.24
5 24 10.338 -29.451 -46.031 8.355 -34.62 -39.677 11.199 -32.799 -37.942 5.927 -29.522 -50.495
5 24 20.539 -2.542 99.382 19.752 -7.606 98.564 8.961 -5.78 96.702 29.91 -1.981 98.676
5 24 10.025 1.995 75.901 18.951 .697 84.486 22.407 2.817 82.711 15.093 -1.739 87.298
5 24 30.153 .047 86.795 31.524 -7.091 94.31 30.127 -4.561 87.695 32.223 -.704 94.686
5 24 29.91 -1.981 98.676 19.752 -7.606 98.564 20.539 -2.542 99.382 30.51 -7.704 97.983
5 24 6.673 -31.824 33.156 8.493 -30.214 36.046 7.585 -32.808 29.428 3.75 -31.517 35.794
5 24 25.287 -.267 -.643 31.838 -.335 .894 32.729 -.981 -2.993 30.951 -1.621 2.404
5 24 31.838 -.335 .894 37.457 -.515 .898 38.12 -1.441 3.506 32.729 -.981 -2.993
5 24 1.3 -56.481 31.926 0 -57.077 32.065 .867 -56.643 34.345 .94 -56.826 30.747
5 24 12.688 -5.516 -36.944 0 -1.429 -32.935 0 -2.593 -39.98 13.069 -4.411 -32.975
5 24 .867 -56.643 34.345 0 -56.327 35.547 0 -56.767 34.188 2.605 -55.454 35.843
5 24 0 -55.296 25.008 .971 -55.296 25.008 0 -50.733 18.951 .94 -56.826 30.747
5 24 1.238 -38.271 15.028 1.124 -50.733 18.951 2 -38.126 27.054 1.238 -45.4 13.047
5 24 9.352 -23.181 -53.058 5.741 -21.057 -64.474 7.679 -18.827 -63.073 5.864 -25.569 -58.58
5 24 13.013 -35.602 .744 9.736 -37.302 -20.663 12.156 -35.289 -20.124 10.316 -37.712 .988
